4800.89999437333  1.421369015156397E-18
4803.44999437333  1.343969805409260E-18
4805.99999437333  1.280242710216464E-18
4808.54999437332  1.226998076889228E-18
4811.09999437332  1.160340089757882E-18
4813.64999437333  1.115654855582921E-18
4816.19999437333  1.056509116885383E-18
4818.74999437332  9.935410070869268E-19
4821.29999437333  9.427992266016833E-19
4823.84999437332  8.882345561097409E-19
4826.39999437333  8.410231760781350E-19
4828.94999437333  7.951479769742690E-19
4831.49999437332  7.466818264941963E-19
4834.04999437332  7.053723590530308E-19
4836.59999437332  6.690135356233652E-19
4839.14999437333  6.302687860317988E-19
4841.69999437333  5.927163653104543E-19
4844.24999437332  5.577685028223532E-19
4846.79999437332  5.323579451708406E-19
4849.34999437333  5.010380373096936E-19
4851.89999437332  4.700329319476691E-19
4854.44999437333  4.472055997642493E-19
4856.99999437332  4.298372368991394E-19
4859.54999437333  4.134439834138015E-19
4862.09999437333  4.025407470738845E-19
4864.64999437333  3.903353757618526E-19
4867.19999437332  3.802312534510837E-19
4869.74999437333  3.732166927735103E-19
4872.29999437332  3.752592189779979E-19
4874.84999437333  3.712894787727122E-19
4877.39999437333  3.699816069925097E-19
4879.94999437333  3.639534274688301E-19
4882.49999437332  3.588532234329852E-19
4885.04999437332  3.487213108714603E-19
4887.59999437333  3.439902790672297E-19
4890.14999437333  3.417286306819105E-19
4892.69999437332  3.372915586810973E-19
4895.24999437333  3.297779841651342E-19
4897.79999437333  3.258375044530929E-19
4900.34999437332  3.219886691675083E-19
4902.89999437333  3.119966592230445E-19
4905.44999437333  3.034584775421328E-19
4907.99999437333  2.980383972781424E-19
4910.54999437332  2.897838261251992E-19
4913.09999437333  2.804513735367943E-19
4915.64999437333  2.728908669341855E-19
4918.19999437333  2.675856376933988E-19
4920.74999437332  2.622412311097830E-19
4923.29999437333  2.612115501870069E-19
4925.84999437332  2.547736661838739E-19
4928.39999437333  2.522311171182394E-19
4930.94999437333  2.523420763347501E-19
4933.49999437333  2.491304854839318E-19
4936.04999437333  2.473965060503769E-19
4938.59999437333  2.458191783346654E-19
4941.14999437332  2.397367155762609E-19
4943.69999437333  2.390826643720492E-19
4946.24999437333  2.331755195059205E-19
4948.79999437332  2.279288977320117E-19
4951.34999437332  2.224392121094641E-19
4953.89999437333  2.176754748776946E-19
4956.44999437333  2.123791823456894E-19
4958.99999437332  2.098819221780610E-19
4961.54999437333  2.069143753353042E-19
4964.09999437332  2.048387977222748E-19
4966.64999437333  2.031837351267253E-19
4969.19999437332  1.996490248894943E-19
4971.74999437332  1.988989762241130E-19
4974.29999437332  1.973661302203740E-19
4976.84999437333  1.952928588539084E-19
4979.39999437333  1.943405812971064E-19
4981.94999437333  1.908879013268091E-19
4984.49999437332  1.878536175110351E-19
4987.04999437333  1.864344549916219E-19
4989.59999437332  1.826205016835682E-19
4992.14999437333  1.775532481521976E-19
4994.69999437333  1.739856306797398E-19
4997.24999437333  1.709563485354835E-19
4999.79999437332  1.676913825278015E-19
5002.34999437333  1.656516670345392E-19
5004.89999437333  1.631671056358814E-19
5007.44999437333  1.620993428442059E-19
5009.99999437332  1.600862788997873E-19
5012.54999437333  1.584041899955669E-19
5015.09999437333  1.581706394000292E-19
5017.64999437332  1.564821074230924E-19
5020.19999437333  1.583290640259273E-19
5022.74999437332  1.557431863864189E-19
5025.29999437333  1.562949699986075E-19
5027.84999437333  1.567279819737604E-19
5030.39999437333  1.551548919926257E-19
5032.94999437333  1.539175769246844E-19
5035.49999437333  1.518737246061254E-19
5038.04999437333  1.501195367072513E-19
5040.59999437333  1.495019241868326E-19
5043.14999437333  1.475474532912927E-19
5045.69999437333  1.473091460655170E-19
5048.24999437332  1.462590981231017E-19
5050.79999437333  1.460690202538884E-19
5053.34999437333  1.462141983923576E-19
5055.89999437333  1.447203423554783E-19
5058.44999437333  1.466262235269304E-19
5060.99999437333  1.448757256218855E-19
5063.54999437333  1.441287615645725E-19
5066.09999437332  1.438470104418712E-19
5068.64999437333  1.431644627008776E-19
5071.19999437333  1.414063974287935E-19
5073.74999437333  1.409097474793640E-19
5076.29999437333  1.404990628263825E-19
5078.84999437333  1.400400190907296E-19
5081.39999437333  1.382098259951038E-19
5083.94999437333  1.374495289574606E-19
5086.49999437333  1.364762501594880E-19
5089.04999437333  1.361568639956885E-19
5091.59999437333  1.344774705201666E-19
5094.14999437333  1.353079350584145E-19
5096.69999437333  1.348888902664875E-19
5099.24999437333  1.352636983747146E-19
5101.79999437333  1.347256513215165E-19
5104.34999437333  1.345652087063634E-19
5106.89999437333  1.368003064037363E-19
5109.44999437333  1.370289129691115E-19
5111.99999437333  1.386840908527587E-19
5114.54999437333  1.404280303550690E-19
5117.09999437332  1.398812628114895E-19
5119.64999437333  1.405044103040000E-19
5122.19999437333  1.389363796528934E-19
5124.74999437333  1.371625310164059E-19
5127.29999437333  1.346514478043997E-19
5129.84999437333  1.319911216889483E-19
5132.39999437332  1.304451445100399E-19
5134.94999437333  1.275432391922816E-19
5137.49999437333  1.263911254813834E-19
5140.04999437332  1.241675589984741E-19
5142.59999437333  1.236811718427837E-19
5145.14999437333  1.229084499101134E-19
5147.69999437333  1.227724967388965E-19
5150.24999437333  1.216219109161476E-19
5152.79999437332  1.202121247347416E-19
5155.34999437333  1.198257277303336E-19
5157.89999437333  1.188280171480345E-19
5160.44999437333  1.190426132736183E-19
5162.99999437333  1.165221177006030E-19
5165.54999437333  1.156162461335602E-19
5168.09999437333  1.146222904074620E-19
5170.64999437333  1.141085886590071E-19
5173.19999437333  1.126933035248309E-19
5175.74999437333  1.129260541259845E-19
5178.29999437333  1.131382359012173E-19
5180.84999437333  1.119966804718028E-19
5183.39999437332  1.124439839626206E-19
5185.94999437333  1.115103509675680E-19
5188.49999437333  1.116086907057509E-19
5191.04999437332  1.127451219342565E-19
5193.59999437333  1.146591326173007E-19
5196.14999437333  1.153429920197168E-19
5198.69999437333  1.165218221275914E-19
5201.24999437333  1.181719118556396E-19
5203.79999437333  1.162237759365345E-19
5206.34999437333  1.139035057061909E-19
5208.89999437333  1.144881749365560E-19
5211.44999437333  1.134540328859316E-19
5213.99999437333  1.141652861589786E-19
5216.54999437333  1.152985823345189E-19
5219.09999437333  1.148981388553159E-19
5221.64999437333  1.148580534220747E-19
5224.19999437333  1.143406616816969E-19
5226.74999437333  1.137968562248892E-19
5229.29999437333  1.125832450429353E-19
5231.84999437333  1.124255843381523E-19
5234.39999437333  1.119163221129513E-19
5236.94999437333  1.118055142242887E-19
5239.49999437333  1.105684946522212E-19
5242.04999437333  1.092174600749054E-19
5244.59999437333  1.094540592230186E-19
5247.14999437333  1.077992488888731E-19
5249.69999437333  1.072659368491222E-19
5252.24999437333  1.072340241733824E-19
5254.79999437333  1.072795580998962E-19
5257.34999437332  1.066624212481843E-19
5259.89999437333  1.059632325105860E-19
5262.44999437333  1.051741002037483E-19
5264.99999437333  1.055606989920820E-19
5267.54999437332  1.052352156953057E-19
5270.09999437332  1.050262338246703E-19
5272.64999437333  1.058886182391132E-19
5275.19999437333  1.070029815808119E-19
5277.74999437333  1.073630369262172E-19
5280.29999437332  1.081718948268792E-19
5282.84999437333  1.084907981064474E-19
5285.39999437333  1.083968474303879E-19
5287.94999437333  1.086525667939144E-19
5290.49999437333  1.082463432883229E-19
5293.04999437333  1.075918668831970E-19
5295.59999437333  1.090571398708042E-19
5298.14999437333  1.083705634130336E-19
5300.69999437333  1.072026158914601E-19
5303.24999437333  1.062732134179550E-19
5305.79999437333  1.061283163405670E-19
5308.34999437333  1.050932734154695E-19
5310.89999437333  1.042367555027704E-19
5313.44999437333  1.037395434109720E-19
5315.99999437333  1.026016491499171E-19
5318.54999437333  1.024874323431375E-19
5321.09999437333  1.019472303965190E-19
5323.64999437333  1.027317357872050E-19
5326.19999437333  1.019662352896082E-19
5328.74999437333  1.011722959039467E-19
5331.29999437332  1.019392161736683E-19
5333.84999437333  1.004180383476966E-19
5336.39999437333  1.005328172916813E-19
5338.94999437333  1.002854220223562E-19
5341.49999437333  1.004202004378571E-19
5344.04999437333  1.002762330661016E-19
5346.59999437333  1.002490409869305E-19
5349.14999437333  1.004708369227854E-19
5351.69999437333  1.010200404229896E-19
5354.24999437333  1.005376747863436E-19
5356.79999437333  1.008056316645054E-19
5359.34999437333  1.009120432620058E-19
5361.89999437333  1.000444121306138E-19
5364.44999437333  1.006113304779181E-19
5366.99999437333  1.002864886066990E-19
5369.54999437333  1.004343765856588E-19
5372.09999437333  1.000914162743631E-19
5374.64999437333  1.006323244980992E-19
5377.19999437333  1.007646381138247E-19
5379.74999437333  1.012057435694528E-19
5382.29999437333  1.011878197138670E-19
5384.84999437332  9.986144755239976E-20
5387.39999437332  9.934212433425853E-20
5389.94999437333  9.939559318674628E-20
5392.49999437333  9.806850753091413E-20
5395.04999437333  9.849202065867629E-20
5397.59999437332  9.706702768043314E-20
5400.14999437333  9.746943145614286E-20
5402.69999437333  9.539869698409086E-20
5405.24999437333  9.511688821045465E-20
5407.79999437333  9.510076610940387E-20
5410.34999437333  9.509497166336394E-20
5412.89999437333  9.480242443483668E-20
5415.44999437333  9.551581098335956E-20
5417.99999437333  9.536446362702225E-20
5420.54999437333  9.497675494936956E-20
5423.09999437333  9.572761798489272E-20
5425.64999437333  9.553637979087231E-20
5428.19999437333  9.581555078709932E-20
5430.74999437333  9.554771641909654E-20
5433.29999437333  9.647780354696379E-20
5435.84999437333  9.685776467233921E-20
5438.39999437333  9.633314429761965E-20
5440.94999437333  9.714804167665707E-20
5443.49999437333  9.761427079242066E-20
5446.04999437332  9.871662724128388E-20
5448.59999437333  9.803531190849550E-20
5451.14999437333  9.798332048504738E-20
5453.69999437333  9.938886171420302E-20
5456.24999437333  9.889551258522576E-20
5458.79999437333  9.926627755699662E-20
5461.34999437333  9.988102166659135E-20
5463.89999437333  9.938623113432472E-20
5466.44999437333  9.911291222664896E-20
5468.99999437333  9.958056833145775E-20
5471.54999437332  9.899687924776072E-20
5474.09999437333  9.918289955226173E-20
5476.64999437333  9.813160480835774E-20
5479.19999437333  9.816361837212674E-20
5481.74999437333  9.810345419176833E-20
5484.29999437333  9.746764396322477E-20
5486.84999437333  9.686723460097692E-20
5489.39999437333  9.621810580562176E-20
5491.94999437333  9.493375776183919E-20
5494.49999437333  9.519543732823274E-20
5497.04999437333  9.361643761223426E-20
5499.59999437333  9.332073371105636E-20
5502.14999437332  9.310222416620362E-20
5504.69999437332  9.189711727192889E-20
5507.24999437333  9.133135203965935E-20
5509.79999437333  9.116829328172471E-20
5512.34999437333  9.078942040759450E-20
5514.89999437333  9.029449294297943E-20
5517.44999437333  9.024413030584605E-20
5519.99999437333  8.955066394424354E-20
5522.54999437333  8.935906540017160E-20
5525.09999437333  8.940655963634402E-20
5527.64999437333  8.882767763397032E-20
5530.19999437333  8.920588024711239E-20
5532.74999437333  8.964075163281213E-20
5535.29999437332  8.963306174183911E-20
5537.84999437333  9.069675254458980E-20
5540.39999437333  9.170457455352345E-20
5542.94999437333  9.283214114540163E-20
5545.49999437333  9.365684727298768E-20
5548.04999437333  9.365948503683060E-20
5550.59999437333  9.461511383028062E-20
5553.14999437333  9.479517393200909E-20
5555.69999437333  9.488046176369671E-20
5558.24999437333  9.565200172858979E-20
5560.79999437332  9.783152610314269E-20
5563.34999437332  9.859669506504918E-20
5565.89999437333  1.039770645729540E-19
5568.44999437333  1.442157776624983E-19
5570.99999437333  2.114261238508717E-19
5573.54999437333  2.523729479466758E-19
5576.09999437333  2.603664808145789E-19
5578.64999437333  2.547579803840954E-19
5581.19999437333  2.227820615180406E-19
5583.74999437333  1.549530938403515E-19
5586.29999437333  1.081279530270056E-19
5588.84999437333  1.021839011125977E-19
5591.39999437333  1.012958957489201E-19
5593.94999437333  1.009885236879629E-19
5596.49999437333  9.925094798563311E-20
5599.04999437332  9.905501081743162E-20
5601.59999437333  9.934385362934882E-20
5604.14999437333  9.763694378350812E-20
5606.69999437333  9.722342678046851E-20
5609.24999437333  9.538621407248871E-20
5611.79999437333  9.382853992239191E-20
5614.34999437333  9.264467931591640E-20
5616.89999437333  9.158077229591146E-20
5619.44999437332  9.075245544569884E-20
5621.99999437333  9.031986146983257E-20
5624.54999437333  8.945651851848126E-20
5627.09999437333  8.845673953362489E-20
5629.64999437333  8.650636225013903E-20
5632.19999437333  8.628139521931078E-20
5634.74999437333  8.537700830807382E-20
5637.29999437333  8.510366778108553E-20
5639.84999437333  8.440115661537449E-20
5642.39999437333  8.398317846988256E-20
5644.94999437333  8.371050819555742E-20
5647.49999437333  8.253983643085902E-20
5650.04999437332  8.259309628078568E-20
5652.59999437332  8.226811027219810E-20
5655.14999437333  8.194690794742022E-20
5657.69999437333  8.201332060288855E-20
5660.24999437333  8.171819326464603E-20
5662.79999437333  8.167542682385414E-20
5665.34999437333  8.277998140954887E-20
5667.89999437333  8.306913412367020E-20
5670.44999437333  8.364011001950006E-20
5672.99999437333  8.438020576957409E-20
5675.54999437333  8.463597558216427E-20
5678.09999437332  8.426947715737444E-20
5680.64999437333  8.519939131361294E-20
5683.19999437333  8.561909913538647E-20
5685.74999437333  8.668158636398024E-20
5688.29999437333  8.620598091312245E-20
5690.84999437333  8.704891358439253E-20
5693.39999437333  8.726752401863063E-20
5695.94999437333  8.782786956440924E-20
5698.49999437333  8.708901341407566E-20
5701.04999437333  8.704296778052324E-20
5703.59999437333  8.665493478988201E-20
5706.14999437333  8.593166020983936E-20
5708.69999437333  8.557273635979035E-20
5711.24999437333  8.502738140145062E-20
5713.79999437333  8.530853432675817E-20
5716.34999437332  8.508826627131682E-20
5718.89999437333  8.519866334965156E-20
5721.44999437333  8.443064040311719E-20
5723.99999437333  8.461401573269487E-20
5726.54999437332  8.428951980166171E-20
5729.09999437333  8.381148558665787E-20
5731.64999437333  8.415102255432632E-20
5734.19999437333  8.314926884909750E-20
5736.74999437332  8.366994697475174E-20
5739.29999437333  8.377632253781220E-20
5741.84999437333  8.446475118432104E-20
5744.39999437333  8.299790706999926E-20
5746.94999437333  8.333466212918555E-20
5749.49999437333  8.261392441974956E-20
5752.04999437333  8.213702891366976E-20
5754.59999437333  8.193325771979740E-20
5757.14999437333  8.188564816395697E-20
5759.69999437333  8.217001541869279E-20
5762.24999437333  8.184293216900492E-20
5764.79999437333  8.208560683207897E-20
5767.34999437332  8.213337493533970E-20
5769.89999437333  8.100587320335655E-20
5772.44999437333  8.090471551346535E-20
5774.99999437333  8.033050366109931E-20
5777.54999437332  8.050720529328620E-20
5780.09999437333  7.976187003636101E-20
5782.64999437333  7.906308490039343E-20
5785.19999437333  7.941885927666127E-20
5787.74999437333  7.970763722562592E-20
5790.29999437333  7.874187536300290E-20
5792.84999437333  7.854371843546036E-20
5795.39999437333  7.782558245985891E-20
5797.94999437333  7.746168576927363E-20
5800.49999437333  7.735856777106809E-20
5803.04999437333  7.690588784178987E-20
5805.59999437333  7.716870611663746E-20
5808.14999437333  7.695253885449192E-20
5810.69999437333  7.702133703271830E-20
5813.24999437333  7.616163362836182E-20
5815.79999437333  7.576751791694816E-20
5818.34999437333  7.600094597770052E-20
5820.89999437333  7.645469253894439E-20
5823.44999437333  7.654515500938990E-20
5825.99999437333  7.542731068111927E-20
5828.54999437333  7.544283459197197E-20
5831.09999437333  7.536366551042529E-20
5833.64999437332  7.526631312575848E-20
5836.19999437333  7.489878409913339E-20
5838.74999437333  7.450100722346187E-20
5841.29999437332  7.525288644435613E-20
5843.84999437332  7.650916314276196E-20
5846.39999437333  7.515820785983009E-20
5848.94999437333  7.465685174026420E-20
5851.49999437333  7.566447915551682E-20
5854.04999437333  7.492756169527512E-20
5856.59999437333  7.532281610884082E-20
5859.14999437333  7.661174059258097E-20
5861.69999437333  7.841333620881040E-20
5864.24999437333  7.910868359034052E-20
5866.79999437333  7.984360470048529E-20
5869.34999437333  7.970707497298259E-20
5871.89999437333  7.939705793964256E-20
5874.44999437333  7.843796256888671E-20
5876.99999437333  7.839699067580092E-20
5879.54999437333  8.173059624389658E-20
5882.09999437333  9.322077898860726E-20
5884.64999437332  1.047080428906299E-19
5887.19999437333  1.099890996797023E-19
5889.74999437333  1.143409630133100E-19
5892.29999437332  1.122285071392621E-19
5894.84999437333  1.019352080649561E-19
5897.39999437333  9.380988051031275E-20
5899.94999437333  8.702993000404681E-20
5902.49999437333  8.023330966872570E-20
5905.04999437332  7.925053924860973E-20
5907.59999437333  8.017088248371100E-20
5910.14999437333  8.148429640897862E-20
5912.69999437333  8.187940668165641E-20
5915.24999437333  8.251085665258031E-20
5917.79999437332  8.256026795569416E-20
5920.34999437333  8.198390120678672E-20
5922.89999437333  8.051396528686055E-20
5925.44999437333  8.191495887860501E-20
5927.99999437333  8.295324494141665E-20
5930.54999437333  8.116759844864340E-20
5933.09999437333  8.000757145354347E-20
5935.64999437333  7.847288769609209E-20
5938.19999437333  7.721333180076097E-20
5940.74999437333  7.678896103417931E-20
5943.29999437333  7.648316010614568E-20
5945.84999437333  7.659574091075631E-20
5948.39999437333  7.705696835451689E-20
5950.94999437332  7.617089447814341E-20
5953.49999437333  7.515307633685036E-20
5956.04999437333  7.411216691418433E-20
5958.59999437332  7.305050849057006E-20
5961.14999437333  7.172264449179882E-20
5963.69999437333  7.184066659418089E-20
5966.24999437333  7.161869768453272E-20
5968.79999437333  7.233175991231143E-20
5971.34999437333  7.222479336786920E-20
5973.89999437333  7.258040198216884E-20
5976.44999437333  7.181454114460160E-20
5978.99999437333  7.133891407588343E-20
5981.54999437332  7.012315522209555E-20
5984.09999437333  6.970243841357902E-20
5986.64999437333  6.932986447652568E-20
5989.19999437333  6.998499670411253E-20
5991.74999437333  7.017915373074934E-20
5994.29999437333  7.012641277995151E-20
5996.84999437333  7.051364578342110E-20
5999.39999437333  7.090348772690112E-20
6001.94999437333  7.112706379556588E-20
6004.49999437333  7.134728139444346E-20
6007.04999437333  7.120112309343534E-20
6009.59999437333  7.095740340766703E-20
6012.14999437333  7.154058078047058E-20
6014.69999437333  7.127576615689733E-20
6017.24999437333  7.131250752516463E-20
6019.79999437333  7.208177006849845E-20
6022.34999437333  7.192385712331081E-20
6024.89999437333  7.240117062801399E-20
6027.44999437333  7.342373818634751E-20
6029.99999437333  7.387960360933318E-20
6032.54999437332  7.408621436055490E-20
6035.09999437333  7.392993020110163E-20
6037.64999437333  7.352677689246977E-20
6040.19999437333  7.397369840769828E-20
6042.74999437333  7.353192990375768E-20
6045.29999437333  7.418951972336602E-20
6047.84999437333  7.419380789545083E-20
6050.39999437333  7.354662500232249E-20
6052.94999437333  7.330863489492109E-20
6055.49999437333  7.357032887455017E-20
6058.04999437333  7.319374783654892E-20
6060.59999437333  7.272320892221628E-20
6063.14999437333  7.230907932741745E-20
6065.69999437333  7.123335280916115E-20
6068.24999437333  7.119764203884813E-20
6070.79999437333  7.034179439235600E-20
6073.34999437333  7.001038693507412E-20
6075.89999437333  6.993575827479453E-20
6078.44999437333  6.892558678048210E-20
6080.99999437333  6.922800040439101E-20
6083.54999437333  6.835120916770341E-20
6086.09999437333  6.803294730897714E-20
6088.64999437333  6.849536390997739E-20
6091.19999437333  6.805269452952598E-20
6093.74999437333  6.771498813988021E-20
6096.29999437332  6.777836664192173E-20
6098.84999437333  6.769818137192100E-20
6101.39999437333  6.698629388392735E-20
6103.94999437333  6.662935196689439E-20
6106.49999437333  6.665578730153660E-20
6109.04999437332  6.602538955112912E-20
6111.59999437333  6.546033061387680E-20
6114.14999437333  6.585730750348566E-20
6116.69999437333  6.567785999304199E-20
6119.24999437333  6.561644900157799E-20
6121.79999437333  6.521618570752406E-20
6124.34999437333  6.571960302623130E-20
6126.89999437333  6.562730996836661E-20
6129.44999437333  6.623532271989082E-20
6131.99999437333  6.688071105979764E-20
6134.54999437333  6.752818943449167E-20
6137.09999437333  6.782494555017235E-20
6139.64999437332  6.762024465334343E-20
6142.19999437333  6.773351733175187E-20
6144.74999437333  6.730534126223394E-20
6147.29999437333  6.692253336264691E-20
6149.84999437333  6.704634990645369E-20
6152.39999437332  6.676429609985813E-20
6154.94999437333  6.699574223050764E-20
6157.49999437333  6.674906766873528E-20
6160.04999437333  6.692925028985432E-20
6162.59999437333  6.787893328697775E-20
6165.14999437333  6.830009692416396E-20
6167.69999437333  6.894642217585844E-20
6170.24999437333  6.939979397043782E-20
6172.79999437332  6.931591870799834E-20
6175.34999437333  6.834614254360636E-20
6177.89999437333  6.739679106450315E-20
6180.44999437333  6.766743615868086E-20
6182.99999437333  6.716178466034055E-20
6185.54999437333  6.716259905077610E-20
6188.09999437333  6.684247778235681E-20
6190.64999437333  6.760450447935649E-20
6193.19999437333  6.673343561544895E-20
6195.74999437333  6.681551632575039E-20
6198.29999437333  6.757834300152367E-20
6200.84999437333  6.682582956174289E-20
6203.39999437333  6.703633210186334E-20
6205.94999437333  6.649375905739423E-20
6208.49999437333  6.573079544358789E-20
6211.04999437333  6.541634609745308E-20
6213.59999437333  6.628887798067284E-20
6216.14999437333  6.644975300408889E-20
6218.69999437333  6.585084271054784E-20
6221.24999437333  6.562439103783158E-20
6223.79999437333  6.578125175298326E-20
6226.34999437333  6.739026866806192E-20
6228.89999437333  7.115369348579136E-20
6231.44999437333  7.262318255812710E-20
6233.99999437333  7.342507847062217E-20
6236.54999437333  7.336953399063846E-20
6239.09999437333  7.056761167426759E-20
6241.64999437333  6.711478044198724E-20
6244.19999437333  6.607206206312786E-20
6246.74999437333  6.455436525180484E-20
6249.29999437333  6.632219598539603E-20
6251.84999437333  6.916976033274412E-20
6254.39999437333  7.031506338163113E-20
6256.94999437332  7.208677869681061E-20
6259.49999437333  7.272748968163775E-20
6262.04999437333  6.976234285307759E-20
6264.59999437333  6.782983178460124E-20
6267.14999437333  6.696482402265724E-20
6269.69999437332  6.632075456323183E-20
6272.24999437333  6.591908590188726E-20
6274.79999437333  6.528483960624319E-20
6277.34999437333  6.593114323608806E-20
6279.89999437333  6.795795090520591E-20
6282.44999437333  6.918274734736069E-20
6284.99999437333  6.877550766212650E-20
6287.54999437333  6.979989138518726E-20
6290.09999437333  8.246696546612458E-20
6292.64999437333  1.125959994616871E-19
6295.19999437333  1.263300074919032E-19
6297.74999437333  1.327220402791301E-19
6300.29999437333  1.284979363246565E-19
6302.84999437333  1.187947910321165E-19
6305.39999437333  8.602925002160567E-20
6307.94999437333  6.864098177330102E-20
6310.49999437333  6.599151667732222E-20
6313.04999437333  6.411300777677358E-20
6315.59999437333  6.331054970858245E-20
6318.14999437333  6.384621842706556E-20
6320.69999437333  6.532217940440622E-20
6323.24999437333  6.717542049764141E-20
6325.79999437333  6.712097148334839E-20
6328.34999437333  6.619125912176895E-20
6330.89999437332  6.546343691843375E-20
6333.44999437333  6.372365588267357E-20
6335.99999437333  6.132251575484754E-20
6338.54999437333  6.104873560240004E-20
6341.09999437333  6.230041422041095E-20
6343.64999437332  6.203928238221337E-20
6346.19999437333  6.273370005679046E-20
6348.74999437333  6.433944498969315E-20
6351.29999437333  6.452503287292660E-20
6353.84999437333  7.011398060849520E-20
6356.39999437333  8.240251338629104E-20
6358.94999437333  8.772389341948599E-20
6361.49999437333  8.764920710147837E-20
6364.04999437333  8.677699952561940E-20
6366.59999437333  7.828107998868915E-20
6369.14999437333  6.563933852667148E-20
6371.69999437333  6.054926768766144E-20
6374.24999437333  6.086343595544331E-20
6376.79999437333  6.052087203617263E-20
6379.34999437333  6.175446824853163E-20
6381.89999437333  6.146497680001001E-20
6384.44999437333  6.123886385610557E-20
6386.99999437332  6.104242219985027E-20
6389.54999437333  5.952051648712679E-20
6392.09999437333  5.942559286776186E-20
6394.64999437333  5.828736349808483E-20
6397.19999437333  5.872098806712808E-20
6399.74999437333  5.797599154448067E-20
6402.29999437333  5.786412783254599E-20
6404.84999437333  5.807985906318286E-20
6407.39999437332  5.852947600214831E-20
6409.94999437333  5.847769718815279E-20
6412.49999437333  5.889287179442116E-20
6415.04999437333  5.915107397418736E-20
6417.59999437333  5.894904327676020E-20
6420.14999437333  5.843427129823507E-20
6422.69999437333  5.843475056210132E-20
6425.24999437333  5.752439985303507E-20
6427.79999437333  5.731589365126346E-20
6430.34999437333  5.725556371210014E-20
6432.89999437333  5.691565197556189E-20
6435.44999437333  5.715367450869606E-20
6437.99999437333  5.725312773245667E-20
6440.54999437333  5.709353915635131E-20
6443.09999437333  5.689532097096093E-20
6445.64999437332  5.703291733040587E-20
6448.19999437333  5.792874589513683E-20
6450.74999437333  5.795456863314690E-20
6453.29999437333  5.840636929784603E-20
6455.84999437333  5.917753809524157E-20
6458.39999437333  6.044880177853944E-20
6460.94999437333  6.241354262216548E-20
6463.49999437333  6.319179231314629E-20
6466.04999437333  6.337201817580812E-20
6468.59999437333  6.168893474475611E-20
6471.14999437332  6.034539548964104E-20
6473.69999437333  5.837691419926994E-20
6476.24999437333  5.719915074157394E-20
6478.79999437333  5.682273186250439E-20
6481.34999437333  5.594249927711381E-20
6483.89999437333  5.562887873777180E-20
6486.44999437333  5.605093964811982E-20
6488.99999437333  5.870972340189318E-20
6491.54999437333  6.160074966361874E-20
6494.09999437333  6.224397589722969E-20
6496.64999437333  6.325115647181734E-20
6499.19999437333  6.354968551278529E-20
6501.74999437333  6.151386185968037E-20
6504.29999437332  5.823814306176073E-20
6506.84999437333  5.749646537188595E-20
6509.39999437333  5.654611211841719E-20
6511.94999437333  5.627559314232525E-20
6514.49999437333  5.652408026342453E-20
6517.04999437333  5.742537895279660E-20
6519.59999437333  5.691966619531633E-20
6522.14999437333  5.813278366701139E-20
6524.69999437332  5.994302408914684E-20
6527.24999437333  6.064920721644567E-20
6529.79999437333  6.093135470856393E-20
6532.34999437333  6.094705158810931E-20
6534.89999437332  6.032877964459800E-20
6537.44999437333  5.887768287473761E-20
6539.99999437333  5.782543682037601E-20
6542.54999437333  5.865257530800701E-20
6545.09999437333  6.141354734815581E-20
6547.64999437333  6.217883882219895E-20
6550.19999437333  6.184436838386313E-20
6552.74999437333  6.212530509704757E-20
6555.29999437333  6.276306841140431E-20
6557.84999437333  6.097665798548667E-20
6560.39999437333  6.096777173127749E-20
6562.94999437333  6.002893529120690E-20
6565.49999437333  5.956861953191929E-20
6568.04999437333  5.951858481624727E-20
6570.59999437333  6.025164651166318E-20
6573.14999437333  6.017950787592312E-20
6575.69999437333  5.941152097267456E-20
6578.24999437333  5.917015798267808E-20
6580.79999437333  5.722352476714007E-20
6583.34999437333  5.524711576251318E-20
6585.89999437333  5.548534369523993E-20
6588.44999437333  5.538435897563235E-20
6590.99999437333  5.546792072768659E-20
6593.54999437333  5.628831344717678E-20
6596.09999437333  5.695696243120879E-20
6598.64999437333  5.716198403464899E-20
6601.19999437333  5.679050556643396E-20
6603.74999437333  5.632809256578967E-20
6606.29999437333  5.561783746994154E-20
6608.84999437333  5.465172967992568E-20
6611.39999437333  5.385166794986815E-20
6613.94999437333  5.392440476298824E-20
6616.49999437333  5.383743408738103E-20
6619.04999437333  5.437961794681399E-20
6621.59999437333  5.435274297944068E-20
6624.14999437333  5.476712481276471E-20
6626.69999437333  5.546148843191465E-20
6629.24999437333  5.517634281628081E-20
6631.79999437333  5.502227481576520E-20
6634.34999437333  5.448794659995530E-20
6636.89999437333  5.421362231988755E-20
6639.44999437333  5.388996601096957E-20
6641.99999437332  5.336702848507731E-20
6644.54999437333  5.352858457123204E-20
6647.09999437333  5.351631822665289E-20
6649.64999437333  5.333717701539825E-20
6652.19999437332  5.335401981102172E-20
6654.74999437333  5.383523230946107E-20
6657.29999437333  5.400444585074888E-20
6659.84999437333  5.399716315816761E-20
6662.39999437333  5.361461471298363E-20
6664.94999437333  5.382974055372979E-20
6667.49999437333  5.352672874415254E-20
6670.04999437333  5.388853178739918E-20
6672.59999437333  5.306657514172243E-20
6675.14999437333  5.279068333580951E-20
6677.69999437333  5.290046781795863E-20
6680.24999437333  5.269822451503848E-20
6682.79999437333  5.305088545766023E-20
6685.34999437333  5.294782872113916E-20
6687.89999437333  5.318000275969514E-20
6690.44999437333  5.282555086908256E-20
6692.99999437333  5.333191585531950E-20
6695.54999437333  5.343820133085809E-20
6698.09999437333  5.342888625965418E-20
6700.64999437332  5.329181240466846E-20
6703.19999437333  5.289416525997219E-20
6705.74999437333  5.367760039689065E-20
6708.29999437333  5.347362380655914E-20
6710.84999437333  5.319484559066529E-20
6713.39999437332  5.278005655699951E-20
6715.94999437333  5.257093776037391E-20
6718.49999437333  5.296798671823798E-20
6721.04999437333  5.244129073396766E-20
6723.59999437333  5.279517686923345E-20
6726.14999437333  5.281174219479213E-20
6728.69999437333  5.250060447437236E-20
6731.24999437333  5.246281087704808E-20
6733.79999437333  5.313059501787213E-20
6736.34999437333  5.247232053121581E-20
6738.89999437333  5.237144391738828E-20
6741.44999437333  5.288476367433878E-20
6743.99999437333  5.265450669807096E-20
6746.54999437333  5.222693602069651E-20
6749.09999437333  5.217992825265777E-20
6751.64999437333  5.178414412215872E-20
6754.19999437333  5.165606102064627E-20
6756.74999437333  5.192532597011316E-20
6759.29999437332  5.183940031234270E-20
6761.84999437333  5.163339855064062E-20
6764.39999437333  5.142151946690227E-20
6766.94999437333  5.169452485797143E-20
6769.49999437333  5.133274703554715E-20
6772.04999437333  5.191692978324543E-20
6774.59999437333  5.128965627906562E-20
6777.14999437332  5.164699457508893E-20
6779.69999437333  5.160483352580139E-20
6782.24999437333  5.174391813398255E-20
6784.79999437333  5.156994435423660E-20
6787.34999437333  5.181385141563104E-20
6789.89999437332  5.174270734901982E-20
6792.44999437333  5.152245010857655E-20
6794.99999437333  5.125766791948487E-20
6797.54999437333  5.175850512329689E-20
6800.09999437333  5.139946596738544E-20
6802.64999437333  5.163693716290308E-20
6805.19999437333  5.144360533660099E-20
6807.74999437333  5.150002906766846E-20
6810.29999437333  5.147483693905824E-20
6812.84999437333  5.120969800273510E-20
6815.39999437333  5.154305855430189E-20
6817.94999437332  5.408505979687713E-20
6820.49999437333  5.968985932193222E-20
6823.04999437333  6.364466644511455E-20
6825.59999437333  6.817260435727899E-20
6828.14999437333  7.034513068504779E-20
6830.69999437332  6.849054188990305E-20
6833.24999437333  6.443618424184337E-20
6835.79999437333  6.128573782482700E-20
6838.34999437333  5.616315257139801E-20
6840.89999437333  5.417302141565865E-20
6843.44999437333  5.367844710550694E-20
6845.99999437333  5.242730901945851E-20
6848.54999437333  5.228336687813777E-20
6851.09999437333  5.287961056745817E-20
6853.64999437333  5.806793461729888E-20
6856.19999437333  6.562213483790168E-20
6858.74999437333  7.975037381431819E-20
6861.29999437333  8.298288652269016E-20
6863.84999437333  8.524736717369057E-20
6866.39999437333  8.294643342629871E-20
6868.94999437333  7.816613461782053E-20
6871.49999437333  7.917537639281713E-20
6874.04999437333  7.693417439959395E-20
6876.59999437333  7.279736127689164E-20
6879.14999437333  7.052459975835867E-20
6881.69999437333  6.985155809561854E-20
6884.24999437333  7.128875972398960E-20
6886.79999437333  7.060616876427152E-20
6889.34999437333  7.006110930253937E-20
6891.89999437333  7.000854852775884E-20
6894.44999437333  6.950813653398004E-20
6896.99999437333  6.930448786307681E-20
6899.54999437333  7.071700545928028E-20
6902.09999437333  6.988284373350245E-20
6904.64999437333  6.793232234247757E-20
6907.19999437332  6.668259683234828E-20
6909.74999437333  6.488550561811877E-20
6912.29999437333  6.661692649201658E-20
6914.84999437333  6.975102017961070E-20
6917.39999437332  7.040984239292403E-20
6919.94999437333  6.981845622874612E-20
6922.49999437333  6.771757485083779E-20
6925.04999437333  6.231848160134973E-20
6927.59999437333  5.667835328545734E-20
6930.14999437333  5.673801657029446E-20
6932.69999437333  5.709047211165976E-20
6935.24999437333  5.619106526552628E-20
6937.79999437333  5.795394837010682E-20
6940.34999437333  6.310687154760281E-20
6942.89999437333  6.327510493380756E-20
6945.44999437333  6.260840544665217E-20
6947.99999437332  6.218055369674921E-20
6950.54999437333  5.944287835064460E-20
6953.09999437333  5.361417124059093E-20
6955.64999437333  5.193843537713550E-20
6958.19999437333  5.227312562264954E-20
6960.74999437333  5.382006128489936E-20
6963.29999437333  5.433046940556190E-20
6965.84999437333  5.476963977060675E-20
6968.39999437333  5.705667117423862E-20
6970.94999437333  5.914008273772155E-20
6973.49999437333  5.837907943881624E-20
6976.04999437333  5.734788869118487E-20
6978.59999437333  5.714644176463115E-20
6981.14999437333  5.371229474991538E-20
6983.69999437333  5.079451606067308E-20
6986.24999437333  5.054606136862784E-20
6988.79999437333  5.063304645361186E-20
6991.34999437333  5.045031614945381E-20
6993.89999437333  5.112704779906746E-20
6996.44999437333  5.194595586854715E-20
6998.99999437333  5.235971068947077E-20
7001.54999437333  5.372067649459729E-20
7004.09999437333  5.437361778221918E-20
7006.64999437332  5.364561541286842E-20
7009.19999437333  5.262111277732577E-20
7011.74999437333  5.234328228568266E-20
7014.29999437333  5.057217957663430E-20
7016.84999437333  4.911112272161983E-20
7019.39999437333  4.895911232584485E-20
7021.94999437333  4.918207579646190E-20
7024.49999437332  4.953879068452326E-20
7027.04999437333  4.948861903673206E-20
7029.59999437333  4.910404902602847E-20
7032.14999437332  4.939447017192801E-20
7034.69999437333  4.959090101091235E-20
7037.24999437333  5.036628230329665E-20
7039.79999437333  5.199732745108354E-20
7042.34999437333  5.348123775151963E-20
7044.89999437332  5.318328166616900E-20
7047.44999437333  5.346291390803536E-20
7049.99999437333  5.212431147252589E-20
7052.54999437333  5.062508625834718E-20
7055.09999437333  5.000404682639687E-20
7057.64999437333  5.022206988701949E-20
7060.19999437333  5.035098179099733E-20
7062.74999437333  5.084766775156026E-20
7065.29999437332  5.072874476901957E-20
7067.84999437333  5.037423882820909E-20
7070.39999437333  5.062187551995531E-20
7072.94999437333  5.065307469299139E-20
7075.49999437333  5.055674931099623E-20
7078.04999437333  5.093814102358312E-20
7080.59999437333  5.145944615268248E-20
7083.14999437333  5.122585953624707E-20
7085.69999437333  5.063112211159801E-20
7088.24999437333  5.061573152590837E-20
7090.79999437333  4.990902228811719E-20
7093.34999437333  4.892443571533817E-20
7095.89999437333  4.872210592997839E-20
7098.44999437333  4.906600674225444E-20
7100.99999437333  4.900979921819483E-20
7103.54999437333  4.917830286778588E-20
7106.09999437333  4.895661503590312E-20
7108.64999437333  4.941905685693010E-20
7111.19999437333  4.905916367150978E-20
7113.74999437333  4.916710315721061E-20
7116.29999437333  4.918301624813426E-20
7118.84999437333  4.962525680161034E-20
7121.39999437333  4.968260663437236E-20
7123.94999437333  5.013092630629310E-20
7126.49999437333  5.037534146148717E-20
7129.04999437333  5.062532403697704E-20
7131.59999437333  5.003842063977923E-20
7134.14999437333  5.059994092110404E-20
7136.69999437333  5.121814438781637E-20
7139.24999437333  5.179047879744837E-20
7141.79999437333  5.199800123466165E-20
7144.34999437333  5.185323389080496E-20
7146.89999437333  5.120693747004564E-20
7149.44999437333  5.042486085693464E-20
7151.99999437333  5.017026218396019E-20
7154.54999437333  5.023956845720998E-20
7157.09999437333  5.079166556419285E-20
7159.64999437333  5.133535928980728E-20
7162.19999437333  5.120282225315751E-20
7164.74999437333  5.073933180814193E-20
7167.29999437333  5.079928697735740E-20
7169.84999437333  5.064864231158839E-20
7172.39999437332  5.038691229578450E-20
7174.94999437333  5.073248873906028E-20
7177.49999437333  5.003401712210021E-20
7180.04999437333  4.936645279578645E-20
7182.59999437333  4.944991004610923E-20
7185.14999437333  4.865612203151273E-20
7187.69999437333  4.828870832473992E-20
7190.24999437333  4.828438411317898E-20
7192.79999437333  4.844535643033270E-20
7195.34999437333  4.831205545010398E-20
7197.89999437333  4.821544178777096E-20
7200.44999437333  4.816687730496346E-20
7202.99999437333  4.801431917646993E-20
7205.54999437333  4.787568140050541E-20
7208.09999437333  4.823782677484611E-20
7210.64999437333  4.800261858027921E-20
7213.19999437333  4.838193467158646E-20
7215.74999437333  4.865038162338375E-20
7218.29999437333  4.873707842766619E-20
7220.84999437333  4.902049435286338E-20
7223.39999437333  4.920546603514274E-20
7225.94999437333  5.035403385094666E-20
7228.49999437333  5.500922963344695E-20
7231.04999437333  6.658824227327078E-20
7233.59999437333  7.437356426865092E-20
7236.14999437333  8.327078478047083E-20
7238.69999437333  8.553425643780130E-20
7241.24999437333  8.247715531701988E-20
7243.79999437333  7.533652977827259E-20
7246.34999437333  6.810859844123568E-20
7248.89999437333  5.943788725005796E-20
7251.44999437333  5.476406132749636E-20
7253.99999437333  5.353289389177296E-20
7256.54999437333  5.097958845555704E-20
7259.09999437333  4.982228212937156E-20
7261.64999437333  5.018877693793526E-20
7264.19999437333  5.401008126250015E-20
7266.74999437333  6.785209349675969E-20
7269.29999437333  7.734207670393833E-20
7271.84999437333  7.803514665692315E-20
7274.39999437333  8.098368127348557E-20
7276.94999437333  8.084307237759949E-20
7279.49999437332  6.987366163353660E-20
7282.04999437333  6.234318695143135E-20
7284.59999437333  6.115027435991270E-20
7287.14999437333  5.739353409079710E-20
7289.69999437333  5.388996910696013E-20
7292.24999437333  5.467151239593148E-20
7294.79999437333  5.740473018551770E-20
7297.34999437333  5.870461291641323E-20
7299.89999437333  5.718836113045568E-20
7302.44999437333  5.768442728597902E-20
7304.99999437333  6.023388417020687E-20
7307.54999437333  6.857397706932070E-20
7310.09999437333  7.237106581545936E-20
7312.64999437333  7.250167857439317E-20
7315.19999437333  7.149356109480863E-20
7317.74999437333  6.731299420012295E-20
7320.29999437333  6.083889518188222E-20
7322.84999437333  6.043074381430906E-20
7325.39999437333  6.076051887288571E-20
7327.94999437333  6.190347962802298E-20
7330.49999437333  6.816047447436051E-20
7333.04999437333  7.676768462904680E-20
7335.59999437333  7.741929261526701E-20
7338.14999437332  7.765858718381251E-20
7340.69999437333  7.641748847994531E-20
7343.24999437333  6.494001911214462E-20
7345.79999437333  5.299629901550730E-20
7348.34999437333  5.556049064390917E-20
7350.89999437333  6.035349898988098E-20
7353.44999437333  6.065696843791352E-20
7355.99999437333  6.094302213040567E-20
7358.54999437333  6.684679388589947E-20
7361.09999437333  7.348008868551386E-20
7363.64999437332  7.253841989924664E-20
7366.19999437333  7.264371440895766E-20
7368.74999437333  7.155340090619944E-20
7371.29999437333  6.271658961757187E-20
7373.84999437333  5.213487313587190E-20
7376.39999437333  4.953375275221640E-20
7378.94999437333  4.957915335150775E-20
7381.49999437333  5.229423107770864E-20
7384.04999437333  5.566816344714613E-20
7386.59999437333  5.693676051784644E-20
7389.14999437333  5.740639133617166E-20
7391.69999437333  6.263809077771188E-20
7394.24999437333  6.588103922396648E-20
7396.79999437333  6.293229560383560E-20
7399.34999437333  6.255524611659827E-20
7401.89999437333  6.145834540148189E-20
7404.44999437333  5.437166800022263E-20
7406.99999437333  4.923813893226255E-20
7409.54999437333  4.861169424101912E-20
7412.09999437333  4.892142658662773E-20
7414.64999437333  4.839440629235402E-20
7417.19999437333  4.868384007581986E-20
7419.74999437333  5.021178163705593E-20
7422.29999437333  5.175763984136089E-20
7424.84999437333  5.219757054443787E-20
7427.39999437333  5.447282206619757E-20
7429.94999437333  5.748205777495086E-20
7432.49999437333  5.716740303388663E-20
7435.04999437333  5.620864280922445E-20
7437.59999437333  5.558867001886351E-20
7440.14999437333  5.309200813508394E-20
7442.69999437333  4.889949561745547E-20
7445.24999437333  4.807112113316718E-20
7447.79999437333  4.817001581288421E-20
7450.34999437333  4.843790422027310E-20
7452.89999437333  4.970083297171312E-20
7455.44999437333  5.109178356163584E-20
7457.99999437333  5.305795136719177E-20
7460.54999437333  5.496478740885449E-20
7463.09999437333  5.777878864151631E-20
7465.64999437333  5.995998138907209E-20
7468.19999437333  6.077050769338239E-20
7470.74999437333  6.263363678271036E-20
7473.29999437333  6.452627860471143E-20
7475.84999437333  6.462511562779025E-20
7478.39999437332  6.267315284887676E-20
7480.94999437333  6.090788783385669E-20
7483.49999437333  5.781856415211029E-20
7486.04999437333  5.483755111879167E-20
7488.59999437333  5.287525708218092E-20
7491.14999437333  5.245594565066457E-20
7493.69999437333  5.229585619047306E-20
7496.24999437333  5.125928901600350E-20
7498.79999437333  5.010684382599168E-20
7501.34999437333  5.057626203698543E-20
7503.89999437333  5.030271611883706E-20
7506.44999437333  5.037654839840283E-20
7508.99999437333  5.150845719163223E-20
7511.54999437333  5.401839799813834E-20
7514.09999437333  6.341858895871153E-20
7516.64999437333  6.942930562176710E-20
7519.19999437333  7.101261508531392E-20
7521.74999437333  7.230246924895036E-20
7524.29999437333  6.979473738976392E-20
7526.84999437333  6.065339363328621E-20
7529.39999437333  5.627119965119041E-20
7531.94999437333  5.445448374629741E-20
7534.49999437333  5.214299894851580E-20
7537.04999437333  5.117576327374463E-20
7539.59999437333  5.086663631501924E-20
7542.14999437333  5.034400869813150E-20
7544.69999437333  4.980851655673989E-20
7547.24999437333  5.171970203113053E-20
7549.79999437333  5.331260043017622E-20
7552.34999437333  5.313091514502344E-20
7554.89999437333  5.318158046980890E-20
7557.44999437333  5.344247446722613E-20
7559.99999437333  5.447893353261351E-20
7562.54999437333  5.969376133820558E-20
7565.09999437333  6.275187502840285E-20
7567.64999437333  6.368814575294248E-20
7570.19999437333  6.242723496455942E-20
7572.74999437333  5.952484688110631E-20
7575.29999437333  5.443823910433015E-20
7577.84999437333  5.386879110459421E-20
7580.39999437333  5.442809882894577E-20
7582.94999437333  5.416359771674116E-20
7585.49999437333  5.403861003079764E-20
7588.04999437333  5.919747535147137E-20
7590.59999437333  6.788098616475936E-20
7593.14999437333  8.082260414741583E-20
7595.69999437333  1.019051454964033E-19
7598.24999437332  1.237480487104545E-19
7600.79999437333  1.379185999441674E-19
7603.34999437333  1.399463949425446E-19
7605.89999437333  1.361267049995957E-19
7608.44999437333  1.240586855234371E-19
7610.99999437333  1.091457539244478E-19
7613.54999437333  9.113335117162149E-20
7616.09999437333  8.183420258959216E-20
7618.64999437333  8.355305441117934E-20
7621.19999437333  8.843146228398872E-20
7623.74999437333  9.466336948382767E-20
7626.29999437333  9.983617677469993E-20
7628.84999437333  1.003270250473824E-19
7631.39999437333  9.340010199576854E-20
7633.94999437333  8.738255308446982E-20
7636.49999437333  8.549050223701149E-20
7639.04999437333  8.247807021955777E-20
7641.59999437333  7.872000027116992E-20
7644.14999437333  7.749717135884283E-20
7646.69999437333  7.524836598621233E-20
7649.24999437333  7.262375073632454E-20
7651.79999437333  7.320015350298648E-20
7654.34999437333  7.318589081522988E-20
7656.89999437332  7.108675355541315E-20
7659.44999437333  7.205433876569278E-20
7661.99999437333  7.375379650527381E-20
7664.54999437333  7.230775187718787E-20
7667.09999437333  6.699321860377317E-20
7669.64999437333  6.402092966996729E-20
7672.19999437333  6.256147999151716E-20
7674.74999437333  6.094412458084070E-20
7677.29999437333  6.018036100176336E-20
7679.84999437333  6.120664736182899E-20
7682.39999437333  6.111707135163040E-20
7684.94999437333  6.127258435275853E-20
7687.49999437333  6.136167748949114E-20
7690.04999437333  6.172163192865637E-20
7692.59999437333  6.318675352535336E-20
7695.14999437333  6.456428104301023E-20
7697.69999437333  6.523748845573306E-20
7700.24999437333  6.811550240165797E-20
7702.79999437333  8.047057732831493E-20
7705.34999437333  9.390067246154083E-20
7707.89999437333  9.616813679379408E-20
7710.44999437333  1.007951711319640E-19
7712.99999437333  9.987902960155945E-20
7715.54999437332  9.237647493881963E-20
7718.09999437333  8.260899281175188E-20
7720.64999437333  6.900805534938392E-20
7723.19999437333  6.522908505678140E-20
7725.74999437333  6.313599448565046E-20
7728.29999437333  5.982083174233614E-20
7730.84999437333  5.696981167438113E-20
7733.39999437332  5.680153504385177E-20
7735.94999437333  5.676490538080586E-20
7738.49999437333  6.386712468322242E-20
7741.04999437333  8.489306209185238E-20
7743.59999437333  9.405028287975319E-20
7746.14999437332  9.546941650230735E-20
7748.69999437333  9.802082287085324E-20
7751.24999437333  9.508237808848072E-20
7753.79999437333  7.808353413303976E-20
7756.34999437333  7.163001117919605E-20
7758.89999437333  6.988780862243087E-20
7761.44999437333  6.657939164758275E-20
7763.99999437333  6.522680040462713E-20
7766.54999437333  6.626796204578911E-20
7769.09999437333  7.066404753728700E-20
7771.64999437333  7.446573434033903E-20
7774.19999437333  7.213319785291015E-20
7776.74999437333  6.703660476556771E-20
7779.29999437333  6.498388069517144E-20
7781.84999437333  6.706718413315957E-20
7784.39999437333  7.848564238838068E-20
7786.94999437333  8.389661273916892E-20
7789.49999437333  8.335958910743372E-20
7792.04999437333  8.241962838870353E-20
7794.59999437333  7.575906947355957E-20
7797.14999437333  6.439445483655813E-20
7799.69999437333  6.535676450958836E-20
7802.24999437333  6.710398314546004E-20
7804.79999437333  6.736205199148224E-20
7807.34999437333  6.791373469076921E-20
7809.89999437333  7.242250909080356E-20
7812.44999437333  8.464301459072171E-20
7814.99999437333  8.758932942838628E-20
7817.54999437333  8.804154088501265E-20
7820.09999437333  8.760797397558349E-20
7822.64999437333  7.842568718714093E-20
7825.19999437333  6.044384222579890E-20
7827.74999437333  5.568447265166774E-20
7830.29999437333  5.949610153215719E-20
7832.84999437332  6.565842137113325E-20
7835.39999437333  6.742730429810006E-20
7837.94999437333  6.797557807841823E-20
7840.49999437333  7.327065239384316E-20
7843.04999437333  8.567629893743809E-20
7845.59999437333  9.433165912019461E-20
7848.14999437333  9.837502601180759E-20
7850.69999437333  1.028730331265359E-19
7853.24999437333  1.026880506308057E-19
7855.79999437333  8.616527337644917E-20
7858.34999437333  8.036040353728566E-20
7860.89999437333  8.436938575292192E-20
7863.44999437333  8.098260689057767E-20
7865.99999437333  7.963003006276316E-20
7868.54999437333  8.261016742754334E-20
7871.09999437333  8.217714104475890E-20
7873.64999437333  7.627708813940103E-20
7876.19999437333  7.429262172432617E-20
7878.74999437333  7.984542615539114E-20
7881.29999437333  8.371047704330274E-20
7883.84999437333  8.071234375457169E-20
7886.39999437333  7.880903555262995E-20
7888.94999437333  7.575783700154032E-20
7891.49999437332  6.718761330478731E-20
7894.04999437333  5.768200174487807E-20
7896.59999437333  5.603527053883558E-20
7899.14999437333  5.673477275028298E-20
7901.69999437333  6.909229803777345E-20
7904.24999437333  9.037569166257203E-20
7906.79999437333  9.740785154449440E-20
7909.34999437333  1.010037491920028E-19
7911.89999437333  1.069355706193140E-19
7914.44999437333  9.857300269068252E-20
7916.99999437333  8.271753751998812E-20
7919.54999437333  7.886949518842360E-20
7922.09999437333  7.825697085259692E-20
7924.64999437333  7.251189763354719E-20
7927.19999437333  6.980801962380565E-20
7929.74999437333  6.989136156107287E-20
7932.29999437333  6.504847708431961E-20
7934.84999437333  5.809962310436091E-20
7937.39999437333  5.867120077234135E-20
7939.94999437333  6.471088601179884E-20
7942.49999437333  6.676283171767796E-20
7945.04999437333  6.686155342826411E-20
7947.59999437333  6.590234997743158E-20
7950.14999437333  6.270373190570445E-20
7952.69999437333  6.440579858064632E-20
7955.24999437333  8.214249684840009E-20
7957.79999437333  8.848896676176225E-20
7960.34999437333  8.998646947917979E-20
7962.89999437333  8.981220381763193E-20
7965.44999437333  8.244998419991750E-20
7967.99999437333  7.147969428377201E-20
7970.54999437333  7.294900315286340E-20
7973.09999437333  7.423154939593215E-20
7975.64999437333  7.404875783426581E-20
7978.19999437333  7.257111765062671E-20
7980.74999437332  7.188852670079794E-20
7983.29999437333  8.426105698654151E-20
7985.84999437333  9.192819826021825E-20
7988.39999437333  9.213893142082579E-20
7990.94999437333  9.192037864282276E-20
7993.49999437333  8.467719731880361E-20
7996.04999437333  6.550411904230929E-20
7998.59999437333  5.668539382193325E-20
8001.14999437333  5.742605890753729E-20
8003.69999437333  6.238271694400054E-20
8006.24999437333  6.610901113882956E-20
8008.79999437333  6.644711390285220E-20
8011.34999437333  6.817156557006683E-20
8013.89999437333  7.293121620594598E-20
8016.44999437333  8.030673276157342E-20
8018.99999437333  8.323041756176079E-20
8021.54999437333  8.339172500330670E-20
8024.09999437333  8.169476810067759E-20
8026.64999437333  7.550353011611909E-20
8029.19999437333  6.116984812041339E-20
8031.74999437332  5.627868024143472E-20
8034.29999437332  5.506718436824039E-20
8036.84999437333  5.496190426974481E-20
8039.39999437333  5.604294593437504E-20
8041.94999437333  6.020145932223676E-20
8044.49999437333  6.189540729170596E-20
8047.04999437333  6.239318871350949E-20
8049.59999437333  6.433547245421104E-20
8052.14999437333  7.026891545327154E-20
8054.69999437333  7.042585544309575E-20
8057.24999437333  6.969891251426730E-20
8059.79999437333  6.982618842415213E-20
8062.34999437333  6.627152211924781E-20
8064.89999437333  5.842406129462439E-20
8067.44999437333  5.583612977049934E-20
8069.99999437333  5.583399649229312E-20
8072.54999437333  5.592814535112112E-20
8075.09999437333  5.710808169590107E-20
8077.64999437333  5.680239608940075E-20
8080.19999437333  5.645958714088829E-20
8082.74999437333  5.778597726801262E-20
8085.29999437333  5.883567201384165E-20
8087.84999437333  5.838819916809296E-20
8090.39999437333  6.003246556862114E-20
8092.94999437333  6.362990551242218E-20
8095.49999437333  6.263615162596337E-20
8098.04999437332  6.175157683259985E-20
8100.59999437333  6.143017993008458E-20
8103.14999437333  5.885505887859737E-20
8105.69999437333  5.589966320483405E-20
8108.24999437333  5.401411669983279E-20
8110.79999437333  5.353528612548887E-20
8113.34999437333  5.366762136130589E-20
8115.89999437333  5.369945475195988E-20
8118.44999437333  5.415622464624556E-20
8120.99999437333  5.398043830543135E-20
8123.54999437333  5.461614760896615E-20
8126.09999437333  5.484817390054063E-20
8128.64999437333  5.568763997462561E-20
8131.19999437333  5.684261121366358E-20
8133.74999437333  5.656304743867095E-20
8136.29999437333  5.825970164153908E-20
8138.84999437333  5.894975905634488E-20
8141.39999437333  5.763968561260758E-20
8143.94999437333  5.692571891791695E-20
8146.49999437333  5.659241242090017E-20
8149.04999437333  5.463572906021168E-20
8151.59999437332  5.385198763537518E-20
8154.14999437333  5.376085130696255E-20
8156.69999437333  5.401433649014163E-20
8159.24999437333  5.393584126867603E-20
8161.79999437333  5.372738912565628E-20
8164.34999437333  5.374797596706649E-20
8166.89999437333  5.365576939672190E-20
8169.44999437333  5.386413505307432E-20
8171.99999437333  5.445594281534040E-20
8174.54999437333  5.414761944117735E-20
8177.09999437333  5.449673812976696E-20
8179.64999437333  5.584371870196034E-20
8182.19999437333  5.532911249800756E-20
8184.74999437333  5.585587333275611E-20
8187.29999437333  5.619639405059542E-20
8189.84999437333  5.557043944174954E-20
8192.39999437333  5.483184276855032E-20
8194.94999437333  5.496870040713142E-20
8197.49999437333  5.460950270356050E-20
8200.04999437333  5.398808851520612E-20
8202.59999437333  5.435418333109551E-20
8205.14999437333  5.496839770748663E-20
8207.69999437333  5.458945277874597E-20
8210.24999437332  5.496821032258871E-20
8212.79999437333  5.431842211034737E-20
8215.34999437333  5.421712388873869E-20
8217.89999437333  5.394450407445031E-20
8220.44999437333  5.405808665325185E-20
8222.99999437333  5.416780627120663E-20
8225.54999437333  5.414030429504242E-20
8228.09999437333  5.422432729567092E-20
8230.64999437333  5.565535249017119E-20
8233.19999437333  5.599198862600653E-20
8235.74999437333  5.680612203632859E-20
8238.29999437333  5.740623588472550E-20
8240.84999437333  5.763207855589942E-20
8243.39999437333  5.703055212975548E-20
8245.94999437333  5.745929753986047E-20
8248.49999437333  5.615778242953926E-20
8251.04999437333  5.605337798382735E-20
8253.59999437333  5.530125013757004E-20
8256.14999437333  5.511303529705512E-20
8258.69999437333  5.551666065116551E-20
8261.24999437333  5.497280116765765E-20
8263.79999437333  5.573885657077699E-20
8266.34999437333  5.956956240859581E-20
8268.89999437332  6.924828646879604E-20
8271.44999437333  8.140285492256360E-20
8273.99999437333  8.677180834264019E-20
8276.54999437333  9.693422050311200E-20
8279.09999437333  1.052501950373010E-19
8281.64999437333  1.004355909081860E-19
8284.19999437333  9.480483540343891E-20
8286.74999437333  9.971405324050273E-20
8289.29999437333  1.030597665051845E-19
8291.84999437333  9.713743673447652E-20
8294.39999437333  9.458016386300760E-20
8296.94999437333  9.206732945534888E-20
8299.49999437332  8.199152401016673E-20
8302.04999437333  7.225914731534304E-20
8304.59999437333  6.843653855901505E-20
8307.14999437332  6.792680790206164E-20
8309.69999437333  6.699878921492831E-20
8312.24999437333  6.097190005077527E-20
8314.79999437333  5.702205502236803E-20
8317.34999437333  5.572916671159632E-20
8319.89999437332  5.504266235446815E-20
8322.44999437333  5.485347817037633E-20
8324.99999437333  5.460251904443707E-20
8327.54999437333  5.584692575275443E-20
8330.09999437333  6.003519690120260E-20
8332.64999437333  8.814984030154832E-20
8335.19999437333  1.183991443291513E-19
8337.74999437333  1.249778098775659E-19
8340.29999437333  1.291204029536616E-19
8342.84999437333  1.346096126467816E-19
8345.39999437333  1.167923255784810E-19
8347.94999437333  9.157329564230341E-20
8350.49999437333  8.720003479215467E-20
8353.04999437333  8.219515822404565E-20
8355.59999437333  7.348547158755625E-20
8358.14999437332  7.062778144266634E-20
8360.69999437333  7.021736347314732E-20
8363.24999437333  6.840773928735639E-20
8365.79999437333  6.241725276619744E-20
8368.34999437333  6.003046187215669E-20
8370.89999437332  6.881859687899474E-20
8373.44999437333  7.708247909205088E-20
8375.99999437333  7.722181234019178E-20
8378.54999437333  7.748770800487857E-20
8381.09999437333  7.512370569691364E-20
8383.64999437333  6.649695020134683E-20
8386.19999437332  7.030211797219289E-20
8388.74999437333  9.796737505313535E-20
8391.29999437333  1.085495598789519E-19
8393.84999437333  1.090812575180259E-19
8396.39999437333  1.075869403032481E-19
8398.94999437333  9.747525113110622E-20
8401.49999437333  7.168394085541831E-20
8404.04999437333  7.126995541288653E-20
8406.59999437333  7.945894230832126E-20
8409.14999437333  8.075616923913848E-20
8411.69999437333  8.174534666422969E-20
8414.24999437333  8.006933335762317E-20
8416.79999437333  7.695500135694549E-20
8419.34999437333  1.006091357494933E-19
8421.89999437333  1.170376091037177E-19
8424.44999437333  1.177999745121433E-19
8426.99999437333  1.178516920599971E-19
8429.54999437333  1.088480888818185E-19
8432.09999437333  7.814484373396296E-20
8434.64999437333  6.085817326873774E-20
8437.19999437333  6.059738737597668E-20
8439.74999437333  6.755125019833165E-20
8442.29999437333  7.932249184211723E-20
8444.84999437332  8.236945985570127E-20
8447.39999437332  8.075188103920741E-20
8449.94999437333  7.973951863904622E-20
8452.49999437333  8.306577295522227E-20
8455.04999437333  9.744623563824605E-20
8457.59999437333  1.034193604487442E-19
8460.14999437333  1.042467908020721E-19
8462.69999437333  1.033786047662896E-19
8465.24999437333  9.282033282335245E-20
8467.79999437333  6.715699755337274E-20
8470.34999437333  5.835623585814090E-20
8472.89999437333  5.725831896597101E-20
8475.44999437333  5.677799654079675E-20
8477.99999437333  5.651760343062086E-20
8480.54999437333  5.963466328261452E-20
8483.09999437333  6.788174232961488E-20
8485.64999437333  7.231561418021823E-20
8488.19999437333  7.339415140227353E-20
8490.74999437333  7.553160834892562E-20
8493.29999437333  8.393285628800326E-20
8495.84999437333  8.824412958056148E-20
8498.39999437333  8.744363184416920E-20
8500.94999437333  8.773738983417109E-20
8503.49999437333  8.464422484296525E-20
8506.04999437333  7.044001695743604E-20
8508.59999437333  5.943915132623805E-20
8511.14999437332  5.825143500904895E-20
8513.69999437333  5.849019265334682E-20
8516.24999437333  5.852019185826947E-20
8518.79999437333  5.873271235905859E-20
8521.34999437333  5.770490532364068E-20
8523.89999437333  5.794364855390156E-20
8526.44999437333  6.066301442487960E-20
8528.99999437333  6.446952990361927E-20
8531.54999437333  6.524068066562255E-20
8534.09999437332  6.661783340825242E-20
8536.64999437333  7.123483554585318E-20
8539.19999437333  7.452511243369541E-20
8541.74999437332  7.341183018269694E-20
8544.29999437333  7.251305036319842E-20
8546.84999437333  7.130743902418068E-20
8549.39999437333  6.477470379909434E-20
8551.94999437333  5.909722161623147E-20
8554.49999437333  5.679137993499523E-20
8557.04999437333  5.718833879796600E-20
8559.59999437333  5.729596477740434E-20
8562.14999437333  5.753176394138631E-20
8564.69999437333  5.811533408197407E-20
8567.24999437333  5.925588407696036E-20
8569.79999437333  5.910988073248690E-20
8572.34999437333  5.940151986008299E-20
8574.89999437333  5.930432243119641E-20
8577.44999437333  6.131296476772054E-20
8579.99999437333  6.194086166301081E-20
8582.54999437333  6.294694674788257E-20
8585.09999437333  6.587714667754594E-20
8587.64999437333  6.744547994568021E-20
8590.19999437333  6.617139474364874E-20
8592.74999437332  6.580830525229463E-20
8595.29999437333  6.585242660587224E-20
8597.84999437333  6.327054898725852E-20
8600.39999437332  6.245026078481110E-20
8602.94999437333  6.513821847631994E-20
8605.49999437333  7.001336873464990E-20
8608.04999437333  7.696643156886140E-20
8610.59999437333  8.414657307789696E-20
8613.14999437333  9.172791477977533E-20
8615.69999437333  9.969446430491613E-20
8618.24999437333  1.058531553681585E-19
8620.79999437333  1.088671512767534E-19
8623.34999437333  1.097368003315450E-19
8625.89999437332  1.081520494769247E-19
8628.44999437333  1.043753926670508E-19
8630.99999437333  9.759685494160324E-20
8633.54999437333  8.900648048194446E-20
8636.09999437333  8.380368483884044E-20
8638.64999437332  8.460540055674691E-20
8641.19999437333  8.830087032196493E-20
8643.74999437333  9.652984172931656E-20
8646.29999437333  1.036817605595433E-19
8648.84999437333  1.093341803351332E-19
8651.39999437332  1.097897502583107E-19
8653.94999437333  1.112708425904418E-19
8656.49999437333  1.089936415935060E-19
8659.04999437333  1.084570792150559E-19
8661.59999437333  1.044880815505337E-19
8664.14999437333  1.026600074063692E-19
8666.69999437333  9.707945599584460E-20
8669.24999437333  9.367834240168216E-20
8671.79999437333  8.830604493950932E-20
8674.34999437333  8.384713591707475E-20
8676.89999437333  7.906011305591946E-20
8679.44999437333  7.551289161744346E-20
8681.99999437332  7.292123407897255E-20
8684.54999437333  7.042331820383902E-20
8687.09999437333  6.843002320805492E-20
8689.64999437332  6.786570661008866E-20
8692.19999437333  6.706719080491790E-20
8694.74999437333  6.608805275299721E-20
8697.29999437333  6.683841847856839E-20
8699.84999437333  6.589020573436441E-20
8702.39999437333  6.385901624629958E-20
8704.94999437333  6.396841875510959E-20
8707.49999437333  6.215255329822566E-20
8710.04999437333  6.074513108579245E-20
8712.59999437333  6.102250032049518E-20
8715.14999437333  6.126210478888925E-20
8717.69999437333  6.159599144672522E-20
8720.24999437333  6.205368744047166E-20
8722.79999437333  6.175699619233424E-20
8725.34999437333  6.161554407894662E-20
8727.89999437333  6.183548059936922E-20
8730.44999437333  6.259751448451340E-20
8732.99999437333  6.361509475956596E-20
8735.54999437333  6.396260267844656E-20
8738.09999437333  6.424757531542124E-20
8740.64999437332  6.444255393775093E-20
8743.19999437333  6.416447841315795E-20
8745.74999437333  7.039293339070779E-20
8748.29999437333  9.085815752614498E-20
8750.84999437333  1.129729163828765E-19
8753.39999437333  1.253659649646575E-19
8755.94999437333  1.458587126938319E-19
8758.49999437333  1.553894442355485E-19
8761.04999437333  1.451846260242580E-19
8763.59999437333  1.377393888325085E-19
8766.14999437333  1.459785077107682E-19
8768.69999437333  1.420115784624826E-19
8771.24999437333  1.329198118752683E-19
8773.79999437333  1.294016203006280E-19
8776.34999437333  1.201735906536593E-19
8778.89999437333  1.000731568646825E-19
8781.44999437333  9.024819887279427E-20
8783.99999437333  8.827148722298920E-20
8786.54999437333  8.799138652643790E-20
8789.09999437333  8.610613191569598E-20
8791.64999437333  7.501047602372200E-20
8794.19999437333  6.512587276493222E-20
8796.74999437333  6.463421010049749E-20
8799.29999437333  6.609334265280835E-20
8801.84999437333  6.732734242473963E-20
8804.39999437333  6.740669888180674E-20
8806.94999437333  6.781619434907937E-20
8809.49999437333  6.791361879641302E-20
8812.04999437333  7.621888367037655E-20
8814.59999437333  1.264505920593249E-19
8817.14999437333  1.699865785584662E-19
8819.69999437333  1.776450425305659E-19
8822.24999437333  1.837441099360969E-19
8824.79999437333  1.893447977389179E-19
8827.34999437333  1.636106031510871E-19
8829.89999437332  1.292889457534039E-19
8832.44999437333  1.205329324464184E-19
8834.99999437333  1.112649615182777E-19
8837.54999437333  9.336013809633165E-20
8840.09999437333  8.857328820914979E-20
8842.64999437333  8.768109560455732E-20
8845.19999437333  8.696652712773506E-20
8847.74999437333  8.396289491020148E-20
8850.29999437333  7.675471811672361E-20
8852.84999437333  7.384615365363609E-20
8855.39999437333  8.932425210795395E-20
8857.94999437333  1.018226816756969E-19
8860.49999437332  1.035056353299742E-19
8863.04999437333  1.017958859848575E-19
8865.59999437333  9.750236358220593E-20
8868.14999437333  8.204512943886719E-20
8870.69999437333  7.387962302885990E-20
8873.24999437332  1.072990844701739E-19
8875.79999437333  1.436295247220630E-19
8878.34999437333  1.516387685967202E-19
8880.89999437333  1.518037804429173E-19
8883.44999437333  1.497067116185723E-19
8885.99999437333  1.203476616290692E-19
8888.54999437333  8.610417154683474E-20
8891.09999437333  9.810334946051364E-20
8893.64999437333  1.124365484824538E-19
8896.19999437333  1.137308061174096E-19
8898.74999437333  1.141944695193519E-19
8901.29999437333  1.095563508325610E-19
8903.84999437333  9.171050243465931E-20
8906.39999437333  1.102954808157450E-19
8908.94999437333  1.521906242289317E-19
8911.49999437333  1.632354057781377E-19
8914.04999437333  1.649073326955630E-19
8916.59999437333  1.616923403064435E-19
8919.14999437332  1.344754750676473E-19
8921.69999437333  8.984932645801116E-20
8924.24999437333  7.515118574337321E-20
8926.79999437333  7.400303595005730E-20
8929.34999437333  7.971474783937367E-20
8931.89999437332  9.705812304305243E-20
8934.44999437333  1.059189551871804E-19
8936.99999437333  1.064249526038369E-19
8939.54999437333  1.060146859831057E-19
8942.09999437333  1.011787635240825E-19
8944.64999437333  1.023369671021487E-19
8947.19999437333  1.328320302510157E-19
8949.74999437333  1.441097713976714E-19
8952.29999437333  1.451965029927318E-19
8954.84999437333  1.444782661441365E-19
8957.39999437332  1.270256686051744E-19
8959.94999437333  8.855147970402834E-20
8962.49999437333  7.524113649620405E-20
8965.04999437333  7.458371245373371E-20
8967.59999437333  7.559032364794510E-20
8970.14999437333  7.590601979549942E-20
8972.69999437333  7.666003226988049E-20
8975.24999437333  8.613187526708113E-20
8977.79999437333  9.985335713829119E-20
8980.34999437333  1.019623175339976E-19
8982.89999437333  1.022183035497426E-19
8985.44999437333  9.988365543033735E-20
8987.99999437333  1.035110693299677E-19
8990.54999437333  1.166377200965667E-19
8993.09999437333  1.208535508542801E-19
8995.64999437333  1.193486537462198E-19
8998.19999437333  1.165843305126974E-19
9000.74999437333  1.007847558944795E-19
9003.29999437333  7.683149438262592E-20
9005.84999437333  6.878197770311849E-20
9008.39999437332  6.891672728860021E-20
9010.94999437333  6.987070564146723E-20
9013.49999437333  7.016769237433035E-20
9016.04999437333  7.177251476207184E-20
9018.59999437333  7.282944534489095E-20
9021.14999437332  7.293544614166301E-20
9023.69999437333  7.505866922280106E-20
9026.24999437333  8.328088763392276E-20
9028.79999437333  8.822480722844126E-20
9031.34999437333  8.913510385413742E-20
9033.89999437333  9.080981267992450E-20
9036.44999437333  9.763167175829412E-20
9038.99999437333  1.030442059760543E-19
9041.54999437333  1.030176841537760E-19
9044.09999437333  1.026168803460553E-19
9046.64999437333  1.008551756215852E-19
9049.19999437333  9.037557551547131E-20
9051.74999437333  7.843601405185209E-20
9054.29999437333  7.577437639049183E-20
9056.84999437333  7.589383989393692E-20
9059.39999437333  7.636770843141143E-20
9061.94999437333  7.636192119592579E-20
9064.49999437333  7.488561432360358E-20
9067.04999437333  7.344153002188744E-20
9069.59999437333  7.207701118184623E-20
9072.14999437332  7.128854916682008E-20
9074.69999437333  7.151343690698413E-20
9077.24999437333  7.197447695520025E-20
9079.79999437333  7.650966502428245E-20
9082.34999437333  8.081264302316327E-20
9084.89999437333  8.326536368846204E-20
9087.44999437333  8.401725009234501E-20
9089.99999437333  8.841879845488705E-20
9092.54999437333  9.114609203267484E-20
9095.09999437332  8.903362902535230E-20
9097.64999437333  8.881317359768527E-20
9100.19999437333  8.786661846968646E-20
9102.74999437333  8.191052386340734E-20
9105.29999437333  7.576045961659136E-20
9107.84999437333  7.451298272401121E-20
9110.39999437333  7.533597355222970E-20
9112.94999437333  7.496605901768488E-20
9115.49999437333  7.464871966815202E-20
9118.04999437333  7.462459057585651E-20
9120.59999437333  7.557296186919071E-20
9123.14999437333  7.464654314551831E-20
9125.69999437333  7.436267318040473E-20
9128.24999437333  7.460242178837930E-20
9130.79999437333  7.549036945574942E-20
9133.34999437333  7.443883692659426E-20
9135.89999437333  7.466781104496824E-20
9138.44999437333  7.737213586077588E-20
9140.99999437333  7.967739376172117E-20
9143.54999437333  8.159902938407215E-20
9146.09999437333  8.342929445183322E-20
9148.64999437333  8.668881177939507E-20
9151.19999437333  8.793016991201463E-20
9153.74999437333  8.631423430373269E-20
9156.29999437333  8.553482430159377E-20
9158.84999437333  8.372680008403042E-20
9161.39999437333  8.047644287193101E-20
9163.94999437333  7.726343241916757E-20
9166.49999437333  7.731105638260427E-20
9169.04999437333  7.836193307054795E-20
9171.59999437333  7.784679715471099E-20
9174.14999437333  7.812959327181445E-20
9176.69999437333  7.806746878878839E-20
9179.24999437333  7.839497002889918E-20
9181.79999437333  7.798104224505637E-20
9184.34999437333  7.747433133149793E-20
9186.89999437333  7.657443442871737E-20
9189.44999437333  7.758070689176125E-20
9191.99999437333  7.721947681221518E-20
9194.54999437333  7.750363505540889E-20
9197.09999437333  7.833931023210547E-20
9199.64999437333  7.807358753450525E-20
9202.19999437333  7.802520683186214E-20
9204.74999437333  7.996070875316445E-20
9207.29999437333  8.250364684848104E-20
9209.84999437333  8.278305566773237E-20
9212.39999437332  8.700855102920566E-20
9214.94999437333  8.696671429736177E-20
9217.49999437333  8.584916549798105E-20
9220.04999437333  8.536896199090914E-20
9222.59999437333  8.465837899618533E-20
9225.14999437333  8.249102014651111E-20
9227.69999437333  8.051855343559532E-20
9230.24999437333  7.991841076097704E-20
9232.79999437333  8.102780842201291E-20
9235.34999437333  8.187079872016111E-20
9237.89999437333  8.439743454378112E-20
9240.44999437333  8.598095298846955E-20
9242.99999437333  8.516423226266844E-20
9245.54999437333  8.636020781207658E-20
9248.09999437333  8.453542728231656E-20
9250.64999437332  8.521977673438556E-20
9253.19999437333  8.563645038871552E-20
9255.74999437333  8.586017059180186E-20
9258.29999437333  8.520251592599990E-20
9260.84999437333  8.436020308491974E-20
9263.39999437333  8.274567284605467E-20
9265.94999437333  8.154611540699423E-20
9268.49999437333  8.023982205445781E-20
9271.04999437333  8.161153349269934E-20
9273.59999437333  8.404141512004596E-20
9276.14999437332  8.675186589741400E-20
9278.69999437333  8.826411415611474E-20
9281.24999437333  9.213230005457871E-20
9283.79999437333  9.499491977685220E-20
9286.34999437333  9.644617505521113E-20
9288.89999437333  9.822687026209157E-20
9291.44999437333  1.063414374545484E-19
9293.99999437333  1.364634725716368E-19
9296.54999437333  1.756176073516851E-19
9299.09999437333  2.089882699908049E-19
9301.64999437332  2.392078809005138E-19
9304.19999437333  2.531177109086159E-19
9306.74999437333  2.503953613424001E-19
9309.29999437333  2.473282569378095E-19
9311.84999437333  2.537485554600105E-19
9314.39999437333  2.408627127550836E-19
9316.94999437333  2.286230655586385E-19
9319.49999437333  2.269877646967525E-19
9322.04999437333  1.952107175313227E-19
9324.59999437333  1.578058121270130E-19
9327.14999437333  1.513685050403847E-19
9329.69999437333  1.518723187293168E-19
9332.24999437333  1.512424399041918E-19
9334.79999437333  1.550817328715604E-19
9337.34999437333  1.474759233819624E-19
9339.89999437332  1.356231632451559E-19
9342.44999437333  1.231109611045123E-19
9344.99999437333  1.214071071041402E-19
9347.54999437333  1.228918245589185E-19
9350.09999437333  1.209027456760142E-19
9352.64999437333  1.214300830670135E-19
9355.19999437333  1.237597078869145E-19
9357.74999437333  1.298547537574022E-19
9360.29999437333  1.567493643817110E-19
9362.84999437333  2.459179878818896E-19
9365.39999437333  3.173026208581713E-19
9367.94999437333  3.205489493378242E-19
9370.49999437333  3.196664357561018E-19
9373.04999437333  3.079254276159462E-19
9375.59999437333  2.377576849471252E-19
9378.14999437333  1.710327196187342E-19
9380.69999437333  1.559568375932007E-19
9383.24999437333  1.435555802663468E-19
9385.79999437333  1.289411923322418E-19
9388.34999437333  1.237658049985548E-19
9390.89999437332  1.339184587781865E-19
9393.44999437333  1.364188322308254E-19
9395.99999437333  1.364943905891091E-19
9398.54999437333  1.345991758886745E-19
9401.09999437333  1.262657604368696E-19
9403.64999437333  1.164239020310732E-19
9406.19999437333  1.322517929731015E-19
9408.74999437333  1.607936104383950E-19
9411.29999437333  1.721079055395278E-19
9413.84999437333  1.738384543236519E-19
9416.39999437333  1.719526952284356E-19
9418.94999437333  1.586736665441470E-19
9421.49999437333  1.421888848793635E-19
9424.04999437333  1.458822790041817E-19
9426.59999437332  2.087811545944055E-19
9429.14999437333  2.581233584006554E-19
9431.69999437333  2.880643316170512E-19
9434.24999437333  2.873931277581243E-19
9436.79999437333  2.862493742455875E-19
9439.34999437333  2.207667976756246E-19
9441.89999437333  1.525217284659121E-19
9444.44999437333  1.611398210605378E-19
9446.99999437333  1.950406606278314E-19
9449.54999437333  2.007869733828002E-19
9452.09999437333  2.079870710787793E-19
9454.64999437333  2.050845893470149E-19
9457.19999437333  1.810681151601119E-19
9459.74999437333  1.462461324057664E-19
9462.29999437333  1.657519656251164E-19
9464.84999437333  2.368141566460093E-19
9467.39999437333  2.586204118530910E-19
9469.94999437333  2.675926572324836E-19
9472.49999437333  2.721002712431010E-19
9475.04999437333  2.489896469532562E-19
9477.59999437333  1.776885577507523E-19
9480.14999437333  1.342301765836980E-19
9482.69999437333  1.310256343807436E-19
9485.24999437333  1.325234686041777E-19
9487.79999437333  1.458158158450833E-19
9490.34999437333  1.872366581469914E-19
9492.89999437333  2.153930876009465E-19
9495.44999437333  2.117120318845433E-19
9497.99999437333  2.002470813120855E-19
9500.54999437333  1.801571194100819E-19
9503.09999437333  1.508576571462218E-19
9505.64999437333  1.739004345731895E-19
9508.19999437333  2.167288215937849E-19
9510.74999437333  2.429874706494595E-19
9513.29999437333  2.468637788480409E-19
9515.84999437333  2.419333435910295E-19
9518.39999437333  2.061445251791100E-19
9520.94999437333  1.582903396613839E-19
9523.49999437333  1.429644750766078E-19
9526.04999437333  1.426714954425736E-19
9528.59999437333  1.397876510575318E-19
9531.14999437333  1.405780877896641E-19
9533.69999437333  1.375578289977255E-19
9536.24999437333  1.381793765068201E-19
9538.79999437333  1.566197676507814E-19
9541.34999437333  1.796514174396848E-19
9543.89999437333  1.843443526703287E-19
9546.44999437333  1.946719351429365E-19
9548.99999437333  1.966157683697615E-19
9551.54999437333  1.849858636089646E-19
9554.09999437333  2.029144124437932E-19
9556.64999437333  2.301521923311442E-19
9559.19999437333  2.393024798404151E-19
9561.74999437333  2.414399223558606E-19
9564.29999437333  2.224594373978481E-19
9566.84999437333  1.894525273379625E-19
9569.39999437332  1.480673741950304E-19
9571.94999437333  1.397360487860257E-19
9574.49999437333  1.398782143901413E-19
9577.04999437333  1.395939408321136E-19
9579.59999437333  1.397545852263557E-19
9582.14999437332  1.436352897049985E-19
9584.69999437333  1.431264887570961E-19
9587.24999437333  1.416873340583623E-19
9589.79999437333  1.427730710814127E-19
9592.34999437333  1.442899750693160E-19
9594.89999437333  1.581874378155447E-19
9597.44999437333  1.713826200524958E-19
9599.99999437333  1.767468167920086E-19
9602.54999437333  1.784750305010431E-19
9605.09999437333  1.798246596370419E-19
9607.64999437333  1.820415955440318E-19
9610.19999437333  1.928128707724684E-19
9612.74999437333  1.963453033878581E-19
9615.29999437333  1.987984420509448E-19
9617.84999437333  1.931751386521575E-19
9620.39999437333  1.733108428621648E-19
9622.94999437333  1.571652666512424E-19
9625.49999437333  1.501652069050932E-19
9628.04999437333  1.494022433159124E-19
9630.59999437333  1.530611734839115E-19
9633.14999437332  1.561911230600725E-19
9635.69999437333  1.549365400522733E-19
9638.24999437333  1.563276816030003E-19
9640.79999437333  1.578663363659205E-19
9643.34999437333  1.577892933581298E-19
9645.89999437333  1.584507244955415E-19
9648.44999437333  1.606856491153665E-19
9650.99999437333  1.621163139440103E-19
9653.54999437333  1.685313945753516E-19
9656.09999437333  1.827056499895173E-19
9658.64999437332  1.968159935816250E-19
9661.19999437333  1.981917986006626E-19
9663.74999437333  1.982941382311872E-19
9666.29999437333  2.030065324028656E-19
9668.84999437333  2.139978378391127E-19
9671.39999437333  2.200861091022866E-19
9673.94999437333  2.229907673433931E-19
9676.49999437333  2.162213897800640E-19
9679.04999437333  2.055835020101482E-19
9681.59999437333  1.907194774647384E-19
9684.14999437333  1.906638248812934E-19
9686.69999437333  2.091627658111165E-19
9689.24999437333  2.223566075358033E-19
9691.79999437333  2.155590361247972E-19
9694.34999437333  2.171519020640507E-19
9696.89999437333  2.097359542300145E-19
9699.44999437333  1.957882153402019E-19
9701.99999437333  1.948052215393055E-19
9704.54999437333  1.977888686803226E-19
9707.09999437333  2.274798304522591E-19
9709.64999437333  2.544946828846724E-19
9712.19999437333  2.523008670816557E-19
9714.74999437333  2.513036178015839E-19
9717.29999437333  2.408791009616531E-19
9719.84999437333  2.120818668784967E-19
9722.39999437332  1.967865600594257E-19
9724.94999437333  2.069428893977114E-19
9727.49999437333  2.177010766772724E-19
9730.04999437333  2.183868387010807E-19
9732.59999437333  2.245300418414448E-19
9735.14999437333  2.259036847547007E-19
9737.69999437333  2.132931933508553E-19
9740.24999437333  2.034522430465486E-19
9742.79999437333  2.027949054898923E-19
9745.34999437332  1.906950744425453E-19
9747.89999437333  1.813334195591375E-19
9750.44999437333  1.825735020445269E-19
9752.99999437333  1.816946063893249E-19
9755.54999437333  1.806640462805493E-19
9758.09999437333  1.793958420122848E-19
9760.64999437333  1.833047259209884E-19
9763.19999437333  1.823961661862367E-19
9765.74999437333  1.888904663380695E-19
9768.29999437333  1.938258600095430E-19
9770.84999437333  2.005621429444431E-19
9773.39999437332  2.064239697486177E-19
9775.94999437333  2.440936320080058E-19
9778.49999437333  3.206526719872555E-19
9781.04999437333  3.717720394622869E-19
9783.59999437333  3.823328265567569E-19
9786.14999437333  3.920866872643306E-19
9788.69999437333  3.645695490323836E-19
9791.24999437333  3.093062912490389E-19
9793.79999437333  2.635466953973312E-19
9796.34999437333  2.593183100314946E-19
9798.89999437333  2.508279546069509E-19
9801.44999437333  2.375811557272262E-19
9803.99999437333  2.339428952804806E-19
9806.54999437333  2.394410272065768E-19
9809.09999437333  2.375844421173287E-19
9811.64999437333  2.299914467222025E-19
9814.19999437333  2.247054172834761E-19
9816.74999437333  2.226818888661399E-19
9819.29999437333  2.180658525021495E-19
9821.84999437333  2.181812080041132E-19
9824.39999437333  2.241713485268953E-19
9826.94999437333  2.204106120437352E-19
9829.49999437333  2.187017131354273E-19
9832.04999437333  2.260233787696028E-19
9834.59999437333  2.370751943059832E-19
9837.14999437333  2.633851140303893E-19
9839.69999437333  2.645092067919450E-19
9842.24999437333  2.628539280853460E-19
9844.79999437333  2.574789640644346E-19
9847.34999437333  2.502735908415665E-19
9849.89999437333  2.345937752922439E-19
9852.44999437333  2.236348870205810E-19
9854.99999437333  2.340165941692236E-19
9857.54999437333  2.627759193191415E-19
9860.09999437333  3.236094224086882E-19
9862.64999437332  3.536381193585322E-19
9865.19999437333  3.603647160581023E-19
9867.74999437333  3.544747098152489E-19
9870.29999437333  3.375976935268623E-19
9872.84999437333  2.836434605731760E-19
9875.39999437333  2.557566888969246E-19
9877.94999437333  2.588430216045352E-19
9880.49999437333  2.667905733702414E-19
9883.04999437333  3.087385800065512E-19
9885.59999437333  3.109482512363005E-19
9888.14999437333  3.183129859973663E-19
9890.69999437333  3.120254407301676E-19
9893.24999437333  3.027601869039116E-19
9895.79999437333  2.737681183644516E-19
9898.34999437333  2.778429942714116E-19
9900.89999437332  3.179423723647265E-19
9903.44999437333  3.865179407563424E-19
9905.99999437333  4.275248263544942E-19
9908.54999437333  4.282622770968933E-19
9911.09999437333  4.088882602471406E-19
9913.64999437332  3.715377823493341E-19
9916.19999437333  3.072609974494333E-19
9918.74999437333  2.892696322874783E-19
9921.29999437333  2.852034047935018E-19
9923.84999437333  2.945437268937082E-19
9926.39999437333  3.013791495399322E-19
9928.94999437333  3.513481618446327E-19
9931.49999437333  4.179015567321337E-19
9934.04999437333  4.899854430472869E-19
9936.59999437333  5.383828645199662E-19
9939.14999437333  5.254218815029986E-19
9941.69999437333  5.227807694325417E-19
9944.24999437333  5.316761879914464E-19
9946.79999437333  5.187456474124099E-19
9949.34999437333  4.888499055037096E-19
9951.89999437332  4.856159154354638E-19
9954.44999437333  4.889255503356921E-19
9956.99999437333  4.369061995139366E-19
9959.54999437333  4.152172889962490E-19
9962.09999437333  3.959550385622123E-19
9964.64999437332  3.818680889601644E-19
9967.19999437333  3.848649393491008E-19
9969.74999437333  3.712931761089516E-19
9972.29999437333  3.565284498560441E-19
9974.84999437333  3.503456081255707E-19
9977.39999437333  3.295014752469482E-19
9979.94999437332  3.195809306640923E-19
9982.49999437333  3.189596281890503E-19
9985.04999437333  3.372395911025193E-19
9987.59999437333  3.575143120186630E-19
9990.14999437333  3.679745468096103E-19
9992.69999437333  3.873154113660075E-19
9995.24999437333  3.906666739936771E-19
9997.79999437333  4.268695930563659E-19
10000.3499943733  5.338785367488178E-19
10002.8999943733  5.736883080712953E-19
10005.4499943733  6.115894884780769E-19
10007.9999943733  6.106247860814547E-19
10010.5499943733  5.516106222497821E-19
10013.0999943733  5.056754635258179E-19
10015.6499943733  4.738021739794481E-19
10018.1999943733  4.493094458022429E-19
10020.7499943733  4.633504434532713E-19
10023.2999943733  4.427272777011943E-19
10025.8499943733  4.217310767800992E-19
10028.3999943733  4.195408068309284E-19
10030.9499943733  4.154396685501510E-19
10033.4999943733  4.397299083814576E-19
10036.0499943733  4.314346901413712E-19
10038.5999943733  4.248126240037390E-19
10041.1499943733  4.424948657978283E-19
10043.6999943733  4.024993264161134E-19
10046.2499943733  4.231098942905790E-19
10048.7999943733  4.377028917411108E-19
10051.3499943733  4.789887176728536E-19
10053.8999943733  5.106918351297298E-19
10056.4499943733  4.945100653143661E-19
10058.9999943733  4.966372306162884E-19
10061.5499943733  5.058905784337323E-19
10064.0999943733  4.886034252698951E-19
10066.6499943733  4.906378795127078E-19
10069.1999943733  5.281796315865340E-19
10071.7499943733  6.210721345401442E-19
10074.2999943733  6.206550500788519E-19
10076.8499943733  6.273953400996522E-19
10079.3999943733  5.974716349850552E-19
10081.9499943733  5.672827693233984E-19
10084.4999943733  5.049488231299960E-19
10087.0499943733  4.986344389376906E-19
10089.5999943733  4.926824811868034E-19
10092.1499943733  5.209649468528773E-19
10094.6999943733  5.617383250803077E-19
10097.2499943733  5.726270314031809E-19
10099.7999943733  5.589131746339091E-19
10102.3499943733  5.296590301760209E-19
10104.8999943733  5.143376051552232E-19
10107.4499943733  5.084519519556545E-19
10109.9999943733  5.687393937487822E-19
10112.5499943733  6.497792374963127E-19
10115.0999943733  7.065389312379010E-19
10117.6499943733  7.004338964568161E-19
10120.1999943733  7.133025719810839E-19
10122.7499943733  7.042557484139594E-19
10125.2999943733  6.010759502461455E-19
10127.8499943733  5.807944259087292E-19
10130.3999943733  5.487141508678183E-19
10132.9499943733  5.757825513716334E-19
10135.4999943733  5.828566127351741E-19
10138.0499943733  6.340002533487966E-19
10140.5999943733  6.694607920378842E-19
10143.1499943733  6.877500087426318E-19
10145.6999943733  7.338762398416659E-19
10148.2499943733  7.275329122706697E-19
10150.7999943733  8.264416018608633E-19
10153.3499943733  7.557263568506266E-19
10155.8999943733  7.813543342216790E-19
10158.4499943733  8.041238359161857E-19
10160.9999943733  9.066908070296463E-19
10163.5499943733  9.226812737763477E-19
10166.0999943733  9.577434085908349E-19
10168.6499943733  9.211130269841618E-19
10171.1999943733  9.272057233322906E-19
10173.7499943733  7.989043416082307E-19
10176.2999943733  8.662624430367330E-19
10178.8499943733  9.574691959740853E-19
10181.3999943733  9.815985175199465E-19
10183.9499943733  9.747456250591028E-19
10186.4999943733  9.634844024584705E-19
10189.0499943733  9.819054787281725E-19
10191.5999943733  9.451839427816523E-19
10194.1499943733  9.399409824746896E-19
10196.6999943733  9.473085135401795E-19
10199.2499943733  1.027081133141925E-18
10201.7999943733  1.090979924340738E-18
10204.3499943733  1.108928393299812E-18
10206.8999943733  1.144358201254672E-18
10209.4499943733  1.068581901057772E-18
10211.9999943733  1.049739185478389E-18
10214.5499943733  1.063568931045033E-18
10217.0999943733  1.105004086317675E-18
10219.6499943733  1.176776398794008E-18
10222.1999943733  1.252687037745277E-18
10224.7499943733  1.313021872837809E-18
10227.2999943733  1.209343810425542E-18
10229.8499943733  1.193991251095086E-18
10232.3999943733  1.149610674678211E-18
10234.9499943733  1.132433068170344E-18
10237.4999943733  1.138426538312511E-18
10240.0499943733  1.137491586475074E-18
10242.5999943733  1.072476803186615E-18
10245.1499943733  1.028404341139129E-18
10247.6999943733  1.070797856620053E-18
10250.2499943733  1.081226121065551E-18
10252.7999943733  1.030962082397710E-18
10255.3499943733  9.954905313868142E-19
10257.8999943733  1.049648549821316E-18
10260.4499943733  1.002118449586734E-18
10262.9999943733  1.100342011315732E-18
10265.5499943733  1.203903377672556E-18
10268.0999943733  1.112221019321695E-18
10270.6499943733  1.145907651794687E-18
10273.1999943733  1.263857912883387E-18
10275.7499943733  1.383882180322219E-18
10278.2999943733  1.350777413498237E-18
10280.8499943733  1.399132803563454E-18
10283.3999943733  1.468186168179259E-18
10285.9499943733  1.425138255587512E-18
10288.4999943733  1.251217382585315E-18
10291.0499943733  1.230913199396400E-18
