4801.25399684906  1.596219048443949E-18
4803.80699682236  1.646100138510537E-18
4806.35999679566  1.569891856860095E-18
4808.91299676896  1.455730339303925E-18
4811.46599674225  1.298097409428499E-18
4814.01899671555  1.038729374280240E-18
4816.57199668885  9.110185124781144E-19
4819.12499666215  8.587157488023450E-19
4821.67799663544  8.537685391020279E-19
4824.23099660874  8.305343451395975E-19
4826.78399658204  7.831995452114856E-19
4829.33699655533  7.336242313570360E-19
4831.88999652863  6.650000754880622E-19
4834.44299650193  6.079450517115895E-19
4836.99599647523  5.882851646451490E-19
4839.54899644852  6.416111947584811E-19
4842.10199642182  6.762544841255506E-19
4844.65499639512  6.612230247145399E-19
4847.20799636841  6.176956226104212E-19
4849.76099634171  5.583930285303694E-19
4852.31399631501  4.560741812830716E-19
4854.8669962883  4.012780733399418E-19
4857.4199962616  3.760008286044578E-19
4859.9729962349  3.589649439991964E-19
4862.5259962082  3.470855159486780E-19
4865.07899618149  3.435218858525880E-19
4867.63199615479  3.500717456019039E-19
4870.18499612809  3.514122029338342E-19
4872.73799610138  3.515320459891984E-19
4875.29099607468  3.436487852931909E-19
4877.84399604798  3.312293832391473E-19
4880.39699602128  3.180026490261067E-19
4882.94999599457  3.215055620327978E-19
4885.50299596787  3.386751026659621E-19
4888.05599594117  3.465730064984942E-19
4890.60899591446  3.381682428949868E-19
4893.16199588776  3.313991282493178E-19
4895.71499586106  3.057615472529637E-19
4898.26799583436  2.836748441519718E-19
4900.82099580765  2.853980521023014E-19
4903.37399578095  2.914335344987904E-19
4905.92699575425  2.871950060782742E-19
4908.47999572755  2.837099184924176E-19
4911.03299570084  2.695115262409112E-19
4913.58599567414  2.568023516645269E-19
4916.13899564744  2.512431744934445E-19
4918.69199562073  2.505008255428726E-19
4921.24499559403  2.615550268499399E-19
4923.79799556733  2.637551165209734E-19
4926.35099554062  2.540933960081219E-19
4928.90399551392  2.442937072486488E-19
4931.45699548722  2.280835336508286E-19
4934.00999546052  2.111904137739246E-19
4936.56299543381  2.091961580654739E-19
4939.11599540711  2.075845837959167E-19
4941.66899538041  2.044819009270456E-19
4944.2219953537  1.997734779774609E-19
4946.774995327  1.899712064916228E-19
4949.3279953003  1.803999274716122E-19
4951.8809952736  1.734737854491679E-19
4954.43399524689  1.684198884419088E-19
4956.98699522019  1.665763416538175E-19
4959.53999519349  1.643667166587720E-19
4962.09299516678  1.646661859288666E-19
4964.64599514008  1.634147403740524E-19
4967.19899511338  1.640911721920818E-19
4969.75199508668  1.642271688064983E-19
4972.30499505997  1.625122278865794E-19
4974.85799503327  1.616471879678705E-19
4977.41099500657  1.606026601925290E-19
4979.96399497986  1.596770069467249E-19
4982.51699495316  1.569310744956871E-19
4985.06999492646  1.544444176552881E-19
4987.62299489975  1.517119638001596E-19
4990.17599487305  1.526271593192066E-19
4992.72899484635  1.601822525311243E-19
4995.28199481965  1.645517043611157E-19
4997.83499479294  1.614413194361099E-19
5000.38799476624  1.573639230735284E-19
5002.94099473954  1.472185065921416E-19
5005.49399471283  1.344683543101736E-19
5008.04699468613  1.289049340872847E-19
5010.59999465943  1.240109700171671E-19
5013.15299463273  1.200380241256763E-19
5015.70599460602  1.173581471713761E-19
5018.25899457932  1.163256567385986E-19
5020.81199455262  1.150182905749299E-19
5023.36499452592  1.140482928627957E-19
5025.91799449921  1.142027836323892E-19
5028.47099447251  1.147799880783857E-19
5031.02399444581  1.147550371114243E-19
5033.5769944191  1.153690799785848E-19
5036.1299943924  1.150277682606187E-19
5038.6829943657  1.159684912487350E-19
5041.235994339  1.167313751733942E-19
5043.78899431229  1.164601198707349E-19
5046.34199428559  1.170111742262839E-19
5048.89499425889  1.175294602585541E-19
5051.44799423218  1.186289401233688E-19
5054.00099420548  1.174853002757553E-19
5056.55399417878  1.168317786147554E-19
5059.10699415207  1.150527884199421E-19
5061.65999412537  1.142496531899259E-19
5064.21299409867  1.126606201119441E-19
5066.76599407197  1.106195640408487E-19
5069.31899404526  1.085426841905153E-19
5071.87199401856  1.062606045337910E-19
5074.42499399186  1.053613204479203E-19
5076.97799396516  1.031752974066489E-19
5079.53099393845  1.021077211156609E-19
5082.08399391175  1.013631583985679E-19
5084.63699388505  1.006877181649731E-19
5087.18999385834  9.931773244979542E-20
5089.74299383164  9.856862690387204E-20
5092.29599380494  9.840764473394955E-20
5094.84899377824  9.829418931582580E-20
5097.40199375153  9.822434044193004E-20
5099.95499372483  9.823854543039248E-20
5102.50799369813  9.793331115181304E-20
5105.06099367142  9.793374929367812E-20
5107.61399364472  9.857687087698819E-20
5110.16699361802  9.927855344343107E-20
5112.71999359132  1.015952001094825E-19
5115.27299356461  1.033997754264172E-19
5117.82599353791  1.043514404058204E-19
5120.37899351121  1.037583475912154E-19
5122.93199348451  1.037215437611930E-19
5125.4849934578  1.031591899859468E-19
5128.0379934311  1.037950591853465E-19
5130.5909934044  1.021557321496411E-19
5133.14399337769  1.015576468353335E-19
5135.69699335099  1.009550417522815E-19
5138.24999332429  1.001855280667848E-19
5140.80299329758  9.879960786050066E-20
5143.35599327088  9.769029288853445E-20
5145.90899324418  9.709707324354502E-20
5148.46199321747  9.545146811051802E-20
5151.01499319077  9.420272057911988E-20
5153.56799316407  9.340495833892912E-20
5156.12099313737  9.150321376098673E-20
5158.67399311066  9.028695783227673E-20
5161.22699308396  8.790450933060174E-20
5163.77999305726  8.716516971317657E-20
5166.33299303055  8.526516616845317E-20
5168.88599300385  8.346783747204861E-20
5171.43899297715  8.154545415401164E-20
5173.99199295045  8.101043806122667E-20
5176.54499292374  8.078846783821482E-20
5179.09799289704  8.010609229571906E-20
5181.65099287034  7.998482528724633E-20
5184.20399284363  8.033382176730402E-20
5186.75699281693  8.089430768096079E-20
5189.30999279023  8.221751033318714E-20
5191.86299276353  8.329601132267628E-20
5194.41599273682  8.453337872411752E-20
5196.96899271012  8.586611093982941E-20
5199.52199268342  8.704137187632838E-20
5202.07499265672  8.737067507842796E-20
5204.62799263001  8.594778962022131E-20
5207.18099260331  8.588083478172153E-20
5209.73399257661  8.657219221333015E-20
5212.2869925499  8.635328321124644E-20
5214.8399925232  8.730977927014302E-20
5217.3929924965  8.852125024169435E-20
5219.94599246979  8.882967257348184E-20
5222.49899244309  8.826520303874502E-20
5225.05199241639  8.816286832689943E-20
5227.60499238969  8.874001512290268E-20
5230.15799236298  8.824928008061158E-20
5232.71099233628  8.875043826480341E-20
5235.26399230958  8.848673512616457E-20
5237.81699228288  8.761631068522667E-20
5240.36999225617  8.756493290682206E-20
5242.92299222947  8.666408073706376E-20
5245.47599220277  8.645789511452630E-20
5248.02899217606  8.517166348010107E-20
5250.58199214936  8.504192767026147E-20
5253.13499212266  8.505979344061984E-20
5255.68799209595  8.277832487309767E-20
5258.24099206925  8.231137050163589E-20
5260.79399204255  8.129276221422211E-20
5263.34699201585  7.950754580548947E-20
5265.89999198914  7.862847961266189E-20
5268.45299196244  7.845959937710526E-20
5271.00599193574  7.806840301696206E-20
5273.55899190903  7.835795070222221E-20
5276.11199188233  7.936352430108176E-20
5278.66499185563  7.843973891679372E-20
5281.21799182892  7.875517150208239E-20
5283.77099180222  7.886929566337734E-20
5286.32399177552  7.911075739073625E-20
5288.87699174882  7.970464577911895E-20
5291.42999172211  8.018094523528567E-20
5293.98299169541  7.986798584130295E-20
5296.53599166871  8.042897907614145E-20
5299.08899164201  8.061759871141084E-20
5301.6419916153  8.073824310032634E-20
5304.1949915886  8.049167357462785E-20
5306.7479915619  8.085587815420872E-20
5309.30099153519  8.071913209073354E-20
5311.85399150849  8.064201930249385E-20
5314.40699148179  8.075730223105088E-20
5316.95999145509  8.052355409011404E-20
5319.51299142838  8.057957846915414E-20
5322.06599140168  8.029346673201715E-20
5324.61899137498  8.081524636113057E-20
5327.17199134827  8.096316501776033E-20
5329.72499132157  8.075625876868331E-20
5332.27799129487  8.062845423746857E-20
5334.83099126816  8.062777973193536E-20
5337.38399124146  8.128877861512238E-20
5339.93699121476  8.122771561788928E-20
5342.48999118806  8.132592258345550E-20
5345.04299116135  8.156086408327391E-20
5347.59599113465  8.198628731621990E-20
5350.14899110795  8.216381507008957E-20
5352.70199108125  8.231784463854896E-20
5355.25499105454  8.260787081984071E-20
5357.80799102784  8.274632909321219E-20
5360.36099100114  8.159776015922332E-20
5362.91399097443  8.217105592797555E-20
5365.46699094773  8.207311991947463E-20
5368.01999092103  8.124379424243652E-20
5370.57299089433  8.161586229729087E-20
5373.12599086762  8.079316061803341E-20
5375.67899084092  8.081952977975742E-20
5378.23199081422  8.059519590194554E-20
5380.78499078751  8.011953636338736E-20
5383.33799076081  7.918175929667286E-20
5385.89099073411  7.881874231079937E-20
5388.4439907074  7.763726092803535E-20
5390.9969906807  7.751567684376972E-20
5393.549990654  7.647775576843820E-20
5396.1029906273  7.600666211863547E-20
5398.65599060059  7.536189174314391E-20
5401.20899057389  7.496599113365308E-20
5403.76199054719  7.476212304531487E-20
5406.31499052048  7.347279559898512E-20
5408.86799049378  7.326821841425746E-20
5411.42099046708  7.296453492296973E-20
5413.97399044038  7.352688293557465E-20
5416.52699041367  7.327177542817240E-20
5419.07999038697  7.355065784289092E-20
5421.63299036027  7.371925559444836E-20
5424.18599033356  7.360756426924458E-20
5426.73899030686  7.412743567977587E-20
5429.29199028016  7.481077974629137E-20
5431.84499025346  7.512780347475729E-20
5434.39799022675  7.569434265051975E-20
5436.95099020005  7.611668736757543E-20
5439.50399017335  7.635085059089647E-20
5442.05699014665  7.687476327428949E-20
5444.60999011994  7.723672526464897E-20
5447.16299009324  7.774760325786289E-20
5449.71599006654  7.786544008634972E-20
5452.26899003983  7.861689199460113E-20
5454.82199001313  7.926814800918835E-20
5457.37498998643  8.056952433046587E-20
5459.92798995972  8.032072374526864E-20
5462.48098993302  8.114994565389764E-20
5465.03398990632  8.158716986480085E-20
5467.58698987962  8.188768836645486E-20
5470.13998985291  8.206517576528959E-20
5472.69298982621  8.210501199304040E-20
5475.24598979951  8.274890608847034E-20
5477.7989897728  8.203512852944033E-20
5480.3519897461  8.175611352082599E-20
5482.9049897194  8.242844641624280E-20
5485.4579896927  8.185909391637579E-20
5488.01098966599  8.214658925787343E-20
5490.56398963929  8.165183023718970E-20
5493.11698961259  8.126970800423707E-20
5495.66998958588  8.083269133515875E-20
5498.22298955918  8.082308682731930E-20
5500.77598953248  8.002919867334201E-20
5503.32898950577  7.955261673275280E-20
5505.88198947907  7.921346689283348E-20
5508.43498945237  7.969754334934840E-20
5510.98798942567  7.887093299207187E-20
5513.54098939896  7.799955732323980E-20
5516.09398937226  7.794217240300048E-20
5518.64698934556  7.692230734208188E-20
5521.19998931885  7.630200943859579E-20
5523.75298929215  7.612675886547652E-20
5526.30598926545  7.593765497057170E-20
5528.85898923875  7.514914557186402E-20
5531.41198921204  7.487602816952623E-20
5533.96498918534  7.521793945119635E-20
5536.51798915864  7.585194655257311E-20
5539.07098913193  7.621982920946669E-20
5541.62398910523  7.729136030172369E-20
5544.17698907853  7.726981645575690E-20
5546.72998905183  7.760826873077293E-20
5549.28298902512  7.757332123389381E-20
5551.83598899842  7.781535369750619E-20
5554.38898897172  7.738063726773951E-20
5556.94198894502  7.765751922372929E-20
5559.49498891831  7.803168574280869E-20
5562.04798889161  7.823602079854841E-20
5564.60098886491  7.945280134672354E-20
5567.1539888382  8.446045144910900E-20
5569.7069888115  1.177755111657966E-19
5572.2599887848  1.740618054705847E-19
5574.81298875809  1.943513240599814E-19
5577.36598873139  1.952314106632528E-19
5579.91898870469  1.902723134869243E-19
5582.47198867799  1.564839405910623E-19
5585.02498865128  9.940077185550235E-20
5587.57798862458  8.078867550082073E-20
5590.13098859788  7.987515760027516E-20
5592.68398857117  7.919964241988344E-20
5595.23698854447  7.886103449088133E-20
5597.78998851777  7.786180240456619E-20
5600.34298849107  7.753610810051368E-20
5602.89598846436  7.684518881029188E-20
5605.44898843766  7.600612026360932E-20
5608.00198841096  7.567017000470034E-20
5610.55498838425  7.434172695677288E-20
5613.10798835755  7.297241574480180E-20
5615.66098833085  7.280951959046404E-20
5618.21398830415  7.244963877024250E-20
5620.76698827744  7.144449754736320E-20
5623.31998825074  7.123453584200173E-20
5625.87298822404  7.105283422127928E-20
5628.42598819733  7.011943856208670E-20
5630.97898817063  6.904974074432423E-20
5633.53198814393  6.892693447745702E-20
5636.08498811723  6.847209239355821E-20
5638.63798809052  6.815146553417257E-20
5641.19098806382  6.784089861923314E-20
5643.74398803712  6.725379564956694E-20
5646.29698801041  6.766885339271588E-20
5648.84998798371  7.043845122374219E-20
5651.40298795701  7.787471027857288E-20
5653.95598793031  8.098262778893177E-20
5656.5089879036  8.183309376415021E-20
5659.0619878769  8.011450358662406E-20
5661.6149878502  7.517987311521543E-20
5664.16798782349  6.810084297708169E-20
5666.72098779679  6.699096303146609E-20
5669.27398777009  6.721664592344112E-20
5671.82698774339  6.786625314517560E-20
5674.37998771668  6.756966061721541E-20
5676.93298768998  6.826232094221673E-20
5679.48598766328  6.866210140587051E-20
5682.03898763657  6.893440017801067E-20
5684.59198760987  6.903426170170012E-20
5687.14498758317  6.971619910599918E-20
5689.69798755647  6.989753753225514E-20
5692.25098752976  7.066121702964466E-20
5694.80398750306  7.107692045412744E-20
5697.35698747636  7.069419865960878E-20
5699.90998744965  7.064741559472979E-20
5702.46298742295  7.049038822165548E-20
5705.01598739625  7.051442831873375E-20
5707.56898736954  7.043289376664635E-20
5710.12198734284  7.043276117197690E-20
5712.67498731614  7.018548831437055E-20
5715.22798728944  7.012604528499904E-20
5717.78098726273  7.004555996493261E-20
5720.33398723603  7.039080342317762E-20
5722.88698720933  7.022902568089962E-20
5725.43998718262  7.002116820450446E-20
5727.99298715592  6.936093030323934E-20
5730.54598712922  7.109839512893922E-20
5733.09898710252  6.966611269958873E-20
5735.65198707581  6.961930657464376E-20
5738.20498704911  6.962549243218125E-20
5740.75798702241  6.946483886705793E-20
5743.31098699571  6.940820916311007E-20
5745.863986969  6.982307666102409E-20
5748.4169869423  6.927742412131570E-20
5750.9699869156  6.954465544870741E-20
5753.52298688889  6.953027174646003E-20
5756.07598686219  6.919285140945669E-20
5758.62898683549  6.944004932310789E-20
5761.18198680878  6.932277170185838E-20
5763.73498678208  6.913057776071601E-20
5766.28798675538  6.961740412782216E-20
5768.84098672868  6.925859559943734E-20
5771.39398670197  6.856161151699575E-20
5773.94698667527  6.920566126818772E-20
5776.49998664857  6.883633735945172E-20
5779.05298662186  6.839748741624031E-20
5781.60598659516  6.812698732862479E-20
5784.15898656846  6.842969076963536E-20
5786.71198654176  6.803546201271045E-20
5789.26498651505  6.786065534516576E-20
5791.81798648835  6.795037044923485E-20
5794.37098646165  6.749318777053399E-20
5796.92398643494  6.811677173217609E-20
5799.47698640824  6.788236061434074E-20
5802.02998638154  6.788891543256616E-20
5804.58298635484  6.706486473926610E-20
5807.13598632813  6.726794302259371E-20
5809.68898630143  6.690340983806285E-20
5812.24198627473  6.736334242819525E-20
5814.79498624802  6.726092124063356E-20
5817.34798622132  6.666159068194692E-20
5819.90098619462  6.668099571001450E-20
5822.45398616792  6.681641582248020E-20
5825.00698614121  6.696764936053435E-20
5827.55998611451  6.649199558604401E-20
5830.11298608781  6.650171539537529E-20
5832.6659860611  6.622399174871887E-20
5835.2189860344  6.648845010577710E-20
5837.7719860077  6.610022272537174E-20
5840.324985981  6.631979470560972E-20
5842.87798595429  6.579841862764878E-20
5845.43098592759  6.545627674636984E-20
5847.98398590089  6.561381720661916E-20
5850.53698587418  6.585539423442283E-20
5853.08998584748  6.533804789923456E-20
5855.64298582078  6.523093399255877E-20
5858.19598579408  6.527421193178810E-20
5860.74898576737  6.693194088890948E-20
5863.30198574067  6.782809457790762E-20
5865.85498571397  6.836761314706134E-20
5868.40798568726  6.853184102027563E-20
5870.96098566056  6.830694217077764E-20
5873.51398563386  6.633614428405031E-20
5876.06698560716  6.615708303819809E-20
5878.61998558045  6.533388556633081E-20
5881.17298555375  6.922929207211580E-20
5883.72598552705  8.280151769187234E-20
5886.27898550034  8.923813534861171E-20
5888.83198547364  9.400707363945375E-20
5891.38498544694  9.800705744788034E-20
5893.93798542023  9.342908515283843E-20
5896.49098539353  8.154711468353072E-20
5899.04398536683  7.710826363741146E-20
5901.59698534013  6.911052708169358E-20
5904.14998531342  6.549108589553108E-20
5906.70298528672  6.537477103103137E-20
5909.25598526002  6.725457974800131E-20
5911.80898523331  6.847325122103441E-20
5914.36198520661  6.796145082648662E-20
5916.91498517991  6.872590860086286E-20
5919.46798515321  6.861905988469374E-20
5922.0209851265  6.728965407845642E-20
5924.5739850998  6.726206850061068E-20
5927.1269850731  6.922148625670054E-20
5929.67998504639  6.896019289174962E-20
5932.23298501969  6.835416915489428E-20
5934.78598499299  6.781951049108945E-20
5937.33898496629  6.614052593849695E-20
5939.89198493958  6.473598474181030E-20
5942.44498491288  6.493419159075503E-20
5944.99798488618  6.455811108868991E-20
5947.55098485947  6.589578392204742E-20
5950.10398483277  6.579656231559654E-20
5952.65698480607  6.482179117029135E-20
5955.20998477937  6.428078522914328E-20
5957.76298475266  6.345257219734675E-20
5960.31598472596  6.171186167018365E-20
5962.86898469926  6.130076449032583E-20
5965.42198467255  6.131457745751555E-20
5967.97498464585  6.131693534754345E-20
5970.52798461915  6.144945565939217E-20
5973.08098459245  6.172353005510398E-20
5975.63398456574  6.152787134203401E-20
5978.18698453904  6.052163476574192E-20
5980.73998451234  5.960943705137109E-20
5983.29298448564  5.821542276481200E-20
5985.84598445893  5.831838009944489E-20
5988.39898443223  5.740483337242558E-20
5990.95198440553  5.741310616386408E-20
5993.50498437882  5.691776487594122E-20
5996.05798435212  5.719637633541180E-20
5998.61098432542  5.735793500841802E-20
6001.16398429871  5.753989029088883E-20
6003.71698427201  5.659110205063599E-20
6006.26998424531  5.628888863634539E-20
6008.82298421861  5.618451887483440E-20
6011.3759841919  5.548265759230074E-20
6013.9289841652  5.563161971592731E-20
6016.4819841385  5.546471111340744E-20
6019.03498411179  5.556506266298302E-20
6021.58798408509  5.543455434088745E-20
6024.14098405839  5.564843049011408E-20
6026.69398403168  5.617150148258448E-20
6029.24698400498  5.593507261054979E-20
6031.79998397828  5.581800829446369E-20
6034.35298395158  5.610247124027340E-20
6036.90598392487  5.575880163073554E-20
6039.45898389817  5.521781298440506E-20
6042.01198387147  5.503701646999453E-20
6044.56498384476  5.520390201330647E-20
6047.11798381806  5.487357263956221E-20
6049.67098379136  5.437902115805903E-20
6052.22398376466  5.504381918478409E-20
6054.77698373795  5.411099426025169E-20
6057.32998371125  5.433376005668516E-20
6059.88298368455  5.407947694506472E-20
6062.43598365785  5.334300253542977E-20
6064.98898363114  5.346405047504287E-20
6067.54198360444  5.282521229431338E-20
6070.09498357774  5.274225378417931E-20
6072.64798355103  5.237603721594852E-20
6075.20098352433  5.179612897922392E-20
6077.75398349763  5.148803525344681E-20
6080.30698347092  5.105488114067425E-20
6082.85998344422  5.120071862824219E-20
6085.41298341752  5.064882834570559E-20
6087.96598339082  5.052477107102244E-20
6090.51898336411  5.052651210475930E-20
6093.07198333741  4.998051942861670E-20
6095.62498331071  5.015470347603198E-20
6098.17798328401  5.013214498774464E-20
6100.7309832573  4.965379318747467E-20
6103.2839832306  4.943335645627736E-20
6105.8369832039  4.891109256602213E-20
6108.38998317719  4.888742143057082E-20
6110.94298315049  4.861624683618053E-20
6113.49598312379  4.848884585500009E-20
6116.04898309708  4.814370904997878E-20
6118.60198307038  4.817630730590678E-20
6121.15498304368  4.809236009630707E-20
6123.70798301698  4.793631277468403E-20
6126.26098299027  4.801375705239280E-20
6128.81398296357  4.794865566425826E-20
6131.36698293687  4.857430061780968E-20
6133.91998291016  4.889158953715711E-20
6136.47298288346  4.907556257352267E-20
6139.02598285676  4.965028230104643E-20
6141.57898283005  4.950323416183946E-20
6144.13198280335  4.931751432779370E-20
6146.68498277665  4.905932253849891E-20
6149.23798274995  4.901703041700588E-20
6151.79098272324  4.857096267912862E-20
6154.34398269654  4.910185102684906E-20
6156.89698266984  4.882051271775083E-20
6159.44998264314  4.914876668833929E-20
6162.00298261643  4.853422802942076E-20
6164.55598258973  4.916925553868773E-20
6167.10898256303  4.958337358545186E-20
6169.66198253632  4.999267784790568E-20
6172.21498250962  5.063345883833002E-20
6174.76798248292  5.019966480918570E-20
6177.32098245622  4.961369178052859E-20
6179.87398242951  4.924148536555894E-20
6182.42698240281  4.984551440986967E-20
6184.97998237611  4.905385731313963E-20
6187.5329823494  4.934406797512703E-20
6190.0859823227  4.895510267271031E-20
6192.638982296  4.880898846527884E-20
6195.1919822693  4.888392208064144E-20
6197.74498224259  4.934941214185611E-20
6200.29798221589  4.927583906981413E-20
6202.85098218919  4.895189156321287E-20
6205.40398216248  4.948568547662806E-20
6207.95698213578  4.898367407040772E-20
6210.50998210908  4.879463935490074E-20
6213.06298208238  4.862122205461612E-20
6215.61598205567  4.877208663193354E-20
6218.16898202897  4.965636439868228E-20
6220.72198200227  4.907377543149575E-20
6223.27498197556  4.903460794603265E-20
6225.82798194886  4.910084792457388E-20
6228.38098192216  5.071028338482043E-20
6230.93398189546  5.286550974641802E-20
6233.48698186875  5.427530287032128E-20
6236.03998184205  5.493664765567922E-20
6238.59298181535  5.488697631992377E-20
6241.14598178864  5.271371123908471E-20
6243.69898176194  5.014452248692712E-20
6246.25198173524  4.916752604634412E-20
6248.80498170854  4.872426010376036E-20
6251.35798168183  5.103969612554108E-20
6253.91098165513  5.270120116668838E-20
6256.46398162843  5.344718784589196E-20
6259.01698160172  5.452833497880362E-20
6261.56998157502  5.540785084647403E-20
6264.12298154832  5.340878710766756E-20
6266.67598152161  5.276989127644657E-20
6269.22898149491  5.253051648349476E-20
6271.78198146821  5.137815416843382E-20
6274.33498144151  5.092204954598223E-20
6276.8879814148  5.033205253937087E-20
6279.4409813881  5.113224185351272E-20
6281.9939813614  5.237305673551674E-20
6284.5469813347  5.305141983388161E-20
6287.09998130799  5.294025312407258E-20
6289.65298128129  5.347010953500516E-20
6292.20598125459  6.944334701775566E-20
6294.75898122788  9.887059858205732E-20
6297.31198120118  1.023477535330662E-19
6299.86498117448  1.049742464975849E-19
6302.41798114778  1.032069361178261E-19
6304.97098112107  8.261201603795493E-20
6307.52398109437  5.782238160195673E-20
6310.07698106767  5.118805865167839E-20
6312.62998104096  4.812544547921277E-20
6315.18298101426  4.747839504027172E-20
6317.73598098756  4.762995718396537E-20
6320.28898096085  4.778669919018337E-20
6322.84198093415  4.925876884631165E-20
6325.39498090745  5.018961637280074E-20
6327.94798088075  4.926347309634905E-20
6330.50098085404  4.896655196232183E-20
6333.05398082734  4.867530936427555E-20
6335.60698080064  4.592934519418931E-20
6338.15998077393  4.479369276478796E-20
6340.71298074723  4.491867532453613E-20
6343.26598072053  4.534677352328001E-20
6345.81898069383  4.558208974901869E-20
6348.37198066712  4.609644692717865E-20
6350.92498064042  4.722656494679131E-20
6353.47798061372  4.784772183912440E-20
6356.03098058701  5.451685681139300E-20
6358.58398056031  6.429130639488644E-20
6361.13698053361  6.610432169358166E-20
6363.68998050691  6.609495355107148E-20
6366.2429804802  6.445292848441983E-20
6368.7959804535  5.691097947151192E-20
6371.3489804268  4.677766659170599E-20
6373.90198040009  4.438642644009806E-20
6376.45498037339  4.461100533257130E-20
6379.00798034669  4.514819771996013E-20
6381.56098031998  4.540552187580643E-20
6384.11398029328  4.535911065391879E-20
6386.66698026658  4.516826860754986E-20
6389.21998023988  4.540062450008709E-20
6391.77298021317  4.502194109522944E-20
6394.32598018647  4.445249058871649E-20
6396.87898015977  4.429492995173241E-20
6399.43198013307  4.426427738782339E-20
6401.98498010636  4.422865538429693E-20
6404.53798007966  4.432920006176655E-20
6407.09098005296  4.436569258278908E-20
6409.64398002625  4.493121423504973E-20
6412.19697999955  4.502008476493598E-20
6414.74997997285  4.550316099266816E-20
6417.30297994615  4.568996753208144E-20
6419.85597991944  4.603038567626100E-20
6422.40897989274  4.589774429999502E-20
6424.96197986604  4.566243672254859E-20
6427.51497983933  4.499900788660163E-20
6430.06797981263  4.568080981393066E-20
6432.62097978593  4.553132595756107E-20
6435.17397975923  4.524552841239177E-20
6437.72697973252  4.562872293936737E-20
6440.27997970582  4.578782571767925E-20
6442.83297967912  4.552503344952397E-20
6445.38597965241  4.561245696161936E-20
6447.93897962571  4.601248820369352E-20
6450.49197959901  4.635671702028157E-20
6453.0449795723  4.630665942882098E-20
6455.5979795456  4.704010432616218E-20
6458.1509795189  4.751917675372964E-20
6460.7039794922  4.902489966318811E-20
6463.25697946549  5.021024937264979E-20
6465.80997943879  5.111924750730230E-20
6468.36297941209  5.049781389507562E-20
6470.91597938539  4.896679988248856E-20
6473.46897935868  4.783993909455196E-20
6476.02197933198  4.650555519996309E-20
6478.57497930528  4.518933109049603E-20
6481.12797927857  4.482538305401847E-20
6483.68097925187  4.425605361254178E-20
6486.23397922517  4.363344105543071E-20
6488.78697919847  4.364582718228688E-20
6491.33997917176  4.603437507549554E-20
6493.89297914506  4.799728642995975E-20
6496.44597911835  4.860001258191489E-20
6498.99897909165  4.891539328274061E-20
6501.55197906495  4.880955344332117E-20
6504.10497903825  4.635983013491582E-20
6506.65797901154  4.445265779155549E-20
6509.21097898484  4.384552717185782E-20
6511.76397895814  4.288961914209662E-20
6514.31697893144  4.290589088646349E-20
6516.86997890473  4.327215934074869E-20
6519.42297887803  4.327616025886807E-20
6521.97597885133  4.297314550775296E-20
6524.52897882462  4.385401327056715E-20
6527.08197879792  4.552616916996145E-20
6529.63497877122  4.575222390539329E-20
6532.18797874452  4.563593210069921E-20
6534.74097871781  4.609091831174566E-20
6537.29397869111  4.557832234497759E-20
6539.84697866441  4.490166280814254E-20
6542.3999786377  4.427306616932527E-20
6544.952978611  4.478512022583401E-20
6547.5059785843  4.682423349813166E-20
6550.0589785576  4.767379725045781E-20
6552.61197853089  4.756951972902360E-20
6555.16497850419  4.808764434232656E-20
6557.71797847749  4.908191563978517E-20
6560.27097845078  4.752393866951161E-20
6562.82397842408  4.706908217197096E-20
6565.37697839738  4.742628226378985E-20
6567.92997837068  4.757410868033571E-20
6570.48297834397  4.688221798396015E-20
6573.03597831727  4.891075246096741E-20
6575.58897829057  4.828507291775530E-20
6578.14197826386  4.808557470699343E-20
6580.69497823716  4.787151407803909E-20
6583.24797821046  4.566676915316930E-20
6585.80097818376  4.470672472766657E-20
6588.35397815705  4.469221707745943E-20
6590.90697813035  4.513901697272647E-20
6593.45997810365  4.550375769915400E-20
6596.01297807695  4.582573069029900E-20
6598.56597805024  4.712454158488474E-20
6601.11897802354  4.726870145434056E-20
6603.67197799684  4.652478729717437E-20
6606.22497797013  4.610000109776237E-20
6608.77797794343  4.567559827158500E-20
6611.33097791673  4.377038314882286E-20
6613.88397789002  4.371079311133089E-20
6616.43697786332  4.372253932193246E-20
6618.98997783662  4.325541199801171E-20
6621.54297780991  4.369485862157151E-20
6624.09597778321  4.350303940559872E-20
6626.64897775651  4.392616816507784E-20
6629.20197772981  4.395046192246999E-20
6631.7549777031  4.368433171263609E-20
6634.3079776764  4.332983541173051E-20
6636.8609776497  4.319532040667976E-20
6639.413977623  4.235939667126575E-20
6641.96697759629  4.181570135156642E-20
6644.51997756959  4.160358353126573E-20
6647.07297754289  4.127080979237987E-20
6649.62597751618  4.142961279015012E-20
6652.17897748948  4.145021405787145E-20
6654.73197746278  4.122093091682802E-20
6657.28497743608  4.116921588454560E-20
6659.83797740937  4.101972626297329E-20
6662.39097738267  4.128565758064411E-20
6664.94397735597  4.108200279670650E-20
6667.49697732926  4.152181838102040E-20
6670.04997730256  4.123307203234311E-20
6672.60297727586  4.118756879958207E-20
6675.15597724915  4.118276366311222E-20
6677.70897722245  4.138767522015910E-20
6680.26197719575  4.143880510448218E-20
6682.81497716905  4.148546134014453E-20
6685.36797714234  4.154257530605393E-20
6687.92097711564  4.173047719767704E-20
6690.47397708894  4.196401491765685E-20
6693.02697706223  4.227714438173563E-20
6695.57997703553  4.269227130579461E-20
6698.13297700883  4.292787578228801E-20
6700.68597698213  4.343443001837041E-20
6703.23897695542  4.322921003388924E-20
6705.79197692872  4.327654365837730E-20
6708.34497690202  4.366539077907798E-20
6710.89797687531  4.386006079383203E-20
6713.45097684861  4.365621864701381E-20
6716.00397682191  4.363362268611123E-20
6718.55697679521  4.383618788365486E-20
6721.1099767685  4.370220614209153E-20
6723.6629767418  4.344388463978269E-20
6726.2159767151  4.358505823346327E-20
6728.7689766884  4.363577303700059E-20
6731.32197666169  4.355346309047655E-20
6733.87497663499  4.356430419431010E-20
6736.42797660829  4.331556125803411E-20
6738.98097658158  4.318708221961100E-20
6741.53397655488  4.282107607377933E-20
6744.08697652818  4.275034226965784E-20
6746.63997650147  4.241040550429284E-20
6749.19297647477  4.226911084604282E-20
6751.74597644807  4.168264779082971E-20
6754.29897642137  4.167167985741816E-20
6756.85197639466  4.129283503169602E-20
6759.40497636796  4.113487372616012E-20
6761.95797634126  4.074033654004222E-20
6764.51097631455  4.057532750835236E-20
6767.06397628785  4.010429438910389E-20
6769.61697626115  4.037588406529700E-20
6772.16997623445  3.979115051337864E-20
6774.72297620774  4.005465476141678E-20
6777.27597618104  3.979116204401603E-20
6779.82897615434  4.007732278592828E-20
6782.38197612763  3.972393048444584E-20
6784.93497610093  3.991710447880569E-20
6787.48797607423  3.974966837739510E-20
6790.04097604753  4.011054078148414E-20
6792.59397602082  4.008526985535772E-20
6795.14697599412  3.994625237647304E-20
6797.69997596742  4.003191467765497E-20
6800.25297594071  4.024443893199393E-20
6802.80597591401  4.024281319915321E-20
6805.35897588731  4.068745698047702E-20
6807.9119758606  4.070493937714048E-20
6810.4649758339  4.084058432511788E-20
6813.0179758072  4.111720685609194E-20
6815.5709757805  4.152260820644355E-20
6818.12397575379  4.226319018836395E-20
6820.67697572709  4.373076313808771E-20
6823.22997570039  4.905080191552734E-20
6825.78297567369  5.267049677036497E-20
6828.33597564698  5.650818399239643E-20
6830.88897562028  5.821137583104539E-20
6833.44197559358  5.585569426470042E-20
6835.99497556687  5.309747079379301E-20
6838.54797554017  5.007384350388445E-20
6841.10097551347  4.575498539068290E-20
6843.65397548677  4.448845567584990E-20
6846.20697546006  4.336357805031251E-20
6848.75997543336  4.219663025578705E-20
6851.31297540666  4.192708139410628E-20
6853.86597537995  4.212175429141567E-20
6856.41897535325  4.665814357176574E-20
6858.97197532655  5.285700641669200E-20
6861.52497529984  6.915979501382119E-20
6864.07797527314  7.010220138939249E-20
6866.63097524644  7.645961357167660E-20
6869.18397521974  7.127787741225589E-20
6871.73697519303  6.558435238661988E-20
6874.28997516633  6.157377824513886E-20
6876.84297513963  5.558462344682039E-20
6879.39597511292  5.398259602468553E-20
6881.94897508622  5.428309723204773E-20
6884.50197505952  5.714938007343899E-20
6887.05497503282  5.699986450929901E-20
6889.60797500611  5.699678022874489E-20
6892.16097497941  5.422371761864615E-20
6894.71397495271  5.372428893680992E-20
6897.266974926  5.414356666921387E-20
6899.8199748993  5.572814340345308E-20
6902.3729748726  5.336505379725791E-20
6904.9259748459  5.266722802116139E-20
6907.47897481919  5.269924112854597E-20
6910.03197479249  5.223056878124063E-20
6912.58497476579  5.156626078003418E-20
6915.13797473909  5.315092398948882E-20
6917.69097471238  5.662477559284541E-20
6920.24397468568  5.772294680514363E-20
6922.79697465898  5.662425674266171E-20
6925.34997463227  5.581112497822373E-20
6927.90297460557  5.032028621410457E-20
6930.45597457887  4.574558266926063E-20
6933.00897455216  4.586972642003105E-20
6935.56197452546  4.681047823740724E-20
6938.11497449876  4.605128968234443E-20
6940.66797447205  4.669512612966558E-20
6943.22097444535  5.074640701659824E-20
6945.77397441865  5.052881243551955E-20
6948.32697439195  4.991790573265730E-20
6950.87997436524  4.969575679274771E-20
6953.43297433854  4.721177778451456E-20
6955.98597431184  4.218125210145470E-20
6958.53897428514  4.075526794232149E-20
6961.09197425843  4.089856882516701E-20
6963.64497423173  4.157649090100928E-20
6966.19797420503  4.195770514717244E-20
6968.75097417832  4.253722712994104E-20
6971.30397415162  4.351441958296443E-20
6973.85697412492  4.517633394224223E-20
6976.40997409822  4.404014536436536E-20
6978.96297407151  4.367486560965975E-20
6981.51597404481  4.294839349284588E-20
6984.06897401811  4.060934398256747E-20
6986.6219739914  3.878625432413890E-20
6989.1749739647  3.885601672453813E-20
6991.727973938  3.840464805803118E-20
6994.28097391129  3.874197615669242E-20
6996.83397388459  3.931472425135904E-20
6999.38697385789  3.995983764870318E-20
7001.93997383119  4.045936721906279E-20
7004.49297380448  4.158505482979036E-20
7007.04597377778  4.254511655221659E-20
7009.59897375108  4.209416873152640E-20
7012.15197372437  4.175119092246854E-20
7014.70497369767  4.169656167694161E-20
7017.25797367097  4.057149092294297E-20
7019.81097364427  3.961711061956099E-20
7022.36397361756  3.982317517899089E-20
7024.91697359086  4.001025555665012E-20
7027.46997356416  4.016141991474050E-20
7030.02297353745  4.014548254164681E-20
7032.57597351075  4.026985112783442E-20
7035.12897348405  4.065564279291884E-20
7037.68197345734  4.081009032487640E-20
7040.23497343064  4.179951901426614E-20
7042.78797340394  4.293313639797610E-20
7045.34097337724  4.312552058593865E-20
7047.89397335053  4.313388561743881E-20
7050.44697332383  4.257114846514900E-20
7052.99997329713  4.125546626430589E-20
7055.55297327043  3.998654695153012E-20
7058.10597324372  3.962754817637479E-20
7060.65897321702  3.918203676112709E-20
7063.21197319032  3.901388579816119E-20
7065.76497316361  3.917136572599008E-20
7068.31797313691  3.889514674617605E-20
7070.87097311021  3.912522257713617E-20
7073.42397308351  3.921135472675505E-20
7075.9769730568  3.942803843677689E-20
7078.5299730301  3.942708432769590E-20
7081.0829730034  3.968005013550707E-20
7083.63597297669  3.954603956866997E-20
7086.18897294999  3.923496244881583E-20
7088.74197292329  3.892087022811633E-20
7091.29497289659  3.852546540739172E-20
7093.84797286988  3.886151367365370E-20
7096.40097284318  3.811537998597827E-20
7098.95397281648  3.787514044083218E-20
7101.50697278977  3.842889858885401E-20
7104.05997276307  3.886807137490182E-20
7106.61297273637  3.897213847426752E-20
7109.16597270966  3.949222607457806E-20
7111.71897268296  3.909067286942270E-20
7114.27197265626  3.945042397912330E-20
7116.82497262956  3.920166374746591E-20
7119.37797260285  3.953459026020435E-20
7121.93097257615  3.970878295543148E-20
7124.48397254945  3.973749559382073E-20
7127.03697252274  4.036416383813906E-20
7129.58997249604  4.022920492694795E-20
7132.14297246934  4.015187594990287E-20
7134.69597244264  3.952850240998478E-20
7137.24897241593  3.973918474341004E-20
7139.80197238923  3.981736694263876E-20
7142.35497236253  4.014302954132581E-20
7144.90797233583  3.998656713846611E-20
7147.46097230912  3.928474909154899E-20
7150.01397228242  3.825042249542848E-20
7152.56697225572  3.773303003829298E-20
7155.11997222901  3.767801453695429E-20
7157.67297220231  3.721862385718007E-20
7160.22597217561  3.738828813613171E-20
7162.77897214891  3.740978586302620E-20
7165.3319721222  3.738124905798307E-20
7167.8849720955  3.761780476153520E-20
7170.4379720688  3.731481306975603E-20
7172.99097204209  3.739198927452292E-20
7175.54397201539  3.791174826926857E-20
7178.09697198869  3.801888235458172E-20
7180.64997196198  3.753543428317030E-20
7183.20297193528  3.749207275190254E-20
7185.75597190858  3.731213234101693E-20
7188.30897188188  3.732072509040669E-20
7190.86197185517  3.751537781028372E-20
7193.41497182847  3.764965356818350E-20
7195.96797180177  3.792473107638709E-20
7198.52097177506  3.847162309623433E-20
7201.07397174836  3.840071922410542E-20
7203.62697172166  3.853831562844711E-20
7206.17997169496  3.858662642229777E-20
7208.73297166825  3.850062398591358E-20
7211.28597164155  3.804559453702669E-20
7213.83897161485  3.787106747161761E-20
7216.39197158814  3.821098117795770E-20
7218.94497156144  3.831669418802618E-20
7221.49797153474  3.838027649646515E-20
7224.05097150804  3.827735663479621E-20
7226.60397148133  3.798617168584898E-20
7229.15697145463  3.844080911448526E-20
7231.70997142793  4.218789919002489E-20
7234.26297140122  5.069155297437550E-20
7236.81597137452  5.658534296447480E-20
7239.36897134782  6.233976380960669E-20
7241.92197132112  6.391959017608495E-20
7244.47497129441  6.122785457594478E-20
7247.02797126771  5.585758525078886E-20
7249.58097124101  5.080879024346201E-20
7252.1339712143  4.457141135303194E-20
7254.6869711876  4.111108158094210E-20
7257.2399711609  4.046528214737038E-20
7259.79297113419  3.926029392527711E-20
7262.34597110749  3.818782024993633E-20
7264.89897108079  3.862124820251369E-20
7267.45197105409  4.184446306578418E-20
7270.00497102738  5.195912904499979E-20
7272.55797100068  6.035506071397924E-20
7275.11097097398  6.167494272687741E-20
7277.66397094728  6.388658549275247E-20
7280.21697092057  6.397829529085676E-20
7282.76997089387  5.510564908365743E-20
7285.32297086717  4.911693818458982E-20
7287.87597084047  4.827311349979857E-20
7290.42897081376  4.516727426433069E-20
7292.98197078706  4.226328536495601E-20
7295.53497076036  4.254105801596860E-20
7298.08797073365  4.511830914278781E-20
7300.64097070695  4.505995281748652E-20
7303.19397068025  4.387125939936502E-20
7305.74697065354  4.417177213695821E-20
7308.29997062684  4.649722775342819E-20
7310.85297060014  5.167192772362395E-20
7313.40597057344  5.323668435109913E-20
7315.95897054673  5.256073679158270E-20
7318.51197052003  5.138239733352544E-20
7321.06497049333  4.747840094867378E-20
7323.61797046662  4.355066424776982E-20
7326.17097043992  4.311894850395180E-20
7328.72397041322  4.354303713852221E-20
7331.27697038652  4.453700289241963E-20
7333.82997035981  4.896637915857438E-20
7336.38297033311  5.443324701277260E-20
7338.93597030641  5.555538914263930E-20
7341.4889702797  5.588280718746371E-20
7344.041970253  5.490494599284935E-20
7346.5949702263  4.837773116434378E-20
7349.1479701996  3.986579882213911E-20
7351.70097017289  4.140339359954471E-20
7354.25397014619  4.537066386538742E-20
7356.80697011949  4.598538988943018E-20
7359.35997009279  4.656345044242637E-20
7361.91297006608  5.019132297065308E-20
7364.46597003938  5.592074096401606E-20
7367.01897001268  5.558905104656720E-20
7369.57196998597  5.472248915757718E-20
7372.12496995927  5.347035755637241E-20
7374.67796993257  4.699938617641757E-20
7377.23096990586  3.883286159551502E-20
7379.78396987916  3.747183469815918E-20
7382.33696985246  3.700796460442802E-20
7384.88996982576  3.901185366308923E-20
7387.44296979905  4.121493827030664E-20
7389.99596977235  4.141657530131743E-20
7392.54896974565  4.214433589944182E-20
7395.10196971894  4.512941832970914E-20
7397.65496969224  4.653576109794343E-20
7400.20796966554  4.541192982024862E-20
7402.76096963883  4.476260796463638E-20
7405.31396961213  4.354542386099950E-20
7407.86696958543  3.949950154773864E-20
7410.41996955873  3.556725372473215E-20
7412.97296953202  3.554738461393541E-20
7415.52596950532  3.631541093259760E-20
7418.07896947862  3.597514556086742E-20
7420.63196945191  3.656860157621741E-20
7423.18496942521  3.776041098370731E-20
7425.73796939851  3.980584559557626E-20
7428.29096937181  4.031083174949935E-20
7430.8439693451  4.174763971935292E-20
7433.3969693184  4.522328136311325E-20
7435.9499692917  4.486907907690893E-20
7438.50296926499  4.395252877582720E-20
7441.05596923829  4.374559081752106E-20
7443.60896921159  4.166109537284185E-20
7446.16196918489  3.776458773628963E-20
7448.71496915818  3.722619334304773E-20
7451.26796913148  3.738087147554650E-20
7453.82096910478  3.722696297247185E-20
7456.37396907808  3.828837647483068E-20
7458.92696905137  3.837175871415748E-20
7461.47996902467  3.957854273828150E-20
7464.03296899797  4.023912654381011E-20
7466.58596897126  4.235526325291079E-20
7469.13896894456  4.289651997468935E-20
7471.69196891786  4.317870862436086E-20
7474.24496889115  4.426962745398126E-20
7476.79796886445  4.530780796139859E-20
7479.35096883775  4.455628687008455E-20
7481.90396881105  4.371682053330847E-20
7484.45696878434  4.271438597816075E-20
7487.00996875764  4.121283405061920E-20
7489.56296873094  3.940458352861973E-20
7492.11596870423  3.776395070647540E-20
7494.66896867753  3.801854224764111E-20
7497.22196865083  3.823850624919410E-20
7499.77496862413  3.800008556480174E-20
7502.32796859742  3.742833481683947E-20
7504.88096857072  3.753593586810748E-20
7507.43396854402  3.750749995070539E-20
7509.98696851731  3.821402513033145E-20
7512.53996849061  3.918422174352448E-20
7515.09296846391  4.165455209185974E-20
7517.64596843721  4.802786995020330E-20
7520.1989684105  5.191321076127354E-20
7522.7519683838  5.329587374653419E-20
7525.3049683571  5.366386594010340E-20
7527.85796833039  5.120915300749363E-20
7530.41096830369  4.434965446213912E-20
7532.96396827699  4.128482174936110E-20
7535.51696825029  3.972237977362231E-20
7538.06996822358  3.799071742486601E-20
7540.62296819688  3.724470191907384E-20
7543.17596817018  3.658801526142009E-20
7545.72896814347  3.615998335946389E-20
7548.28196811677  3.591628768980553E-20
7550.83496809007  3.728275675866985E-20
7553.38796806336  3.823228292437527E-20
7555.94096803666  3.854704100469590E-20
7558.49396800996  3.866459534777125E-20
7561.04696798326  3.936870210529109E-20
7563.59996795655  4.037220895316207E-20
7566.15296792985  4.426576778800598E-20
7568.70596790315  4.741108005751726E-20
7571.25896787644  4.795041414820965E-20
7573.81196784974  4.769545652927109E-20
7576.36496782304  4.564532055058721E-20
7578.91796779634  4.193696270010313E-20
7581.47096776963  4.160974931356625E-20
7584.02396774293  4.199628754806092E-20
7586.57696771623  4.195456616241925E-20
7589.12996768953  4.219013028426985E-20
7591.68296766282  4.945014433492537E-20
7594.23596763612  5.917539534682730E-20
7596.78896760942  7.362606459871143E-20
7599.34196758272  8.946826918815009E-20
7601.89496755601  1.036466684925794E-19
7604.44796752931  1.097224598907206E-19
7607.00096750261  1.024077099420550E-19
7609.5539674759  9.409670841212138E-20
7612.1069674492  7.991632017952968E-20
7614.6599674225  6.597881186759715E-20
7617.21296739579  5.731689410708723E-20
7619.76596736909  5.518395527274889E-20
7622.31896734239  5.961965864157514E-20
7624.87196731568  6.627792370885496E-20
7627.42496728898  7.176165998939212E-20
7629.97796726228  7.613122138516326E-20
7632.53096723558  7.677796339928605E-20
7635.08396720887  7.174350597036455E-20
7637.63696718217  6.698704314528452E-20
7640.18996715547  6.374536006658194E-20
7642.74296712876  6.144747273241495E-20
7645.29596710206  6.020163652265520E-20
7647.84896707536  5.858442982296700E-20
7650.40196704866  5.754630120082737E-20
7652.95496702195  5.677116662350226E-20
7655.50796699525  5.668732606627723E-20
7658.06096696855  5.667977966695163E-20
7660.61396694184  5.638985149021107E-20
7663.16696691514  6.001509805829615E-20
7665.71996688844  6.201436934434872E-20
7668.27296686174  6.109574363885204E-20
7670.82596683503  5.502199881971831E-20
7673.37896680833  5.325058960097769E-20
7675.93196678163  5.148858888045716E-20
7678.48496675493  5.050969574804930E-20
7681.03796672822  5.011805547908178E-20
7683.59096670152  5.000401202826165E-20
7686.14396667482  4.954052242499857E-20
7688.69696664811  4.900272759268063E-20
7691.24996662141  4.867507894775158E-20
7693.80296659471  4.927529732161037E-20
7696.355966568  5.182320742634073E-20
7698.9089665413  5.476436047345480E-20
7701.4619665146  5.531542059705387E-20
7704.0149664879  5.712008240095580E-20
7706.56796646119  6.602450535887902E-20
7709.12096643449  7.784826656150672E-20
7711.67396640779  7.451438942363513E-20
7714.22696638108  7.779138319704433E-20
7716.77996635438  7.634953660717496E-20
7719.33296632768  7.037230383961250E-20
7721.88596630098  6.385705716894584E-20
7724.43896627427  5.336708318743172E-20
7726.99196624757  5.000208651899428E-20
7729.54496622087  4.848388812091698E-20
7732.09796619416  4.547448022430178E-20
7734.65096616746  4.358896702156613E-20
7737.20396614076  4.299050121153491E-20
7739.75696611406  4.323089064780686E-20
7742.30996608735  4.955956426262112E-20
7744.86296606065  6.220349054610410E-20
7747.41596603395  6.680384263531458E-20
7749.96896600724  6.750920328317451E-20
7752.52196598054  6.816436797872399E-20
7755.07496595384  6.530943643905981E-20
7757.62796592714  5.553839394067884E-20
7760.18096590043  5.052452913025264E-20
7762.73396587373  4.978507420687829E-20
7765.28696584703  4.827567321574271E-20
7767.83996582032  4.789505564805597E-20
7770.39296579362  4.919802888448872E-20
7772.94596576692  5.205616577107329E-20
7775.49896574022  5.557479422324589E-20
7778.05196571351  5.463147697462434E-20
7780.60496568681  5.218660491476757E-20
7783.15796566011  5.111951864115366E-20
7785.7109656334  5.331866286515326E-20
7788.2639656067  6.165366990552402E-20
7790.81696558  6.623681920177391E-20
7793.36996555329  6.630691020800506E-20
7795.92296552659  6.457371148295047E-20
7798.47596549989  5.900613464362134E-20
7801.02896547318  5.016229618706256E-20
7803.58196544648  5.111396117245484E-20
7806.13496541978  5.177576139584985E-20
7808.68796539308  5.236862361558996E-20
7811.24096536638  5.221285877884667E-20
7813.79396533967  5.655923906618988E-20
7816.34696531297  6.306227544506998E-20
7818.89996528627  6.548488303254035E-20
7821.45296525956  6.552080481751774E-20
7824.00596523286  6.366053948099079E-20
7826.55896520616  5.687727743925499E-20
7829.11196517946  4.534373266211209E-20
7831.66496515275  4.212866087360972E-20
7834.21796512605  4.566670011877169E-20
7836.77096509935  4.984507645053010E-20
7839.32396507264  5.180230351069194E-20
7841.87696504594  5.306182585807367E-20
7844.42996501924  5.785800961281807E-20
7846.98296499254  6.687955454032424E-20
7849.53596496583  7.412002232451245E-20
7852.08896493913  7.695482821142213E-20
7854.64196491243  8.053274980422619E-20
7857.19496488572  7.691111789743293E-20
7859.74796485902  6.591387481456609E-20
7862.30096483232  6.221175758660546E-20
7864.85396480561  6.370333316403758E-20
7867.40696477891  6.116902272038026E-20
7869.95996475221  6.004994181080337E-20
7872.5129647255  6.116251402336317E-20
7875.0659646988  5.928416961156828E-20
7877.6189646721  5.601855596984297E-20
7880.1719646454  5.539087884805073E-20
7882.72496461869  5.875510300657805E-20
7885.27796459199  6.137778530727940E-20
7887.83096456529  6.020460553276436E-20
7890.38396453858  5.847646848716314E-20
7892.93696451188  5.724902842740970E-20
7895.48996448518  5.194201279721706E-20
7898.04296445848  4.534005170852552E-20
7900.59596443177  4.449603965967209E-20
7903.14896440507  4.640438230775388E-20
7905.70196437837  5.587967685356227E-20
7908.25496435167  7.199857316427980E-20
7910.80796432496  7.971766947242844E-20
7913.36096429826  8.254173514386478E-20
7915.91396427156  8.682625109724446E-20
7918.46696424486  8.017538253612794E-20
7921.01996421815  6.649020875486309E-20
7923.57296419145  6.412197675298064E-20
7926.12596416475  6.320426768376967E-20
7928.67896413804  5.767577185379638E-20
7931.23196411134  5.567848373113343E-20
7933.78496408464  5.434960829957310E-20
7936.33796405793  4.959953310391923E-20
7938.89096403123  4.542181398308320E-20
7941.44396400453  4.629078853084627E-20
7943.99696397782  4.934427570465783E-20
7946.54996395112  5.064711634626974E-20
7949.10296392442  5.034964176966933E-20
7951.65596389772  4.962971293886865E-20
7954.20896387101  4.818560646377695E-20
7956.76196384431  5.118755732023299E-20
7959.31496381761  6.223968907724540E-20
7961.8679637909  6.908033604263175E-20
7964.4209637642  7.066286620174286E-20
7966.9739637375  6.980336068535430E-20
7969.5269637108  6.498456079120656E-20
7972.07996368409  5.709817538842392E-20
7974.63296365739  5.884877291842002E-20
7977.18596363069  6.007165862010123E-20
7979.73896360398  6.007082269376442E-20
7982.29196357728  5.883533467819602E-20
7984.84496355058  5.855844695653324E-20
7987.39796352388  6.756097887956082E-20
7989.95096349718  7.179555830661511E-20
7992.50396347047  7.183029249931029E-20
7995.05696344377  7.063038036775616E-20
7997.60996341707  6.342630133276927E-20
8000.16296339036  5.072584910899301E-20
8002.71596336366  4.441582530262579E-20
8005.26896333696  4.467600313988056E-20
8007.82196331025  4.819430875293641E-20
8010.37496328355  5.142628067325322E-20
8012.92796325685  5.228389526662395E-20
8015.48096323014  5.441477599419174E-20
8018.03396320344  5.801991420574901E-20
8020.58696317674  6.418300517288923E-20
8023.13996315004  6.685859298187564E-20
8025.69296312333  6.801212559920334E-20
8028.24596309663  6.703213711404785E-20
8030.79896306993  6.157746801620582E-20
8033.35196304322  5.055621942310794E-20
8035.90496301652  4.702345516227579E-20
8038.45796298982  4.589030185997151E-20
8041.01096296312  4.580671496308347E-20
8043.56396293641  4.691205496938898E-20
8046.11696290971  5.009569303617262E-20
8048.66996288301  5.049599235271067E-20
8051.2229628563  5.026274576560330E-20
8053.7759628296  5.171386249502257E-20
8056.3289628029  5.486397990437850E-20
8058.88196277619  5.441920929207137E-20
8061.43496274949  5.374076548158823E-20
8063.98796272279  5.295949116667493E-20
8066.54096269609  4.991976795683445E-20
8069.09396266938  4.484931091115570E-20
8071.64696264268  4.280761778928725E-20
8074.19996261598  4.291385829802164E-20
8076.75296258928  4.414187774229775E-20
8079.30596256257  4.482354131199791E-20
8081.85896253587  4.488886465388858E-20
8084.41196250917  4.538841728541552E-20
8086.96496248246  4.679021722675183E-20
8089.51796245576  4.805720526414783E-20
8092.07096242906  4.794939090777138E-20
8094.62396240236  4.952354450590023E-20
8097.17696237565  5.200876011595985E-20
8099.72996234895  5.213746975581559E-20
8102.28296232225  5.100749297456039E-20
8104.83596229554  5.049924382408378E-20
8107.38896226884  4.778225458742470E-20
8109.94196224214  4.456140049103235E-20
8112.49496221543  4.323787210684191E-20
8115.04796218873  4.280174901120410E-20
8117.60096216203  4.246415572165474E-20
8120.15396213532  4.196243832879274E-20
8122.70696210862  4.207467156665156E-20
8125.25996208192  4.224779773511016E-20
8127.81296205522  4.262021745759151E-20
8130.36596202852  4.325378642156495E-20
8132.91896200181  4.419040761080342E-20
8135.47196197511  4.510630358485415E-20
8138.02496194841  4.603639878145192E-20
8140.5779619217  4.734449711368715E-20
8143.130961895  4.826907231209682E-20
8145.6839618683  4.819048367988979E-20
8148.23696184159  4.729215946031046E-20
8150.78996181489  4.751578712674572E-20
8153.34296178819  4.567532748488162E-20
8155.89596176149  4.537899726284973E-20
8158.44896173478  4.533288870362261E-20
8161.00196170808  4.494933674491830E-20
8163.55496168138  4.448266773750330E-20
8166.10796165467  4.404494773373127E-20
8168.66096162797  4.343765857357096E-20
8171.21396160127  4.347213910563852E-20
8173.76696157457  4.252600564826892E-20
8176.31996154786  4.215012115441235E-20
8178.87296152116  4.218729394669593E-20
8181.42596149446  4.212124709627993E-20
8183.97896146775  4.248880403186153E-20
8186.53196144105  4.300752820814390E-20
8189.08496141435  4.367468412732347E-20
8191.63796138765  4.412447318241091E-20
8194.19096136094  4.440492944656890E-20
8196.74396133424  4.449504521904922E-20
8199.29696130754  4.498807762301958E-20
8201.84996128083  4.532958535559899E-20
8204.40296125413  4.528565885309696E-20
8206.95596122743  4.608166853722956E-20
8209.50896120072  4.636285695782239E-20
8212.06196117402  4.602739095735291E-20
8214.61496114732  4.559160799730483E-20
8217.16796112062  4.540342073749227E-20
8219.72096109391  4.505210383876902E-20
8222.27396106721  4.444455525305047E-20
8224.82696104051  4.390047944043983E-20
8227.37996101381  4.319509861495249E-20
8229.9329609871  4.267964031783884E-20
8232.4859609604  4.209360963633580E-20
8235.0389609337  4.218412319458090E-20
8237.59196090699  4.268154853709134E-20
8240.14496088029  4.311002146336237E-20
8242.69796085359  4.384733180367478E-20
8245.25096082689  4.379060409383042E-20
8247.80396080018  4.428226730767908E-20
8250.35696077348  4.452651930163625E-20
8252.90996074678  4.491389058069984E-20
8255.46296072007  4.499017897386651E-20
8258.01596069337  4.510990960879771E-20
8260.56896066667  4.527259822455469E-20
8263.12196063996  4.570886832847584E-20
8265.67496061326  4.602588917609352E-20
8268.22796058656  4.653444675523703E-20
8270.78096055986  4.969162918692618E-20
8273.33396053315  5.749810000939323E-20
8275.88696050645  6.589389333504103E-20
8278.43996047975  7.065248345562508E-20
8280.99296045304  7.642634393058776E-20
8283.54596042634  8.003727021510663E-20
8286.09896039964  7.681067416672976E-20
8288.65196037294  7.323016984683849E-20
8291.20496034623  7.557075285725892E-20
8293.75796031953  7.784494599891975E-20
8296.31096029283  7.472595964921322E-20
8298.86396026612  7.349151510001625E-20
8301.41696023942  7.169424403906470E-20
8303.96996021272  6.577531858809244E-20
8306.52296018602  5.820907001665785E-20
8309.07596015931  5.619408907331282E-20
8311.62896013261  5.517206212605199E-20
8314.18196010591  5.496035938562751E-20
8316.73496007921  5.085650735029822E-20
8319.2879600525  4.729165215297054E-20
8321.8409600258  4.695861322214368E-20
8324.3939599991  4.553743131304527E-20
8326.94695997239  4.540915693190900E-20
8329.49995994569  4.501410954078573E-20
8332.05295991899  4.581008751751271E-20
8334.60595989228  5.233169876836647E-20
8337.15895986558  7.128003951977568E-20
8339.71195983888  8.948634262192623E-20
8342.26495981218  9.409688725591831E-20
8344.81795978547  9.625016505328554E-20
8347.37095975877  9.725609609001566E-20
8349.92395973207  8.756576373780751E-20
8352.47695970536  7.079639543835446E-20
8355.02995967866  6.550670942750427E-20
8357.58295965196  6.326796533996059E-20
8360.13595962526  5.777386356249990E-20
8362.68895959855  5.565284100326778E-20
8365.24195957185  5.621005239440624E-20
8367.79495954515  5.485347031805747E-20
8370.34795951844  5.128240908590862E-20
8372.90095949174  4.896914069868267E-20
8375.45395946504  5.593933900017815E-20
8378.00695943833  6.211981724477112E-20
8380.55995941163  6.265487369797045E-20
8383.11295938493  6.149630822574283E-20
8385.66595935823  5.851489810238974E-20
8388.21895933152  5.280964126004160E-20
8390.77195930482  5.653005663747857E-20
8393.32495927812  7.362426025876956E-20
8395.87795925142  8.134235346143610E-20
8398.43095922471  8.121503895478770E-20
8400.98395919801  7.987407429376208E-20
8403.53695917131  7.353675892021898E-20
8406.0899591446  5.843318483577331E-20
8408.6429591179  5.370791071433107E-20
8411.1959590912  6.102626957164667E-20
8413.7489590645  6.305939300601690E-20
8416.30195903779  6.424902035907368E-20
8418.85495901109  6.341519220175482E-20
8421.40795898439  6.386257436490707E-20
8423.96095895768  7.816415468450632E-20
8426.51395893098  9.167203132447209E-20
8429.06695890428  9.210527768031964E-20
8431.61995887757  9.046657901667686E-20
8434.17295885087  8.143404596923710E-20
8436.72595882417  6.006878192660316E-20
8439.27895879746  4.706040603343931E-20
8441.83195877076  4.641936273251779E-20
8444.38495874406  5.057489809436468E-20
8446.93795871736  5.739883229789951E-20
8449.49095869066  5.969953296146329E-20
8452.04395866395  5.892728665354823E-20
8454.59695863725  5.882736171492854E-20
8457.14995861055  6.143404034712251E-20
8459.70295858384  7.036317791994108E-20
8462.25595855714  7.760221598902146E-20
8464.80895853044  7.880439953658108E-20
8467.36195850373  7.894668001291982E-20
8469.91495847703  7.298179012621935E-20
8472.46795845033  5.562804569980739E-20
8475.02095842363  4.675272162414016E-20
8477.57395839692  4.588074927016947E-20
8480.12695837022  4.536028117812300E-20
8482.67995834352  4.506035935394106E-20
8485.23295831681  4.682831533403230E-20
8487.78595829011  5.292554681814296E-20
8490.33895826341  5.456856347588984E-20
8492.89195823671  5.459983289676845E-20
8495.44495821  5.593287066815654E-20
8497.9979581833  6.012304798258984E-20
8500.5509581566  6.283958466809211E-20
8503.10395812989  6.223686427901674E-20
8505.65695810319  6.201451932789375E-20
8508.20995807649  5.986623403029026E-20
8510.76295804979  5.310519033353094E-20
8513.31595802308  4.442669815170011E-20
8515.86895799638  4.346264992153098E-20
8518.42195796968  4.366109601920443E-20
8520.97495794297  4.423218667484685E-20
8523.52795791627  4.459007280435471E-20
8526.08095788957  4.492638049700071E-20
8528.63395786286  4.476439233039975E-20
8531.18695783616  4.603718861744440E-20
8533.73995780946  4.938374878534732E-20
8536.29295778276  4.947097340476467E-20
8538.84595775605  4.965576507347496E-20
8541.39895772935  5.172677039668726E-20
8543.95195770265  5.358969917121880E-20
8546.50495767595  5.248322633971493E-20
8549.05795764924  5.173471458269769E-20
8551.61095762254  5.068530959689779E-20
8554.16395759584  4.741526842272280E-20
8556.71695756913  4.325732040334686E-20
8559.26995754243  4.189928266120564E-20
8561.82295751573  4.229175885783327E-20
8564.37595748903  4.234183086264310E-20
8566.92895746232  4.346424971548723E-20
8569.48195743562  4.443525631457379E-20
8572.03495740892  4.515458846787482E-20
8574.58795738221  4.533839431966352E-20
8577.14095735551  4.534739061979077E-20
8579.69395732881  4.539400938291256E-20
8582.2469573021  4.612769064906759E-20
8584.7999572754  4.669695091371913E-20
8587.3529572487  4.723949323403670E-20
8589.905957222  4.775683092545613E-20
8592.45895719529  4.824766974296604E-20
8595.01195716859  4.723620141318697E-20
8597.56495714189  4.646377062468423E-20
8600.11795711519  4.570867522480989E-20
8602.67095708848  4.466308667630850E-20
8605.22395706178  4.403590534460354E-20
8607.77695703508  4.578699290228155E-20
8610.32995700838  4.923058973883570E-20
8612.88295698167  5.372253079945204E-20
8615.43595695497  5.940390896789658E-20
8617.98895692827  6.591532768186536E-20
8620.54195690156  7.245211821011049E-20
8623.09495687486  7.705817766729917E-20
8625.64795684816  8.025677882369278E-20
8628.20095682145  8.174358673878664E-20
8630.75395679475  8.051144819341898E-20
8633.30695676805  7.729722962227701E-20
8635.85995674135  7.195995920681506E-20
8638.41295671464  6.529844266191188E-20
8640.96595668794  6.082083341934689E-20
8643.51895666124  5.982979340667617E-20
8646.07195663453  6.217376624487592E-20
8648.62495660783  6.593804182889151E-20
8651.17795658113  7.105028079837900E-20
8653.73095655442  7.449914685546687E-20
8656.28395652772  7.638969003396514E-20
8658.83695650102  7.790013449496999E-20
8661.38995647432  7.751227607269346E-20
8663.94295644762  7.688824820217137E-20
8666.49595642091  7.542998862297178E-20
8669.04895639421  7.388182945932729E-20
8671.60195636751  7.109248068236261E-20
8674.1549563408  6.723667978111180E-20
8676.7079563141  6.380429012639002E-20
8679.2609562874  6.073137197913750E-20
8681.81395626069  5.798130598830439E-20
8684.36695623399  5.466365158613567E-20
8686.91995620729  5.237193280961141E-20
8689.47295618059  5.015698092202459E-20
8692.02595615388  4.872385102643152E-20
8694.57895612718  4.763870008853075E-20
8697.13195610048  4.762227557183540E-20
8699.68495607377  4.679665102499783E-20
8702.23795604707  4.737168206593969E-20
8704.79095602037  4.765572128475368E-20
8707.34395599366  4.697111467653431E-20
8709.89695596696  4.662526300812231E-20
8712.44995594026  4.625633976494007E-20
8715.00295591356  4.568125107421458E-20
8717.55595588685  4.529015271549755E-20
8720.10895586015  4.603726357534990E-20
8722.66195583345  4.637683714692384E-20
8725.21495580675  4.621040415664520E-20
8727.76795578004  4.639173681867079E-20
8730.32095575334  4.597841722433028E-20
8732.87395572664  4.562974358292629E-20
8735.42695569993  4.558577384277140E-20
8737.97995567323  4.585359608512265E-20
8740.53295564653  4.595664566024733E-20
8743.08595561982  4.580934385958459E-20
8745.63895559312  4.559154173711983E-20
8748.19195556642  4.628207477721590E-20
8750.74495553972  4.915609427423150E-20
8753.29795551301  5.963099277031037E-20
8755.85095548631  7.429383752293384E-20
8758.40395545961  8.558634720070797E-20
8760.95695543291  9.693244842255431E-20
8763.5099554062  1.090014186321750E-19
8766.0629553795  1.065182092440031E-19
8768.6159553528  1.007463492243163E-19
8771.16895532609  1.024764290818331E-19
8773.72195529939  1.035596285641114E-19
8776.27495527269  9.595205062219365E-20
8778.82795524598  9.296653580921843E-20
8781.38095521928  8.793944605458975E-20
8783.93395519258  7.578872798665347E-20
8786.48695516588  6.595648411259609E-20
8789.03995513917  6.411261446482098E-20
8791.59295511247  6.348030227305073E-20
8794.14595508577  6.205825849380481E-20
8796.69895505906  5.730865025741129E-20
8799.25195503236  5.032402789393215E-20
8801.80495500566  4.741236287400433E-20
8804.35795497896  4.863323658828918E-20
8806.91095495225  4.981415877505600E-20
8809.46395492555  5.018256605013183E-20
8812.01695489885  5.037834006521164E-20
8814.56995487214  5.062436191779986E-20
8817.12295484544  5.626896508148631E-20
8819.67595481874  8.014006619430046E-20
8822.22895479204  1.120089903873351E-19
8824.78195476533  1.235631912190952E-19
8827.33495473863  1.274021813492476E-19
8829.88795471193  1.292048081077712E-19
8832.44095468522  1.206221131130845E-19
8834.99395465852  9.773739388451318E-20
8837.54695463182  8.615734850813089E-20
8840.09995460512  8.052553790456915E-20
8842.65295457841  7.195192280221212E-20
8845.20595455171  6.371694445694227E-20
8847.75895452501  6.329703833730643E-20
8850.3119544983  6.318980912943987E-20
8852.8649544716  6.231924055525390E-20
8855.4179544449  5.920174157571357E-20
8857.9709544182  5.576294122763940E-20
8860.52395439149  6.103881427612215E-20
8863.07695436479  7.309865270953884E-20
8865.62995433809  7.716631200846540E-20
8868.18295431138  7.700046993189875E-20
8870.73595428468  7.482189526442050E-20
8873.28895425798  6.674204760489232E-20
8875.84195423128  5.846664500081298E-20
8878.39495420457  7.125116840080048E-20
8880.94795417787  9.624552429545254E-20
8883.50095415117  1.076160172815643E-19
8886.05395412446  1.086447028182220E-19
8888.60695409776  1.076024349159432E-19
8891.15995407106  9.538310168312952E-20
8893.71295404436  7.320076259070862E-20
8896.26595401765  6.518795624602655E-20
8898.81895399095  7.635139309044276E-20
8901.37195396425  8.147145518190935E-20
8903.92495393754  8.189780658458367E-20
8906.47795391084  8.060586757766275E-20
8909.03095388414  7.504779723165660E-20
8911.58395385743  7.445662992465949E-20
8914.13695383073  9.750176635765839E-20
8916.68995380403  1.151723442806112E-19
8919.24295377733  1.185777479197509E-19
8921.79595375062  1.189907879117263E-19
8924.34895372392  1.084598650350582E-19
8926.90195369722  8.266605197799849E-20
8929.45495367052  6.142384208396527E-20
8932.00795364381  5.657678209756823E-20
8934.56095361711  5.852792707431840E-20
8937.11395359041  6.708401077921466E-20
8939.6669535637  7.681480775392568E-20
8942.219953537  7.950310165134494E-20
8944.7729535103  7.944652383181150E-20
8947.32595348359  7.792383448699089E-20
8949.87895345689  7.681481351996865E-20
8952.43195343019  8.881485149381180E-20
8954.98495340349  1.049003857115094E-19
8957.53795337678  1.084025377685430E-19
8960.09095335008  1.094572811558663E-19
8962.64395332338  1.021896659218058E-19
8965.19695329667  8.213821332277031E-20
8967.74995326997  6.241316989207278E-20
8970.30295324327  5.717539780216501E-20
8972.85595321656  5.732381801539974E-20
8975.40895318986  5.805579572116830E-20
8977.96195316316  5.782524715892572E-20
8980.51495313646  6.106886152414934E-20
8983.06795310976  6.822869410979213E-20
8985.62095308305  7.430716048681786E-20
8988.17395305635  7.535214947513251E-20
8990.72695302965  7.577635052865390E-20
8993.27995300294  7.664920204790193E-20
8995.83295297624  8.184717826620994E-20
8998.38595294954  8.889755634963638E-20
9000.93895292283  9.300156404487459E-20
9003.49195289613  9.316559014351875E-20
9006.04495286943  8.811760222179627E-20
9008.59795284273  7.210738787474481E-20
9011.15095281602  5.945121668206666E-20
9013.70395278932  5.687408949560198E-20
9016.25695276262  5.591537966513194E-20
9018.80995273591  5.640345704257359E-20
9021.36295270921  5.665361240825948E-20
9023.91595268251  5.724950125994711E-20
9026.4689526558  5.905119985188036E-20
9029.0219526291  5.919862271819280E-20
9031.5749526024  6.089388190856508E-20
9034.1279525757  6.561243403160071E-20
9036.68095254899  6.762290673877674E-20
9039.23395252229  6.893234255537816E-20
9041.78695249559  7.112158249453361E-20
9044.33995246889  7.568997913623722E-20
9046.89295244218  7.924306506742349E-20
9049.44595241548  8.005258793883051E-20
9051.99895238878  7.999229745207598E-20
9054.55195236207  7.654875249896163E-20
9057.10495233537  6.812311946636756E-20
9059.65795230867  6.204815821601431E-20
9062.21095228196  6.138073710584995E-20
9064.76395225526  6.062496719920905E-20
9067.31695222856  6.043752362560338E-20
9069.86995220186  6.022904929117851E-20
9072.42295217515  5.964407937102556E-20
9074.97595214845  5.863678779119862E-20
9077.52895212175  5.883897826381247E-20
9080.08195209505  4.538594704587247E-20
9082.63495206834  0.
9085.18795204164  0.
9087.74095201494  0.
9090.29395198823  0.
9092.84695196153  0.
9095.39995193483  0.
9097.95295190812  0.
9100.50595188142  0.
9103.05895185472  0.
9105.61195182802  0.
9108.16495180131  0.
9110.71795177461  0.
9113.27095174791  0.
9115.8239517212  0.
9118.3769516945  0.
9120.9299516678  0.
9123.4829516411  0.
9126.03595161439  0.
9128.58895158769  0.
9131.14195156099  0.
9133.69495153428  0.
9136.24795150758  0.
9138.80095148088  0.
9141.35395145417  0.
9143.90695142747  0.
9146.45995140077  0.
9149.01295137407  0.
9151.56595134736  0.
9154.11895132066  0.
9156.67195129396  0.
9159.22495126726  0.
9161.77795124055  0.
9164.33095121385  0.
9166.88395118715  0.
9169.43695116044  0.
9171.98995113374  0.
9174.54295110704  0.
9177.09595108034  0.
9179.64895105363  0.
9182.20195102693  0.
9184.75495100023  0.
9187.30795097352  0.
9189.86095094682  0.
9192.41395092012  0.
9194.96695089341  0.
9197.51995086671  0.
9200.07295084001  0.
9202.62595081331  0.
9205.1789507866  0.
9207.7319507599  0.
9210.2849507332  0.
9212.8379507065  0.
9215.39095067979  0.
9217.94395065309  0.
9220.49695062639  0.
9223.04995059968  0.
9225.60295057298  0.
9228.15595054628  0.
9230.70895051957  0.
9233.26195049287  0.
9235.81495046617  0.
9238.36795043947  0.
9240.92095041276  0.
9243.47395038606  0.
9246.02695035936  0.
9248.57995033266  0.
9251.13295030595  0.
9253.68595027925  0.
9256.23895025255  0.
9258.79195022585  0.
9261.34495019914  0.
9263.89795017244  0.
9266.45095014574  0.
9269.00395011903  0.
9271.55695009233  0.
9274.10995006563  0.
9276.66295003892  0.
9279.21595001222  0.
9281.76894998552  0.
9284.32194995882  0.
9286.87494993211  0.
9289.42794990541  0.
9291.98094987871  0.
9294.533949852  0.
9297.0869498253  0.
9299.6399497986  0.
9302.1929497719  0.
9304.74594974519  0.
9307.29894971849  0.
9309.85194969179  0.
9312.40494966508  0.
9314.95794963838  0.
9317.51094961168  0.
9320.06394958498  0.
9322.61694955827  0.
9325.16994953157  0.
9327.72294950487  0.
9330.27594947816  0.
9332.82894945146  0.
9335.38194942476  0.
9337.93494939806  0.
9340.48794937135  0.
9343.04094934465  0.
9345.59394931795  0.
9348.14694929124  0.
9350.69994926454  0.
9353.25294923784  0.
9355.80594921114  0.
9358.35894918443  0.
9360.91194915773  0.
9363.46494913103  0.
9366.01794910432  0.
9368.57094907762  0.
9371.12394905092  0.
9373.67694902422  0.
9376.22994899751  0.
9378.78294897081  0.
9381.33594894411  0.
9383.8889489174  0.
9386.4419488907  0.
9388.994948864  0.
9391.54794883729  0.
9394.10094881059  0.
9396.65394878389  0.
9399.20694875719  0.
9401.75994873048  0.
9404.31294870378  0.
9406.86594867708  0.
9409.41894865038  0.
9411.97194862367  0.
9414.52494859697  0.
9417.07794857027  0.
9419.63094854356  0.
9422.18394851686  0.
9424.73694849016  0.
9427.28994846346  0.
9429.84294843675  0.
9432.39594841005  0.
9434.94894838335  0.
9437.50194835664  0.
9440.05494832994  0.
9442.60794830324  0.
9445.16094827653  0.
9447.71394824983  0.
9450.26694822313  0.
9452.81994819643  0.
9455.37294816972  0.
9457.92594814302  0.
9460.47894811632  0.
9463.03194808961  0.
9465.58494806291  0.
9468.13794803621  0.
9470.69094800951  0.
9473.2439479828  0.
9475.7969479561  0.
9478.3499479294  0.
9480.90294790269  0.
9483.45594787599  0.
9486.00894784929  0.
9488.56194782259  0.
9491.11494779588  0.
9493.66794776918  0.
9496.22094774248  0.
9498.77394771577  0.
9501.32694768907  0.
9503.87994766237  0.
9506.43294763566  0.
9508.98594760896  0.
9511.53894758226  0.
9514.09194755556  0.
9516.64494752886  0.
9519.19794750215  0.
9521.75094747545  0.
9524.30394744875  0.
9526.85694742204  0.
9529.40994739534  0.
9531.96294736864  0.
9534.51594734193  0.
9537.06894731523  0.
9539.62194728853  0.
9542.17494726182  0.
9544.72794723512  0.
9547.28094720842  0.
9549.83394718172  0.
9552.38694715501  0.
9554.93994712831  0.
9557.49294710161  0.
9560.0459470749  0.
9562.5989470482  0.
9565.1519470215  0.
9567.7049469948  0.
9570.25794696809  0.
9572.81094694139  0.
9575.36394691469  0.
9577.91694688799  0.
9580.46994686128  0.
9583.02294683458  0.
9585.57594680788  0.
9588.12894678117  0.
9590.68194675447  0.
9593.23494672777  0.
9595.78794670106  0.
9598.34094667436  0.
9600.89394664766  0.
9603.44694662096  0.
9605.99994659425  0.
9608.55294656755  0.
9611.10594654085  0.
9613.65894651414  0.
9616.21194648744  0.
9618.76494646074  0.
9621.31794643404  0.
9623.87094640733  0.
9626.42394638063  0.
9628.97694635393  0.
9631.52994632722  0.
9634.08294630052  0.
9636.63594627382  0.
9639.18894624712  0.
9641.74194622041  0.
9644.29494619371  0.
9646.84794616701  0.
9649.4009461403  0.
9651.9539461136  0.
9654.5069460869  0.
9657.0599460602  0.
9659.61294603349  0.
9662.16594600679  0.
9664.71894598009  0.
9667.27194595338  0.
9669.82494592668  0.
9672.37794589998  0.
9674.93094587327  0.
9677.48394584657  0.
9680.03694581987  0.
9682.58994579317  0.
9685.14294576646  0.
9687.69594573976  0.
9690.24894571306  0.
9692.80194568636  0.
9695.35494565965  0.
9697.90794563295  0.
9700.46094560625  0.
9703.01394557954  0.
9705.56694555284  0.
9708.11994552614  0.
9710.67294549943  0.
9713.22594547273  0.
9715.77894544603  0.
9718.33194541933  0.
9720.88494539262  0.
9723.43794536592  0.
9725.99094533922  0.
9728.54394531251  0.
9731.09694528581  0.
9733.64994525911  0.
9736.20294523241  0.
9738.7559452057  0.
9741.308945179  0.
9743.8619451523  0.
9746.4149451256  0.
9748.96794509889  0.
9751.52094507219  0.
9754.07394504549  0.
9756.62694501878  0.
9759.17994499208  0.
9761.73294496538  0.
9764.28594493867  0.
9766.83894491197  0.
9769.39194488527  0.
9771.94494485857  0.
9774.49794483186  0.
9777.05094480516  0.
9779.60394477846  0.
9782.15694475175  0.
9784.70994472505  0.
9787.26294469835  0.
9789.81594467165  0.
9792.36894464494  0.
9794.92194461824  0.
9797.47494459154  0.
9800.02794456483  0.
9802.58094453813  0.
9805.13394451143  0.
9807.68694448473  0.
9810.23994445802  0.
9812.79294443132  0.
9815.34594440462  0.
9817.89894437791  0.
9820.45194435121  0.
9823.00494432451  0.
9825.5579442978  0.
9828.1109442711  0.
9830.6639442444  0.
9833.2169442177  0.
9835.769944191  0.
9838.32294416429  0.
9840.87594413759  0.
9843.42894411089  0.
9845.98194408418  0.
9848.53494405748  0.
9851.08794403078  0.
9853.64094400407  0.
9856.19394397737  0.
9858.74694395067  0.
9861.29994392396  0.
9863.85294389726  0.
9866.40594387056  0.
9868.95894384386  0.
9871.51194381715  0.
9874.06494379045  0.
9876.61794376375  0.
9879.17094373704  0.
9881.72394371034  0.
9884.27694368364  0.
9886.82994365694  0.
9889.38294363023  0.
9891.93594360353  0.
9894.48894357683  0.
9897.04194355013  0.
9899.59494352342  0.
9902.14794349672  0.
9904.70094347002  0.
9907.25394344331  0.
9909.80694341661  0.
9912.35994338991  0.
9914.9129433632  0.
9917.4659433365  0.
9920.0189433098  0.
9922.5719432831  0.
9925.12494325639  0.
9927.67794322969  0.
9930.23094320299  0.
9932.78394317628  0.
9935.33694314958  0.
9937.88994312288  0.
9940.44294309618  0.
9942.99594306947  0.
9945.54894304277  0.
9948.10194301607  0.
9950.65494298936  0.
9953.20794296266  0.
9955.76094293596  0.
9958.31394290926  0.
9960.86694288255  0.
9963.41994285585  0.
9965.97294282915  0.
9968.52594280244  0.
9971.07894277574  0.
9973.63194274904  0.
9976.18494272234  0.
9978.73794269563  0.
9981.29094266893  0.
9983.84394264223  0.
9986.39694261552  0.
9988.94994258882  0.
9991.50294256212  0.
9994.05594253541  0.
9996.60894250871  0.
9999.16194248201  0.
10001.7149424553  0.
10004.2679424286  0.
10006.8209424019  0.
10009.3739423752  0.
10011.9269423485  0.
10014.4799423218  0.
10017.0329422951  0.
10019.5859422684  0.
10022.1389422417  0.
10024.691942215  0.
10027.2449421883  0.
10029.7979421616  0.
10032.3509421349  0.
10034.9039421082  0.
10037.4569420815  0.
10040.0099420548  0.
10042.5629420281  0.
10045.1159420014  0.
10047.6689419747  0.
10050.221941948  0.
10052.7749419212  0.
10055.3279418945  0.
10057.8809418678  0.
10060.4339418411  0.
10062.9869418144  0.
10065.5399417877  0.
10068.092941761  0.
10070.6459417343  0.
10073.1989417076  0.
10075.7519416809  0.
10078.3049416542  0.
10080.8579416275  0.
10083.4109416008  0.
10085.9639415741  0.
10088.5169415474  0.
10091.0699415207  0.
10093.622941494  0.
10096.1759414673  0.
10098.7289414406  0.
10101.2819414139  0.
10103.8349413872  0.
10106.3879413605  0.
10108.9409413338  0.
10111.4939413071  0.
10114.0469412804  0.
10116.5999412537  0.
10119.152941227  0.
10121.7059412003  0.
10124.2589411736  0.
10126.8119411469  0.
10129.3649411202  0.
10131.9179410935  0.
10134.4709410668  0.
10137.0239410401  0.
10139.5769410133  0.
10142.1299409866  0.
10144.6829409599  0.
10147.2359409332  0.
10149.7889409065  0.
10152.3419408798  0.
10154.8949408531  0.
10157.4479408264  0.
10160.0009407997  0.
10162.553940773  0.
10165.1069407463  0.
10167.6599407196  0.
10170.2129406929  0.
10172.7659406662  0.
10175.3189406395  0.
10177.8719406128  0.
10180.4249405861  0.
10182.9779405594  0.
10185.5309405327  0.
10188.083940506  0.
10190.6369404793  0.
10193.1899404526  0.
10195.7429404259  0.
10198.2959403992  0.
10200.8489403725  0.
10203.4019403458  0.
10205.9549403191  0.
10208.5079402924  0.
10211.0609402657  0.
10213.613940239  0.
10216.1669402123  0.
10218.7199401856  0.
10221.2729401589  0.
10223.8259401322  0.
10226.3789401055  0.
10228.9319400787  0.
10231.484940052  0.
10234.0379400253  0.
10236.5909399986  0.
10239.1439399719  0.
10241.6969399452  0.
10244.2499399185  0.
10246.8029398918  0.
10249.3559398651  0.
10251.9089398384  0.
10254.4619398117  0.
10257.014939785  0.
10259.5679397583  0.
10262.1209397316  0.
10264.6739397049  0.
10267.2269396782  0.
10269.7799396515  0.
10272.3329396248  0.
10274.8859395981  0.
10277.4389395714  0.
10279.9919395447  0.
10282.544939518  0.
10285.0979394913  0.
10287.6509394646  0.
10290.2039394379  0.
10292.7569394112  0.
10295.3099393845  0.
10297.8629393578  0.
