4801.25399684906  1.362468263697724E-19
4803.80699682236  9.273207183070073E-20
4806.35999679566  -1.934551491142988E-19
4808.91299676896  9.282736872586887E-20
4811.46599674225  1.121404105127026E-18
4814.01899671555  3.158377042294747E-19
4816.57199668885  3.159995425796287E-19
4819.12499666215  1.294504590873055E-19
4821.67799663544  1.076459429413062E-19
4824.23099660874  1.077009833696539E-19
4826.78399658204  1.150537178686545E-19
4829.33699655533  6.420099653265022E-19
4831.88999652863  -3.858807247153474E-19
4834.44299650193  2.050641280593088E-19
4836.99599647523  3.337908841527407E-19
4839.54899644852  1.088196855765362E-18
4842.10199642182  1.355914190107121E-19
4844.65499639512  3.880469298591017E-19
4847.20799636841  -4.732675107828349E-19
4849.76099634171  -6.779222333130619E-19
4852.31399631501  -2.441649794671987E-19
4854.8669962883  5.917150803298816E-20
4857.4199962616  6.833676306830424E-19
4859.9729962349  1.876536630194523E-19
4862.5259962082  -2.761019023094084E-19
4865.07899618149  -6.120103380485063E-19
4867.63199615479  -1.395120465353953E-19
4870.18499612809  1.432516369431630E-19
4872.73799610138  6.227837064444125E-20
4875.29099607468  5.281844934258349E-20
4877.84399604798  -3.496282070975059E-20
4880.39699602128  8.390160270475258E-19
4882.94999599457  -1.382490211881117E-19
4885.50299596787  6.716004632758425E-19
4888.05599594117  8.163292840310678E-20
4890.60899591446  7.217492458798701E-20
4893.16199588776  1.022393525685227E-19
4895.71499586106  -6.846215931734302E-19
4898.26799583436  1.294647155972771E-19
4900.82099580765  5.906739181497838E-19
4903.37399578095  -3.249538167492758E-21
4905.92699575425  8.770306134955612E-19
4908.47999572755  1.205076718052241E-19
4911.03299570084  4.388053226979991E-19
4913.58599567414  -1.315085490274733E-19
4916.13899564744  -1.158617285308872E-20
4918.69199562073  -4.763405677260510E-19
4921.24499559403  9.491398284355758E-20
4923.79799556733  9.496118303780969E-20
4926.35099554062  -5.669578563050249E-19
4928.90399551392  -2.500088516746796E-19
4931.45699548722  -4.190115226420985E-19
4934.00999546052  4.938053259236999E-19
4936.56299543381  -5.711575689988910E-20
4939.11599540711  -2.035322480138421E-19
4941.66899538041  2.171179156428153E-19
4944.2219953537  2.435755875541174E-19
4946.774995327  -5.883897456137331E-19
4949.3279953003  -8.926370751874310E-20
4951.8809952736  -7.070150518557487E-19
4954.43399524689  6.054646038575180E-19
4956.98699522019  -1.077665928525836E-19
4959.53999519349  -5.080713764395876E-19
4962.09299516678  -1.212436414722247E-21
4964.64599514008  -1.551758469597366E-19
4967.19899511338  -9.594304161604151E-20
4969.75199508668  9.577281856153032E-20
4972.30499505997  -5.583538238348257E-19
4974.85799503327  -2.733249743732309E-19
4977.41099500657  2.413211880399663E-20
4979.96399497986  3.201124792244780E-19
4982.51699495316  1.259748909637525E-20
4985.06999492646  2.570627083925387E-19
4987.62299489975  -6.056539293478341E-19
4990.17599487305  1.055764037028852E-19
4992.72899484635  1.975976822944138E-19
4995.28199481965  -4.605559664798233E-19
4997.83499479294  -7.004674497660891E-20
5000.38799476624  -6.005360734579618E-19
5002.94099473954  6.659154593194458E-21
5005.49399471283  4.845830993908306E-19
5008.04699468613  2.322229196268487E-19
5010.59999465943  -1.303299666763797E-19
5013.15299463273  -4.203117128251492E-19
5015.70599460602  2.001711917308344E-19
5018.25899457932  3.081323419291750E-19
5020.81199455262  2.469157163289781E-19
5023.36499452592  1.000878775371803E-19
5025.91799449921  -2.890691213578803E-19
5028.47099447251  2.725566359619214E-19
5031.02399444581  2.994782612233683E-19
5033.5769944191  -1.728609506489207E-19
5036.1299943924  -5.445740262093240E-21
5038.6829943657  2.580533344779045E-19
5041.235994339  -4.331522195359565E-19
5043.78899431229  2.775978278597799E-19
5046.34199428559  3.555745900739955E-19
5048.89499425889  6.552233078554781E-19
5051.44799423218  -7.898621066849226E-21
5054.00099420548  -2.028623715837923E-19
5056.55399417878  -1.217370373384331E-20
5059.10699415207  -2.755385162578654E-20
5061.65999412537  -2.274756915625703E-19
5064.21299409867  1.462719289518940E-19
5066.76599407197  8.661844764928822E-20
5069.31899404526  2.107147272012522E-19
5071.87199401856  3.277213226073043E-19
5074.42499399186  7.236803988222010E-20
5076.97799396516  1.807148450866286E-19
5079.53099393845  4.260113199735732E-20
5082.08399391175  9.888330535952727E-20
5084.63699388505  2.256392830235970E-20
5087.18999385834  -3.965284532536273E-21
5089.74299383164  3.238797788019227E-19
5092.29599380494  -3.896460135613706E-20
5094.84899377824  2.520411920534970E-19
5097.40199375153  -3.618585589186571E-19
5099.95499372483  1.570749272088265E-19
5102.50799369813  1.147747313181080E-19
5105.06099367142  1.249782451261290E-19
5107.61399364472  1.716133876302708E-19
5110.16699361802  2.032426355101730E-19
5112.71999359132  -3.291609544485847E-20
5115.27299356461  4.412704161584408E-19
5117.82599353791  -9.606497827422797E-20
5120.37899351121  -6.237630203711306E-20
5122.93199348451  -4.655103385077411E-20
5125.4849934578  -1.917067760954434E-19
5128.0379934311  -4.795424171819993E-19
5130.5909934044  2.102021266343829E-20
5133.14399337769  7.821073404452814E-20
5135.69699335099  -3.433416440298326E-19
5138.24999332429  2.636461170969692E-19
5140.80299329758  2.624032340946359E-19
5143.35599327088  -4.293478405656986E-19
5145.90899324418  -1.032481047074365E-19
5148.46199321747  -2.099536503375462E-20
5151.01499319077  4.518031906702440E-20
5153.56799316407  8.975654792265583E-20
5156.12099313737  -1.328651441556106E-19
5158.67399311066  -8.337007920078288E-20
5161.22699308396  -1.146406780390671E-20
5163.77999305726  4.541746398269872E-20
5166.33299303055  1.545125714822929E-19
5168.88599300385  2.128346410866816E-19
5171.43899297715  -1.848242462255870E-19
5173.99199295045  5.293116909957859E-19
5176.54499292374  -3.005384624033560E-20
5179.09799289704  2.490933405836131E-19
5181.65099287034  -2.795649231209615E-19
5184.20399284363  -1.479254910781469E-19
5186.75699281693  1.814210161605125E-19
5189.30999279023  1.027455222162760E-19
5191.86299276353  2.658797959851980E-19
5194.41599273682  3.907685042617109E-19
5196.96899271012  3.361486693848696E-20
5199.52199268342  -3.347654160363290E-19
5202.07499265672  1.988707259591631E-19
5204.62799263001  -1.518896188734708E-19
5207.18099260331  1.786455101484858E-19
5209.73399257661  3.874146006916387E-19
5212.2869925499  5.591044720454501E-20
5214.8399925232  1.217408340152988E-19
5217.3929924965  8.064586827754688E-20
5219.94599246979  2.073506570590083E-19
5222.49899244309  -4.816352058545056E-20
5225.05199241639  7.480113124609342E-20
5227.60499238969  2.443994292582837E-19
5230.15799236298  -9.923556314936805E-20
5232.71099233628  4.450619333239179E-19
5235.26399230958  1.389974616280998E-19
5237.81699228288  4.579473119228795E-21
5240.36999225617  -1.297257068012135E-19
5242.92299222947  4.550985033354487E-20
5245.47599220277  5.433479617350628E-19
5248.02899217606  3.810664693610484E-19
5250.58199214936  1.375305294321050E-19
5253.13499212266  2.424915514459366E-19
5255.68799209595  3.959949040283642E-19
5258.24099206925  3.297368317821719E-19
5260.79399204255  3.186327488620205E-19
5263.34699201585  1.137912687558633E-19
5265.89999198914  1.199389529535262E-19
5268.45299196244  -4.436271249525034E-20
5271.00599193574  1.741862392030520E-19
5273.55899190903  1.244972695748663E-19
5276.11199188233  4.447561262018383E-19
5278.66499185563  2.098358288291231E-19
5281.21799182892  4.464774591088490E-19
5283.77099180222  4.340852206417546E-19
5286.32399177552  8.815267853737513E-20
5288.87699174882  5.310618156269155E-20
5291.42999172211  4.518355800235783E-19
5293.98299169541  3.264722475835951E-20
5296.53599166871  -1.312488211365284E-19
5299.08899164201  -1.399098423888208E-19
5301.6419916153  -3.516657109017928E-20
5304.1949915886  6.304206101472153E-20
5306.7479915619  2.920488741931394E-19
5309.30099153519  3.871180901237234E-19
5311.85399150849  6.656588389046492E-21
5314.40699148179  1.557078791542938E-19
5316.95999145509  3.458364733129400E-19
5319.51299142838  5.098834250446088E-20
5322.06599140168  3.498356538945015E-19
5324.61899137498  2.311796351563179E-19
5327.17199134827  1.271245521030377E-19
5329.72499132157  1.581756359174383E-19
5332.27799129487  2.690707780267584E-19
5334.83099126816  1.433288955931038E-19
5337.38399124146  7.989928527746816E-20
5339.93699121476  1.810784768706384E-20
5342.48999118806  2.824208714127525E-19
5345.04299116135  9.549160047110387E-20
5347.59599113465  6.423634715437840E-21
5350.14899110795  -1.892740829323982E-20
5352.70199108125  2.600891346668326E-19
5355.25499105454  2.635758844162475E-19
5357.80799102784  1.545797906148309E-19
5360.36099100114  1.581061671020369E-19
5362.91399097443  2.016545947055689E-19
5365.46699094773  1.420521590170522E-19
5368.01999092103  4.017949683148654E-19
5370.57299089433  -2.523954346019142E-19
5373.12599086762  3.538366174290549E-19
5375.67899084092  2.464508082604560E-19
5378.23199081422  1.224487773571383E-19
5380.78499078751  2.699758468535100E-19
5383.33799076081  -4.472884596709924E-20
5385.89099073411  -1.151646207896261E-19
5388.4439907074  4.194771536019556E-19
5390.9969906807  2.019866358123248E-19
5393.549990654  -7.070460839378527E-20
5396.1029906273  1.773932246901361E-19
5398.65599060059  7.597824920328040E-20
5401.20899057389  1.779194304301125E-19
5403.76199054719  4.251029619553402E-19
5406.31499052048  1.469571937072495E-19
5408.86799049378  2.296041805265764E-19
5411.42099046708  3.095403545680239E-19
5413.97399044038  4.470423791647117E-19
5416.52699041367  3.489492418759265E-19
5419.07999038697  3.705718521027941E-20
5421.63299036027  4.107307025033801E-19
5424.18599033356  1.752638446485870E-19
5426.73899030686  1.101998276616324E-19
5429.29199028016  1.367173642331276E-19
5431.84499025346  4.276080001543752E-19
5434.39799022675  2.900898022411126E-19
5436.95099020005  6.403439036302172E-19
5439.50399017335  8.336135483830032E-19
5442.05699014665  4.489678099828165E-19
5444.60999011994  1.548717486807748E-19
5447.16299009324  4.825664452850254E-19
5449.71599006654  -7.215079335491873E-20
5452.26899003983  1.046772038071431E-19
5454.82199001313  1.275849079023105E-19
5457.37498998643  3.001432990626536E-19
5459.92798995972  2.242573300545208E-19
5462.48098993302  6.664946647687175E-19
5465.03398990632  1.856731968038558E-19
5467.58698987962  -3.669883331667572E-20
5470.13998985291  -1.434849723861855E-19
5472.69298982621  3.604921055916166E-19
5475.24598979951  1.052101165963073E-19
5477.7989897728  3.205838831734226E-19
5480.3519897461  6.452419129941608E-19
5482.9049897194  1.736955639680238E-19
5485.4579896927  1.491680028383974E-19
5488.01098966599  4.108810167879900E-19
5490.56398963929  8.563079325979147E-21
5493.11698961259  2.559808586639669E-19
5495.66998958588  3.541550323538192E-19
5498.22298955918  7.616499050599752E-20
5500.77598953248  7.209806030443300E-20
5503.32898950577  7.938237606614992E-20
5505.88198947907  3.465528112536803E-19
5508.43498945237  1.207921059366752E-19
5510.98798942567  3.577058386307442E-19
5513.54098939896  4.689434645186795E-19
5516.09398937226  1.964630675422491E-19
5518.64698934556  6.538769763957647E-19
5521.19998931885  1.086376915663768E-19
5523.75298929215  3.302607031491048E-19
5526.30598926545  -1.351819926471390E-19
5528.85898923875  4.936377784805108E-19
5531.41198921204  2.054453264632763E-19
5533.96498918534  4.159443674632660E-19
5536.51798915864  8.062477621928394E-20
5539.07098913193  6.322630206348057E-19
5541.62398910523  3.640753646953107E-19
5544.17698907853  3.014264032070088E-19
5546.72998905183  3.660105588876448E-19
5549.28298902512  3.312467021934881E-19
5551.83598899842  1.403272922917127E-19
5554.38898897172  2.333953367770453E-19
5556.94198894502  6.300078835573987E-19
5559.49498891831  1.595581041002646E-19
5562.04798889161  2.376105648043794E-19
5564.60098886491  2.779772645819544E-19
5567.1539888382  1.578658067594336E-19
5569.7069888115  5.536717148881865E-19
5572.2599887848  3.647128309814129E-19
5574.81298875809  -7.426353319480144E-20
5577.36598873139  1.401354289060289E-19
5579.91898870469  1.401938470742385E-19
5582.47198867799  7.930238823409036E-19
5585.02498865128  -2.347888735844299E-19
5587.57798862458  1.476440608241666E-19
5590.13098859788  2.128875337091506E-19
5592.68398857117  -3.193729171325987E-20
5595.23698854447  5.422536107921354E-20
5597.78998851777  3.636330819756732E-19
5600.34298849107  3.735534779334630E-19
5602.89598846436  1.679475750416462E-19
5605.44898843766  9.518774604773293E-20
5608.00198841096  4.252291226280796E-19
5610.55498838425  -6.789933461145172E-20
5613.10798835755  5.754057714433432E-20
5615.66098833085  2.675045776410247E-20
5618.21398830415  1.021190081611874E-19
5620.76698827744  3.621007349048372E-19
5623.31998825074  2.910707924099417E-19
5625.87298822404  4.419966455347758E-19
5628.42598819733  1.188953924055152E-19
5630.97898817063  2.785476392394979E-19
5633.53198814393  4.888846500448879E-19
5636.08498811723  -8.278493628235771E-21
5638.63798809052  2.455884016311780E-19
5641.19098806382  3.226367267391463E-19
5643.74398803712  9.119340474124715E-20
5646.29698801041  2.346247633309730E-19
5648.84998798371  2.751063955215454E-19
5651.40298795701  8.227498478279128E-20
5653.95598793031  2.103986052464022E-19
5656.5089879036  5.359990809679057E-19
5659.0619878769  1.635019197972221E-19
5661.6149878502  -2.294062911442960E-20
5664.16798782349  3.053055575673670E-19
5666.72098779679  3.582287335090416E-19
5669.27398777009  3.538746951676874E-19
5671.82698774339  4.519097402297528E-19
5674.37998771668  3.917124576664065E-19
5676.93298768998  4.290602929491981E-20
5679.48598766328  2.965749401360899E-19
5682.03898763657  2.636343379091373E-19
5684.59198760987  2.021094640770538E-19
5687.14498758317  1.373680218385003E-19
5689.69798755647  2.512221056441902E-19
5692.25098752976  1.515988179140164E-19
5694.80398750306  1.424427913994982E-19
5697.35698747636  -2.079701887274787E-19
5699.90998744965  1.218544931639230E-19
5702.46298742295  -8.294483481065240E-20
5705.01598739625  -2.228407008810492E-19
5707.56898736954  -1.831227164839681E-19
5710.12198734284  2.831381964483216E-20
5712.67498731614  4.284315236325012E-19
5715.22798728944  9.314707515753124E-20
5717.78098726273  -8.928113338549550E-20
5720.33398723603  1.708859073558377E-19
5722.88698720933  4.801060222140574E-19
5725.43998718262  1.833436668719195E-19
5727.99298715592  3.125384668923817E-19
5730.54598712922  5.082489024804941E-19
5733.09898710252  -7.979113565742599E-21
5735.65198707581  4.453191790342000E-19
5738.20498704911  1.151035995892424E-19
5740.75798702241  3.053788894063673E-19
5743.31098699571  -9.384005492700319E-20
5745.863986969  3.047008837625588E-19
5748.4169869423  6.925514006432901E-19
5750.9699869156  3.367949128364905E-19
5753.52298688889  2.574940400071501E-19
5756.07598686219  4.902767862083409E-19
5758.62898683549  2.501486179871570E-19
5761.18198680878  5.189290621530774E-19
5763.73498678208  5.050075753828084E-19
5766.28798675538  2.315487139487981E-19
5768.84098672868  4.346281099135835E-19
5771.39398670197  3.597115420196987E-19
5773.94698667527  5.001379225030603E-19
5776.49998664857  3.017897087121330E-19
5779.05298662186  3.977563102052986E-19
5781.60598659516  5.316457008358483E-19
5784.15898656846  2.180627604936245E-19
5786.71198654176  3.298494725868213E-19
5789.26498651505  5.045356203318047E-19
5791.81798648835  4.473480596664255E-19
5794.37098646165  3.876331747852033E-19
5796.92398643494  5.615178521080337E-19
5799.47698640824  4.484313744906215E-19
5802.02998638154  9.632794344609354E-20
5804.58298635484  4.844269287580249E-19
5807.13598632813  2.907107772091935E-19
5809.68898630143  2.493187912457907E-19
5812.24198627473  3.047323177932999E-19
5814.79498624802  2.925938856958418E-19
5817.34798622132  4.199974595255485E-19
5819.90098619462  2.543031112438133E-20
5822.45398616792  1.905093784112388E-19
5825.00698614121  3.314287265874865E-19
5827.55998611451  3.540177718818049E-19
5830.11298608781  1.289066094601661E-19
5832.6659860611  4.311937218899283E-19
5835.2189860344  2.853180810996926E-19
5837.7719860077  5.088429004872438E-19
5840.324985981  2.361394090998953E-19
5842.87798595429  5.262035297571873E-19
5845.43098592759  5.937877713663163E-19
5847.98398590089  4.102590452140645E-19
5850.53698587418  5.120513716483094E-19
5853.08998584748  3.516418443390890E-19
5855.64298582078  4.269849250200551E-19
5858.19598579408  5.451384463952915E-19
5860.74898576737  5.644537117845034E-19
5863.30198574067  1.339234989511654E-19
5865.85498571397  6.768319172003006E-19
5868.40798568726  4.647800468939614E-19
5870.96098566056  4.635855989283184E-19
5873.51398563386  2.617545619073892E-19
5876.06698560716  4.130449726763558E-19
5878.61998558045  4.393457932704721E-19
5881.17298555375  3.825085694652339E-19
5883.72598552705  1.064840835136879E-19
5886.27898550034  3.450084301628861E-19
5888.83198547364  4.145319835831165E-19
5891.38498544694  6.695505305136970E-20
5893.93798542023  5.474842029556729E-20
5896.49098539353  1.353352360310249E-19
5899.04398536683  5.648296458707845E-19
5901.59698534013  6.116353830159317E-19
5904.14998531342  2.747804037628266E-19
5906.70298528672  5.326705202768029E-19
5909.25598526002  4.363538577912312E-19
5911.80898523331  5.242269897454383E-19
5914.36198520661  5.800860465113771E-19
5916.91498517991  4.307322519792128E-19
5919.46798515321  5.588956531860488E-19
5922.0209851265  4.388928556771258E-19
5924.5739850998  6.655561468156951E-19
5927.1269850731  4.606609886209392E-19
5929.67998504639  5.711952241438593E-19
5932.23298501969  5.635317057423558E-19
5934.78598499299  4.139894772490446E-19
5937.33898496629  2.439379598900780E-19
5939.89198493958  5.968351463145737E-19
5942.44498491288  4.244151088413507E-19
5944.99798488618  4.158781890954247E-19
5947.55098485947  5.952538972403315E-19
5950.10398483277  6.210505010185148E-19
5952.65698480607  6.543797085143753E-19
5955.20998477937  8.196341194261959E-19
5957.76298475266  4.865111638879674E-19
5960.31598472596  2.746106477047685E-19
5962.86898469926  5.442893264412780E-19
5965.42198467255  3.595425077951046E-19
5967.97498464585  5.766440175574810E-19
5970.52798461915  6.108714594372032E-19
5973.08098459245  5.849610481825335E-19
5975.63398456574  3.150995812920315E-19
5978.18698453904  6.752773267428560E-19
5980.73998451234  3.292212818099236E-19
5983.29298448564  6.416191345504250E-19
5985.84598445893  6.528949050791855E-19
5988.39898443223  4.933550222469177E-19
5990.95198440553  6.921589967530366E-19
5993.50498437882  7.743080919272669E-19
5996.05798435212  7.307348948645525E-19
5998.61098432542  5.431382620678586E-19
6001.16398429871  5.499885302775648E-19
6003.71698427201  4.570722537239037E-19
6006.26998424531  6.538607617822465E-19
6008.82298421861  6.159116750705567E-19
6011.3759841919  7.173433918700157E-19
6013.9289841652  4.631810116331747E-19
6016.4819841385  4.904045176148093E-19
6019.03498411179  6.028706362872615E-19
6021.58798408509  3.599279081436109E-19
6024.14098405839  3.717818427681880E-19
6026.69398403168  1.503934923997261E-19
6029.24698400498  5.489123046053872E-19
6031.79998397828  6.028991624705656E-19
6034.35298395158  6.257796457862139E-19
6036.90598392487  8.810016964168486E-19
6039.45898389817  7.160964762105677E-19
6042.01198387147  6.271821394579512E-19
6044.56498384476  4.748160335084707E-19
6047.11798381806  3.969285001393174E-19
6049.67098379136  2.392507768556267E-19
6052.22398376466  2.495673977674562E-19
6054.77698373795  2.116809454904551E-19
6057.32998371125  5.877786432000622E-19
6059.88298368455  3.377142025964317E-19
6062.43598365785  4.549886556815278E-19
6064.98898363114  5.580971332775962E-19
6067.54198360444  5.009451453570798E-19
6070.09498357774  6.436624481546747E-19
6072.64798355103  5.657162493779464E-19
6075.20098352433  4.543502980138233E-19
6077.75398349763  6.360289841055594E-19
6080.30698347092  5.656855583021681E-19
6082.85998344422  4.427463493312118E-19
6085.41298341752  7.042253920385475E-19
6087.96598339082  6.281571653325126E-19
6090.51898336411  5.128986244240398E-19
6093.07198333741  4.779883376304948E-19
6095.62498331071  4.091213952012118E-19
6098.17798328401  4.120173945454422E-19
6100.7309832573  4.711217263234552E-19
6103.2839832306  6.843225812114253E-19
6105.8369832039  6.479171756469379E-19
6108.38998317719  5.129572474061706E-19
6110.94298315049  4.999322121167559E-19
6113.49598312379  5.774330292900065E-19
6116.04898309708  4.749968266344173E-19
6118.60198307038  7.134532222084297E-19
6121.15498304368  6.830734156935855E-19
6123.70798301698  4.768916512273177E-19
6126.26098299027  7.421187000348177E-19
6128.81398296357  5.514168759917729E-19
6131.36698293687  4.234790945407816E-19
6133.91998291016  5.753300741609236E-19
6136.47298288346  6.101536788031926E-19
6139.02598285676  4.895875744860733E-19
6141.57898283005  3.364250920164463E-19
6144.13198280335  6.136390914108700E-19
6146.68498277665  4.706106327261912E-19
6149.23798274995  5.439115674237281E-19
6151.79098272324  5.691809466890176E-19
6154.34398269654  5.097793825294811E-19
6156.89698266984  4.603476257233178E-19
6159.44998264314  4.203898644753325E-19
6162.00298261643  3.083985237576425E-19
6164.55598258973  3.540706008541618E-19
6167.10898256303  3.250535339007524E-19
6169.66198253632  3.999133042826549E-19
6172.21498250962  5.897060693197695E-19
6174.76798248292  2.314907280569022E-19
6177.32098245622  4.404361127044157E-19
6179.87398242951  5.158838530535580E-19
6182.42698240281  7.731716306337123E-19
6184.97998237611  6.734308103003416E-19
6187.5329823494  6.404893378018536E-19
6190.0859823227  4.606436271107566E-19
6192.638982296  6.231914490991074E-19
6195.1919822693  7.042056531993498E-19
6197.74498224259  6.613521473045268E-19
6200.29798221589  4.876174867859760E-19
6202.85098218919  4.692492728527904E-19
6205.40398216248  4.461919018834609E-19
6207.95698213578  3.615674408034779E-19
6210.50998210908  6.403499332294021E-19
6213.06298208238  5.212482565662957E-19
6215.61598205567  4.044950637862005E-19
6218.16898202897  4.872382841783934E-19
6220.72198200227  4.792957442847326E-19
6223.27498197556  3.600140811429019E-19
6225.82798194886  3.523480794280847E-19
6228.38098192216  5.473044823852442E-19
6230.93398189546  1.001409336806496E-18
6233.48698186875  7.299306445358542E-19
6236.03998184205  4.794722923600366E-19
6238.59298181535  5.931376983403183E-19
6241.14598178864  6.389378884633739E-19
6243.69898176194  5.480814806219063E-19
6246.25198173524  3.680511988641849E-19
6248.80498170854  5.078913924878476E-19
6251.35798168183  5.109450073474887E-19
6253.91098165513  6.914166380250054E-19
6256.46398162843  5.219862011775536E-19
6259.01698160172  4.658350908349762E-19
6261.56998157502  6.542426392709245E-19
6264.12298154832  7.770558577893095E-19
6266.67598152161  8.611974117888760E-19
6269.22898149491  4.796381856014775E-19
6271.78198146821  4.142683293796892E-19
6274.33498144151  6.971831669685214E-19
6276.8879814148  5.222039254134217E-19
6279.4409813881  4.544530688808419E-19
6281.9939813614  7.589005712840448E-19
6284.5469813347  5.276736464433829E-19
6287.09998130799  6.931406877745152E-19
6289.65298128129  6.529262759885725E-19
6292.20598125459  7.244868179275160E-19
6294.75898122788  6.408280012388736E-19
6297.31198120118  5.635087411411474E-19
6299.86498117448  5.315325309952104E-19
6302.41798114778  3.018803601422741E-19
6304.97098112107  9.580142576757801E-19
6307.52398109437  6.361408387420821E-19
6310.07698106767  6.303043528462395E-19
6312.62998104096  5.806968545573418E-19
6315.18298101426  3.861550361545264E-19
6317.73598098756  3.152717570691425E-19
6320.28898096085  6.332335053822179E-19
6322.84198093415  5.768149623530581E-19
6325.39498090745  5.361984676117302E-19
6327.94798088075  6.852966729258120E-19
6330.50098085404  5.701396715818834E-19
6333.05398082734  8.022259467629641E-19
6335.60698080064  5.149639691150835E-19
6338.15998077393  4.045861180358113E-19
6340.71298074723  8.558992716095733E-19
6343.26598072053  8.650864774062391E-19
6345.81898069383  7.294680279305849E-19
6348.37198066712  4.751104642204323E-19
6350.92498064042  5.533637861481035E-19
6353.47798061372  7.671962491998638E-19
6356.03098058701  7.594791593525594E-19
6358.58398056031  6.921300462626065E-19
6361.13698053361  3.927205946992981E-19
6363.68998050691  3.655420004400711E-19
6366.2429804802  9.458659350430213E-19
6368.7959804535  5.479710688213112E-19
6371.3489804268  4.632086888973322E-19
6373.90198040009  7.260843672096351E-19
6376.45498037339  5.309164165686652E-19
6379.00798034669  8.367699357684843E-19
6381.56098031998  6.866855828487734E-19
6384.11398029328  6.594923010148483E-19
6386.66698026658  5.322977278767224E-19
6389.21998023988  6.938382198633186E-19
6391.77298021317  6.811478999886428E-19
6394.32598018647  5.371697579768558E-19
6396.87898015977  5.560767427452548E-19
6399.43198013307  7.153226194477753E-19
6401.98498010636  8.660895626074037E-19
6404.53798007966  7.698758404358035E-19
6407.09098005296  5.779780826888327E-19
6409.64398002625  6.398941512803155E-19
6412.19697999955  5.923328529686294E-19
6414.74997997285  7.300176660743042E-19
6417.30297994615  3.808614388571291E-19
6419.85597991944  3.174122166244137E-19
6422.40897989274  3.115352974401617E-19
6424.96197986604  6.659789032656291E-19
6427.51497983933  7.832433170479040E-19
6430.06797981263  6.852372437149847E-19
6432.62097978593  7.543654212532695E-19
6435.17397975923  5.939595656781559E-19
6437.72697973252  5.331093651029600E-19
6440.27997970582  8.369057748224967E-19
6442.83297967912  7.105186362602088E-19
6445.38597965241  6.616578271128568E-19
6447.93897962571  4.341918555557514E-19
6450.49197959901  5.887813888255905E-19
6453.0449795723  5.034199595540154E-19
6455.5979795456  6.826743467677416E-19
6458.1509795189  6.758103248819669E-19
6460.7039794922  6.097330029783104E-19
6463.25697946549  6.733749890472685E-19
6465.80997943879  5.998211818431342E-19
6468.36297941209  6.376300574287697E-19
6470.91597938539  6.663272875820773E-19
6473.46897935868  7.001877523516736E-19
6476.02197933198  1.044499202247928E-18
6478.57497930528  7.752862170814458E-19
6481.12797927857  7.607640254370209E-19
6483.68097925187  6.812467229988312E-19
6486.23397922517  8.208012305390447E-19
6488.78697919847  7.258292452047845E-19
6491.33997917176  5.811025037359578E-19
6493.89297914506  5.382939520051955E-19
6496.44597911835  7.448146769313318E-19
6498.99897909165  4.334343418158430E-19
6501.55197906495  7.138222796584171E-19
6504.10497903825  9.050388056702766E-19
6506.65797901154  6.174495411017268E-19
6509.21097898484  7.251751812082858E-19
6511.76397895814  7.719966247760558E-19
6514.31697893144  7.610208458565716E-19
6516.86997890473  8.281036724122778E-19
6519.42297887803  5.387517289760916E-19
6521.97597885133  4.622602368655618E-19
6524.52897882462  7.959221758295176E-19
6527.08197879792  6.126931863328694E-19
6529.63497877122  9.128354462446836E-19
6532.18797874452  6.320058623274543E-19
6534.74097871781  7.763090837749720E-19
6537.29397869111  7.495000985163375E-19
6539.84697866441  7.513830796563604E-19
6542.3999786377  8.670804225797256E-19
6544.952978611  8.215000366976605E-19
6547.5059785843  9.791105411118273E-19
6550.0589785576  6.633725381396554E-19
6552.61197853089  3.487884225017831E-19
6555.16497850419  5.342078346798382E-19
6557.71797847749  4.862255208099428E-19
6560.27097845078  5.955914999264098E-19
6562.82397842408  5.075880050224800E-19
6565.37697839738  6.091062767371044E-19
6567.92997837068  7.264165786427946E-19
6570.48297834397  7.813478561523159E-19
6573.03597831727  8.165684074025286E-19
6575.58897829057  5.536837295724323E-19
6578.14197826386  8.001084745918568E-19
6580.69497823716  8.932832271147251E-19
6583.24797821046  6.321893722424041E-19
6585.80097818376  6.862995039170859E-19
6588.35397815705  7.026413418517698E-19
6590.90697813035  6.174715726608335E-19
6593.45997810365  7.104749135398322E-19
6596.01297807695  5.919711824541548E-19
6598.56597805024  5.590587879415186E-19
6601.11897802354  5.208449003324031E-19
6603.67197799684  5.602252616108829E-19
6606.22497797013  7.257051227785396E-19
6608.77797794343  7.627759689431906E-19
6611.33097791673  6.188108164011064E-19
6613.88397789002  8.943204417288960E-19
6616.43697786332  6.056732046626337E-19
6618.98997783662  7.854814324415984E-19
6621.54297780991  6.554678634925585E-19
6624.09597778321  6.875860252545805E-19
6626.64897775651  6.499174457191285E-19
6629.20197772981  7.591506848403316E-19
6631.7549777031  7.615959539129168E-19
6634.3079776764  5.920127831842370E-19
6636.8609776497  5.962848725149756E-19
6639.413977623  6.918847305423954E-19
6641.96697759629  6.633634116917802E-19
6644.51997756959  8.523822350378349E-19
6647.07297754289  8.020095394738071E-19
6649.62597751618  7.683256651985042E-19
6652.17897748948  8.887042695744574E-19
6654.73197746278  8.865817875798320E-19
6657.28497743608  6.802323892908487E-19
6659.83797740937  8.077025456377937E-19
6662.39097738267  9.151087947150163E-19
6664.94397735597  7.790286627868315E-19
6667.49697732926  9.352485170612629E-19
6670.04997730256  1.024949870267256E-18
6672.60297727586  8.065654896160088E-19
6675.15597724915  7.496316078803927E-19
6677.70897722245  7.484088884549366E-19
6680.26197719575  9.849140865774790E-19
6682.81497716905  8.727638355342293E-19
6685.36797714234  7.811667663139604E-19
6687.92097711564  7.186207025623792E-19
6690.47397708894  6.755518496084290E-19
6693.02697706223  7.479720816992882E-19
6695.57997703553  6.568996900257175E-19
6698.13297700883  7.767322222504397E-19
6700.68597698213  6.406581606021709E-19
6703.23897695542  5.849522620470608E-19
6705.79197692872  8.712943139652267E-19
6708.34497690202  7.734151225044488E-19
6710.89797687531  7.600994345168344E-19
6713.45097684861  8.821897782046159E-19
6716.00397682191  6.649309497248139E-19
6718.55697679521  1.019912796152430E-18
6721.1099767685  9.977448300258192E-19
6723.6629767418  1.072894022138143E-18
6726.2159767151  8.200480048488262E-19
6728.7689766884  8.207339910395742E-19
6731.32197666169  8.871632629890298E-19
6733.87497663499  8.978638833657672E-19
6736.42797660829  1.076354601743262E-18
6738.98097658158  9.698760470880468E-19
6741.53397655488  8.407596936774080E-19
6744.08697652818  8.156004712102724E-19
6746.63997650147  9.455303295411987E-19
6749.19297647477  7.874932910453615E-19
6751.74597644807  8.299515059494961E-19
6754.29897642137  6.679840128261050E-19
6756.85197639466  8.156795973751620E-19
6759.40497636796  9.119614089123130E-19
6761.95797634126  1.010000380852254E-18
6764.51097631455  1.044288398434813E-18
6767.06397628785  7.591387144102723E-19
6769.61697626115  8.696396271875102E-19
6772.16997623445  9.269093705094974E-19
6774.72297620774  7.693891988171347E-19
6777.27597618104  8.676755672632536E-19
6779.82897615434  7.319769726447856E-19
6782.38197612763  9.470338959081153E-19
6784.93497610093  7.817600427529401E-19
6787.48797607423  7.443499390550306E-19
6790.04097604753  8.478983648889020E-19
6792.59397602082  9.125079905808306E-19
6795.14697599412  8.153821953029861E-19
6797.69997596742  8.815663630454501E-19
6800.25297594071  8.820131879644744E-19
6802.80597591401  9.154536560364521E-19
6805.35897588731  8.752959569337164E-19
6807.9119758606  9.481293514014740E-19
6810.4649758339  9.428708597952336E-19
6813.0179758072  6.447244543217403E-19
6815.5709757805  9.685235169082611E-19
6818.12397575379  8.300037191933569E-19
6820.67697572709  8.264282709157800E-19
6823.22997570039  8.107169799348891E-19
6825.78297567369  9.682450473023019E-19
6828.33597564698  8.457922685547131E-19
6830.88897562028  8.476294889846000E-19
6833.44197559358  8.927804543696435E-19
6835.99497556687  8.255022745090879E-19
6838.54797554017  7.429853530520640E-19
6841.10097551347  7.796289860683698E-19
6843.65397548677  7.814159461238778E-19
6846.20697546006  9.820570565602817E-19
6848.75997543336  9.177944142298708E-19
6851.31297540666  8.588111487363542E-19
6853.86597537995  8.311484162861004E-19
6856.41897535325  8.828503799308101E-19
6858.97197532655  5.829801794267076E-19
6861.52497529984  8.236372920909589E-19
6864.07797527314  7.868885537761849E-19
6866.63097524644  6.285495284768069E-19
6869.18397521974  7.356635543054215E-19
6871.73697519303  5.206309121848049E-19
6874.28997516633  5.639800177002738E-19
6876.84297513963  7.895816438753868E-19
6879.39597511292  6.287927224910101E-19
6881.94897508622  4.927787694480250E-19
6884.50197505952  5.230549140043946E-19
6887.05497503282  6.195714296397174E-19
6889.60797500611  6.252959334094571E-19
6892.16097497941  7.238387826168938E-19
6894.71397495271  8.682004998500429E-19
6897.266974926  6.810331174068938E-19
6899.8199748993  7.030488591520867E-19
6902.3729748726  6.609788461980123E-19
6904.9259748459  5.400118048201939E-19
6907.47897481919  5.254745435283949E-19
6910.03197479249  8.840630814024828E-19
6912.58497476579  6.851884702594325E-19
6915.13797473909  8.385646232732591E-19
6917.69097471238  1.083881263177676E-18
6920.24397468568  1.001748171346338E-18
6922.79697465898  8.175442407134791E-19
6925.34997463227  9.654401451971811E-19
6927.90297460557  8.608771729325153E-19
6930.45597457887  8.347916144032863E-19
6933.00897455216  8.119627922617405E-19
6935.56197452546  9.800204080114534E-19
6938.11497449876  1.297604588721574E-18
6940.66797447205  1.121922847826336E-18
6943.22097444535  1.151567638896213E-18
6945.77397441865  6.496082432433805E-19
6948.32697439195  6.854750478575471E-19
6950.87997436524  8.170978403709627E-19
6953.43297433854  9.727475961280422E-19
6955.98597431184  9.054269666016050E-19
6958.53897428514  8.935487083164289E-19
6961.09197425843  1.000095606986729E-18
6963.64497423173  1.008762889610955E-18
6966.19797420503  8.947724465626736E-19
6968.75097417832  1.029686317232420E-18
6971.30397415162  8.549746354935688E-19
6973.85697412492  8.318663249187087E-19
6976.40997409822  6.603880322619879E-19
6978.96297407151  8.793309655150006E-19
6981.51597404481  1.150815091814696E-18
6984.06897401811  8.952453356032501E-19
6986.6219739914  8.324946645245301E-19
6989.1749739647  9.930015081195639E-19
6991.727973938  8.951214675746827E-19
6994.28097391129  8.679287375271378E-19
6996.83397388459  8.611741508006630E-19
6999.38697385789  9.797237701220117E-19
7001.93997383119  8.096594749647001E-19
7004.49297380448  9.696170202241473E-19
7007.04597377778  9.614137121807198E-19
7009.59897375108  1.058497312598726E-18
7012.15197372437  9.314194756912613E-19
7014.70497369767  6.827691381400531E-19
7017.25797367097  8.008071968535418E-19
7019.81097364427  9.651129436558159E-19
7022.36397361756  8.703921751167310E-19
7024.91697359086  7.403171389133643E-19
7027.46997356416  6.882780402116792E-19
7030.02297353745  8.037627106276357E-19
7032.57597351075  8.398111148125552E-19
7035.12897348405  6.840019606306388E-19
7037.68197345734  7.431017504339970E-19
7040.23497343064  8.812381431113069E-19
7042.78797340394  8.176636943055385E-19
7045.34097337724  7.575953310740358E-19
7047.89397335053  9.543925418261419E-19
7050.44697332383  1.044289248386723E-18
7052.99997329713  1.041127853897130E-18
7055.55297327043  7.783508279320255E-19
7058.10597324372  9.926696370421304E-19
7060.65897321702  7.660002749519314E-19
7063.21197319032  6.999948201513499E-19
7065.76497316361  6.852577908469761E-19
7068.31797313691  8.831564424225827E-19
7070.87097311021  1.012243420834263E-18
7073.42397308351  8.332400804249349E-19
7075.9769730568  1.096537878605414E-18
7078.5299730301  1.074731753184867E-18
7081.0829730034  8.414411811155702E-19
7083.63597297669  9.403357681007451E-19
7086.18897294999  9.359313632480803E-19
7088.74197292329  8.404192484985937E-19
7091.29497289659  8.961833031425712E-19
7093.84797286988  8.846086446781281E-19
7096.40097284318  9.204053225045026E-19
7098.95397281648  9.347993162808593E-19
7101.50697278977  7.926662050747134E-19
7104.05997276307  8.603185361331659E-19
7106.61297273637  9.602736849338551E-19
7109.16597270966  8.654594422622661E-19
7111.71897268296  9.157830661328707E-19
7114.27197265626  9.137541431406228E-19
7116.82497262956  9.375532791824349E-19
7119.37797260285  9.685778533686139E-19
7121.93097257615  8.068487147856227E-19
7124.48397254945  7.079828662073158E-19
7127.03697252274  7.755294552161027E-19
7129.58997249604  9.160557626689518E-19
7132.14297246934  9.260748116364265E-19
7134.69597244264  7.778891458284961E-19
7137.24897241593  7.459900241677125E-19
7139.80197238923  9.869340966064676E-19
7142.35497236253  9.297757410883631E-19
7144.90797233583  9.420885988099414E-19
7147.46097230912  1.156635871940710E-18
7150.01397228242  9.652362177845292E-19
7152.56697225572  9.732112316816722E-19
7155.11997222901  1.031937592023282E-18
7157.67297220231  8.268552302599662E-19
7160.22597217561  9.289080704922735E-19
7162.77897214891  8.788631709645827E-19
7165.3319721222  9.696437639613698E-19
7167.8849720955  1.106242460928163E-18
7170.4379720688  8.267508890748997E-19
7172.99097204209  6.960650873917106E-19
7175.54397201539  1.049476000499214E-18
7178.09697198869  1.005565922961272E-18
7180.64997196198  9.096700634397077E-19
7183.20297193528  1.053320664428519E-18
7185.75597190858  8.538760393541046E-19
7188.30897188188  9.061246695160949E-19
7190.86197185517  8.418676304692043E-19
7193.41497182847  7.330432236460958E-19
7195.96797180177  7.721261828216446E-19
7198.52097177506  7.095377117769217E-19
7201.07397174836  8.474651249403596E-19
7203.62697172166  8.439992816284490E-19
7206.17997169496  9.068888479836576E-19
7208.73297166825  1.023803477038748E-18
7211.28597164155  1.011181925546065E-18
7213.83897161485  1.027384104198541E-18
7216.39197158814  9.589113913863720E-19
7218.94497156144  9.142601431258652E-19
7221.49797153474  8.476951171394132E-19
7224.05097150804  1.017304097581524E-18
7226.60397148133  1.018935607057660E-18
7229.15697145463  9.247943609481406E-19
7231.70997142793  1.050427382000668E-18
7234.26297140122  1.017650656472658E-18
7236.81597137452  8.288968034382243E-19
7239.36897134782  1.344393347332611E-18
7241.92197132112  7.533338121332155E-19
7244.47497129441  5.789260272245546E-19
7247.02797126771  1.172545997390038E-18
7249.58097124101  1.164076784795691E-18
7252.1339712143  9.001956435416042E-19
7254.6869711876  1.067038350749403E-18
7257.2399711609  1.003924565399651E-18
7259.79297113419  1.064090902451246E-18
7262.34597110749  8.352969357403873E-19
7264.89897108079  9.608252759911966E-19
7267.45197105409  9.667318887252299E-19
7270.00497102738  9.462136004736585E-19
7272.55797100068  8.637567026994101E-19
7275.11097097398  1.229713522150138E-18
7277.66397094728  1.136544882184148E-18
7280.21697092057  7.265907936233016E-19
7282.76997089387  7.576067080953165E-19
7285.32297086717  8.199576734294758E-19
7287.87597084047  8.866357852817820E-19
7290.42897081376  8.525258014498565E-19
7292.98197078706  9.409997659326306E-19
7295.53497076036  1.015132543991526E-18
7298.08797073365  9.853010593895648E-19
7300.64097070695  7.851140749437478E-19
7303.19397068025  9.949114881327124E-19
7305.74697065354  9.677948278155948E-19
7308.29997062684  1.079541807510706E-18
7310.85297060014  9.389023292588833E-19
7313.40597057344  9.034590871275304E-19
7315.95897054673  9.417697175642224E-19
7318.51197052003  9.337325574038318E-19
7321.06497049333  8.824668062031475E-19
7323.61797046662  7.106550714500603E-19
7326.17097043992  9.826757190200707E-19
7328.72397041322  1.116897066400886E-18
7331.27697038652  7.379739194265813E-19
7333.82997035981  9.759141705594281E-19
7336.38297033311  1.170334965719293E-18
7338.93597030641  7.434800622650129E-19
7341.4889702797  1.232060223377870E-18
7344.041970253  1.047893818000649E-18
7346.5949702263  9.957591226633686E-19
7349.1479701996  1.087707165709986E-18
7351.70097017289  1.099871110101512E-18
7354.25397014619  1.115175224173453E-18
7356.80697011949  1.099729752814754E-18
7359.35997009279  8.197497552555915E-19
7361.91297006608  8.405070349986381E-19
7364.46597003938  1.039260155546326E-18
7367.01897001268  1.135532543439504E-18
7369.57196998597  8.301675761645755E-19
7372.12496995927  8.007640688272219E-19
7374.67796993257  1.042447189657525E-18
7377.23096990586  9.399819935728814E-19
7379.78396987916  9.329410415660500E-19
7382.33696985246  9.316476010369306E-19
7384.88996982576  6.829362630905771E-19
7387.44296979905  1.102051748219958E-18
7389.99596977235  1.065391305100573E-18
7392.54896974565  9.325724938215142E-19
7395.10196971894  1.024782875654877E-18
7397.65496969224  1.046573294743188E-18
7400.20796966554  1.103716283546427E-18
7402.76096963883  1.193408128232492E-18
7405.31396961213  1.098037031104329E-18
7407.86696958543  9.750561786235003E-19
7410.41996955873  1.085864596804877E-18
7412.97296953202  1.054707494831226E-18
7415.52596950532  1.033506616358188E-18
7418.07896947862  9.450855441104055E-19
7420.63196945191  1.103245601994984E-18
7423.18496942521  1.103709576569164E-18
7425.73796939851  1.111509273458576E-18
7428.29096937181  1.154047208872973E-18
7430.8439693451  1.111646470710204E-18
7433.3969693184  1.031326657585346E-18
7435.9499692917  1.091630955995403E-18
7438.50296926499  1.062196460417220E-18
7441.05596923829  9.828660635032113E-19
7443.60896921159  9.279125422470000E-19
7446.16196918489  1.041011543021094E-18
7448.71496915818  9.422510968123514E-19
7451.26796913148  8.663606489353028E-19
7453.82096910478  1.081079079192693E-18
7456.37396907808  1.065209960420686E-18
7458.92696905137  1.143498812981283E-18
7461.47996902467  1.094048038577393E-18
7464.03296899797  1.063953111495629E-18
7466.58596897126  1.210121146054386E-18
7469.13896894456  1.275629260958559E-18
7471.69196891786  1.306056229141613E-18
7474.24496889115  9.545175995922305E-19
7476.79796886445  9.279077879657567E-19
7479.35096883775  1.380891463900435E-18
7481.90396881105  1.144366483692841E-18
7484.45696878434  1.346678836832854E-18
7487.00996875764  1.099077472014529E-18
7489.56296873094  1.135075615871927E-18
7492.11596870423  1.110912601504509E-18
7494.66896867753  1.108026959872657E-18
7497.22196865083  1.129310445363963E-18
7499.77496862413  1.274724574325992E-18
7502.32796859742  1.271194122661027E-18
7504.88096857072  1.300541936094242E-18
7507.43396854402  1.151641672896126E-18
7509.98696851731  1.314779036026282E-18
7512.53996849061  1.229715815195104E-18
7515.09296846391  1.044666966616290E-18
7517.64596843721  1.353475279033148E-18
7520.1989684105  1.313876896306946E-18
7522.7519683838  1.176927480299030E-18
7525.3049683571  1.170471059835808E-18
7527.85796833039  1.139397159148012E-18
7530.41096830369  1.142403357772533E-18
7532.96396827699  1.074279580945151E-18
7535.51696825029  1.143259227432013E-18
7538.06996822358  1.381466317130170E-18
7540.62296819688  1.177003635005561E-18
7543.17596817018  1.193425023614059E-18
7545.72896814347  1.247808106633736E-18
7548.28196811677  1.241141390653132E-18
7550.83496809007  1.132747423080210E-18
7553.38796806336  1.116469684068141E-18
7555.94096803666  1.255157582666093E-18
7558.49396800996  1.325283029845380E-18
7561.04696798326  1.124013919039337E-18
7563.59996795655  1.136837191248180E-18
7566.15296792985  1.051260159959837E-18
7568.70596790315  1.055437968652688E-18
7571.25896787644  1.012231451404248E-18
7573.81196784974  1.185031456352596E-18
7576.36496782304  1.115221155314098E-18
7578.91796779634  1.389086706873430E-18
7581.47096776963  1.288414328840477E-18
7584.02396774293  1.286505623227758E-18
7586.57696771623  1.260072826595360E-18
7589.12996768953  1.053112237819286E-18
7591.68296766282  8.628710341176944E-19
7594.23596763612  7.229323144217913E-19
7596.78896760942  2.304191726147748E-19
7599.34196758272  3.773670707805169E-19
7601.89496755601  3.608363743559511E-19
7604.44796752931  4.822506229361495E-19
7607.00096750261  4.289393933332382E-19
7609.5539674759  6.439900770040525E-19
7612.1069674492  7.172548448780418E-19
7614.6599674225  6.678401526465433E-19
7617.21296739579  6.448194580856232E-19
7619.76596736909  7.782039533562384E-19
7622.31896734239  4.872151083753891E-19
7624.87196731568  5.607675574621141E-19
7627.42496728898  5.884185314326257E-19
7629.97796726228  4.446816726178076E-19
7632.53096723558  6.541622418653929E-19
7635.08396720887  6.474602077788937E-19
7637.63696718217  7.767742495081907E-19
7640.18996715547  7.768427632321430E-19
7642.74296712876  8.770970972367292E-19
7645.29596710206  8.371524103306393E-19
7647.84896707536  7.779682730059283E-19
7650.40196704866  8.623975509522168E-19
7652.95496702195  9.153692683469676E-19
7655.50796699525  7.836760516385099E-19
7658.06096696855  8.107646103295889E-19
7660.61396694184  9.491075631841876E-19
7663.16696691514  1.070423540867803E-18
7665.71996688844  1.184517391470421E-18
7668.27296686174  1.118989410117752E-18
7670.82596683503  1.333367818872342E-18
7673.37896680833  1.207828186900752E-18
7675.93196678163  1.255257764177579E-18
7678.48496675493  1.254129028252640E-18
7681.03796672822  1.299535116082106E-18
7683.59096670152  1.113645255156749E-18
7686.14396667482  1.135798363986077E-18
7688.69696664811  1.065034813808369E-18
7691.24996662141  1.372699108550960E-18
7693.80296659471  1.186927767016980E-18
7696.355966568  1.189941266980633E-18
7698.9089665413  1.125602045346933E-18
7701.4619665146  1.222941617273677E-18
7704.0149664879  1.276326284776486E-18
7706.56796646119  1.242201868032586E-18
7709.12096643449  1.693725191698436E-18
7711.67396640779  1.666440940177411E-18
7714.22696638108  1.312359067582777E-18
7716.77996635438  1.695675497997016E-18
7719.33296632768  1.825575641939074E-18
7721.88596630098  1.474024362189148E-18
7724.43896627427  1.577174101274588E-18
7726.99196624757  1.672411906624725E-18
7729.54496622087  1.583353580314299E-18
7732.09796619416  1.539483744974571E-18
7734.65096616746  1.271552568129514E-18
7737.20396614076  1.237342318210637E-18
7739.75696611406  1.191178589211637E-18
7742.30996608735  1.179598921670281E-18
7744.86296606065  1.457226869845602E-18
7747.41596603395  1.098394203291402E-18
7749.96896600724  7.942934709145442E-19
7752.52196598054  8.766821097775503E-19
7755.07496595384  5.632128691550541E-19
7757.62796592714  1.127651344328174E-18
7760.18096590043  1.151516532049287E-18
7762.73396587373  1.280019913040085E-18
7765.28696584703  1.378842505611446E-18
7767.83996582032  1.676526125907360E-18
7770.39296579362  1.556082743012912E-18
7772.94596576692  1.546876095258716E-18
7775.49896574022  1.427795515610813E-18
7778.05196571351  1.785404698676938E-18
7780.60496568681  1.568377007840945E-18
7783.15796566011  1.406011124382473E-18
7785.7109656334  1.446763373269845E-18
7788.2639656067  1.605121416418322E-18
7790.81696558  1.337589266157229E-18
7793.36996555329  1.181490223075351E-18
7795.92296552659  1.045919316593344E-18
7798.47596549989  1.278549797203649E-18
7801.02896547318  1.430394961859315E-18
7803.58196544648  1.362440219456826E-18
7806.13496541978  1.229009878529156E-18
7808.68796539308  1.267804689608908E-18
7811.24096536638  1.097025881746882E-18
7813.79396533967  9.805266647063550E-19
7816.34696531297  8.315249467571630E-19
7818.89996528627  9.981466613696600E-19
7821.45296525956  1.528847903033706E-18
7824.00596523286  1.057325534979135E-18
7826.55896520616  7.785550971495654E-19
7829.11196517946  7.145685471050193E-19
7831.66496515275  1.012366102273645E-18
7834.21796512605  8.581738121140347E-19
7836.77096509935  9.729615445780432E-19
7839.32396507264  8.384673307556884E-19
7841.87696504594  1.052118916851958E-18
7844.42996501924  1.252634291992917E-18
7846.98296499254  1.081791724757677E-18
7849.53596496583  1.313428798914384E-18
7852.08896493913  1.217828983022535E-18
7854.64196491243  1.173809979632671E-18
7857.19496488572  1.744444701564873E-18
7859.74796485902  1.551200355503923E-18
7862.30096483232  1.541133168641460E-18
7864.85396480561  1.622997978968918E-18
7867.40696477891  1.643835658359149E-18
7869.95996475221  1.263929122528486E-18
7872.5129647255  1.470300170850599E-18
7875.0659646988  1.404004105678636E-18
7877.6189646721  1.687231076579845E-18
7880.1719646454  1.358307747212154E-18
7882.72496461869  1.108520055895087E-18
7885.27796459199  1.387513609081333E-18
7887.83096456529  1.596631318930521E-18
7890.38396453858  1.477835491438870E-18
7892.93696451188  2.006875508968459E-18
7895.48996448518  1.680095461925421E-18
7898.04296445848  1.393247027323761E-18
7900.59596443177  1.508123139957392E-18
7903.14896440507  1.380253871667134E-18
7905.70196437837  1.593986536608589E-18
7908.25496435167  1.781469957136896E-18
7910.80796432496  1.738880063331722E-18
7913.36096429826  1.370042440947669E-18
7915.91396427156  1.298169172240636E-18
7918.46696424486  9.273532268180673E-19
7921.01996421815  1.651004893383507E-18
7923.57296419145  1.433182545213804E-18
7926.12596416475  1.495721053157267E-18
7928.67896413804  1.226149961696413E-18
7931.23196411134  1.144830459450566E-18
7933.78496408464  1.085625946261815E-18
7936.33796405793  8.941498823776688E-19
7938.89096403123  9.143160933581331E-19
7941.44396400453  1.000386134852812E-18
7943.99696397782  1.222977190727829E-18
7946.54996395112  1.189729359035176E-18
7949.10296392442  1.194522857313043E-18
7951.65596389772  1.433230768090202E-18
7954.20896387101  1.446285221051649E-18
7956.76196384431  1.437302028198632E-18
7959.31496381761  1.419055899355717E-18
7961.8679637909  1.861714210210355E-18
7964.4209637642  1.946216671400597E-18
7966.9739637375  1.794625100858814E-18
7969.5269637108  1.360835878242388E-18
7972.07996368409  1.733513580041494E-18
7974.63296365739  1.630125783335168E-18
7977.18596363069  1.547813553797560E-18
7979.73896360398  1.933558188752262E-18
7982.29196357728  1.703010796810478E-18
7984.84496355058  1.722731201675605E-18
7987.39796352388  2.242834211659004E-18
7989.95096349718  1.958914547481083E-18
7992.50396347047  1.674738657271832E-18
7995.05696344377  1.602755953381776E-18
7997.60996341707  1.635399387115691E-18
8000.16296339036  1.669461657624379E-18
8002.71596336366  1.537122527092864E-18
8005.26896333696  1.793761335722496E-18
8007.82196331025  1.726383568801358E-18
8010.37496328355  2.098028131288368E-18
8012.92796325685  1.592995762364583E-18
8015.48096323014  1.563997394352093E-18
8018.03396320344  1.195473644525697E-18
8020.58696317674  1.002068499158487E-18
8023.13996315004  8.164948879122619E-19
8025.69296312333  9.114651756864272E-19
8028.24596309663  9.512021140970274E-19
8030.79896306993  5.378872443388814E-19
8033.35196304322  7.709483766625703E-19
8035.90496301652  9.128537034368594E-19
8038.45796298982  9.967959142832548E-19
8041.01096296312  9.289891512892653E-19
8043.56396293641  1.249080408640529E-18
8046.11696290971  1.509841671649892E-18
8048.66996288301  1.451306504375596E-18
8051.2229628563  1.363895733437231E-18
8053.7759628296  1.414361478819734E-18
8056.3289628029  1.628010093540317E-18
8058.88196277619  1.624656062575915E-18
8061.43496274949  1.787526332772984E-18
8063.98796272279  1.625449191670482E-18
8066.54096269609  1.809184648625985E-18
8069.09396266938  1.723106966187646E-18
8071.64696264268  1.925408367589750E-18
8074.19996261598  1.737752431677687E-18
8076.75296258928  1.730412039900056E-18
8079.30596256257  1.849627439699915E-18
8081.85896253587  1.743140140040948E-18
8084.41196250917  1.451375612494404E-18
8086.96496248246  1.468750929437748E-18
8089.51796245576  1.374993682581997E-18
8092.07096242906  1.188892252485186E-18
8094.62396240236  1.007240478573590E-18
8097.17696237565  7.762376019331864E-19
8099.72996234895  7.264911232609182E-19
8102.28296232225  7.667196285101336E-19
8104.83596229554  6.695608070777565E-19
8107.38896226884  7.016589327355854E-19
8109.94196224214  8.972764684964939E-19
8112.49496221543  1.005882854215811E-18
8115.04796218873  1.295881222063091E-18
8117.60096216203  1.468716460419368E-18
8120.15396213532  1.458363162975213E-18
8122.70696210862  1.668801651031296E-18
8125.25996208192  1.738771732615322E-18
8127.81296205522  1.907170474178346E-18
8130.36596202852  1.722340495693940E-18
8132.91896200181  1.795644572022380E-18
8135.47196197511  1.900887587856924E-18
8138.02496194841  1.808820600768615E-18
8140.5779619217  1.773283459968061E-18
8143.130961895  1.770153393305389E-18
8145.6839618683  1.919639122168997E-18
8148.23696184159  1.913091010476148E-18
8150.78996181489  2.004769498478495E-18
8153.34296178819  2.108323528032446E-18
8155.89596176149  2.066916790579090E-18
8158.44896173478  1.858048090221420E-18
8161.00196170808  1.721145453525577E-18
8163.55496168138  1.872707479196805E-18
8166.10796165467  1.980920611465244E-18
8168.66096162797  2.024976036691484E-18
8171.21396160127  2.069999653312429E-18
8173.76696157457  1.891521159782245E-18
8176.31996154786  1.956785613855797E-18
8178.87296152116  1.911344802189724E-18
8181.42596149446  1.957936168923824E-18
8183.97896146775  2.048480742142435E-18
8186.53196144105  2.177379244501648E-18
8189.08496141435  2.049065188809253E-18
8191.63796138765  1.957589610099550E-18
8194.19096136094  2.043778850232506E-18
8196.74396133424  2.192709507616465E-18
8199.29696130754  2.112339943379784E-18
8201.84996128083  2.297317986254902E-18
8204.40296125413  2.354853209840997E-18
8206.95596122743  2.186263444891324E-18
8209.50896120072  2.182156527109096E-18
8212.06196117402  2.104599166636273E-18
8214.61496114732  2.131481505012638E-18
8217.16796112062  2.276354486192472E-18
8219.72096109391  2.313611516642157E-18
8222.27396106721  2.145744753959695E-18
8224.82696104051  2.043146180914208E-18
8227.37996101381  1.941732122628712E-18
8229.9329609871  1.931347752047708E-18
8232.4859609604  1.953810743278897E-18
8235.0389609337  2.068748068373010E-18
8237.59196090699  2.167280645101459E-18
8240.14496088029  2.214541357768998E-18
8242.69796085359  2.189732769236750E-18
8245.25096082689  2.172543211931688E-18
8247.80396080018  2.329527924471123E-18
8250.35696077348  2.411178449081216E-18
8252.90996074678  2.281701612828851E-18
8255.46296072007  2.003949711428441E-18
8258.01596069337  2.176233953504330E-18
8260.56896066667  2.001668807378638E-18
8263.12196063996  2.115196125228968E-18
8265.67496061326  2.221507174039190E-18
8268.22796058656  2.206234133090732E-18
8270.78096055986  2.217108032943663E-18
8273.33396053315  2.445140029156826E-18
8275.88696050645  2.145303277918029E-18
8278.43996047975  1.592159505280110E-18
8280.99296045304  2.167829094629883E-18
8283.54596042634  1.853603783129884E-18
8286.09896039964  2.214721004837261E-18
8288.65196037294  1.974092332596594E-18
8291.20496034623  2.236023762515649E-18
8293.75796031953  1.551661359950358E-18
8296.31096029283  1.700597790510672E-18
8298.86396026612  2.076772069416256E-18
8301.41696023942  2.163165916832771E-18
8303.96996021272  1.755113825908193E-18
8306.52296018602  2.015361872900349E-18
8309.07596015931  1.851307597277828E-18
8311.62896013261  2.120270895010739E-18
8314.18196010591  2.180710692791040E-18
8316.73496007921  2.040920461728336E-18
8319.2879600525  2.049940500892810E-18
8321.8409600258  1.967218717171627E-18
8324.3939599991  2.019429057897128E-18
8326.94695997239  1.817857450629159E-18
8329.49995994569  2.192589120982535E-18
8332.05295991899  2.085784297964353E-18
8334.60595989228  2.197784956968287E-18
8337.15895986558  2.594452054425971E-18
8339.71195983888  2.406160732205617E-18
8342.26495981218  1.182318247067116E-18
8344.81795978547  1.636523454691067E-18
8347.37095975877  2.193973149124412E-18
8349.92395973207  1.364889140700013E-18
8352.47695970536  2.142666136770123E-18
8355.02995967866  2.017723261666510E-18
8357.58295965196  1.817888863464400E-18
8360.13595962526  1.823240744315853E-18
8362.68895959855  1.889332796597379E-18
8365.24195957185  1.837172546461415E-18
8367.79495954515  1.648622281422380E-18
8370.34795951844  1.735665947940380E-18
8372.90095949174  1.636854222371067E-18
8375.45395946504  1.620871253633100E-18
8378.00695943833  1.359466369026877E-18
8380.55995941163  1.348493391728207E-18
8383.11295938493  1.550023653082744E-18
8385.66595935823  1.757051057951330E-18
8388.21895933152  2.031065523312836E-18
8390.77195930482  1.639132070119076E-18
8393.32495927812  2.091700589455538E-18
8395.87795925142  2.237552459386359E-18
8398.43095922471  2.254746940875281E-18
8400.98395919801  1.332061645434631E-18
8403.53695917131  2.086295731499189E-18
8406.0899591446  2.398299228918667E-18
8408.6429591179  2.413107021835468E-18
8411.1959590912  2.332187310229966E-18
8413.7489590645  2.133984845978554E-18
8416.30195903779  2.098593222527095E-18
8418.85495901109  2.181518424957920E-18
8421.40795898439  2.332213629049173E-18
8423.96095895768  2.129954846970783E-18
8426.51395893098  2.786042563144117E-18
8429.06695890428  2.079882609743820E-18
8431.61995887757  2.146275375285943E-18
8434.17295885087  2.352649395312270E-18
8436.72595882417  2.088974643518579E-18
8439.27895879746  2.150619162102124E-18
8441.83195877076  2.183692865418440E-18
8444.38495874406  2.305909624665002E-18
8446.93795871736  2.322664158084006E-18
8449.49095869066  2.026091953883425E-18
8452.04395866395  2.292818834837701E-18
8454.59695863725  2.465510253924896E-18
8457.14995861055  2.440894556548600E-18
8459.70295858384  2.094939667050524E-18
8462.25595855714  2.312014222602072E-18
8464.80895853044  2.118110718299876E-18
8467.36195850373  1.988811491289872E-18
8469.91495847703  2.056273817971646E-18
8472.46795845033  2.003150300589636E-18
8475.02095842363  1.996143732777449E-18
8477.57395839692  2.030257791878270E-18
8480.12695837022  2.199415702917463E-18
8482.67995834352  2.077497789149628E-18
8485.23295831681  2.152033584287778E-18
8487.78595829011  2.056073116136306E-18
8490.33895826341  2.165929389143657E-18
8492.89195823671  2.350560703454375E-18
8495.44495821  2.245240599022743E-18
8497.9979581833  2.151762416033303E-18
8500.5509581566  2.189306406068431E-18
8503.10395812989  2.447059433097655E-18
8505.65695810319  2.418263295146994E-18
8508.20995807649  2.206943212830720E-18
8510.76295804979  2.163005118402121E-18
8513.31595802308  2.147631556697694E-18
8515.86895799638  2.289907299165520E-18
8518.42195796968  2.034860861211682E-18
8520.97495794297  2.057408412137457E-18
8523.52795791627  2.182317157786263E-18
8526.08095788957  2.163849017307057E-18
8528.63395786286  1.969438494479454E-18
8531.18695783616  2.098289962716270E-18
8533.73995780946  2.133289181719235E-18
8536.29295778276  1.990570944215099E-18
8538.84595775605  1.942227426117748E-18
8541.39895772935  2.079298672897009E-18
8543.95195770265  2.087236246237992E-18
8546.50495767595  2.311011053038541E-18
8549.05795764924  2.325643783641631E-18
8551.61095762254  2.198655345230492E-18
8554.16395759584  2.179917564635478E-18
8556.71695756913  2.030045543952075E-18
8559.26995754243  2.181234012897890E-18
8561.82295751573  2.201039826460867E-18
8564.37595748903  1.976790432693996E-18
8566.92895746232  2.042850562869669E-18
8569.48195743562  2.047044926932921E-18
8572.03495740892  1.893754861211546E-18
8574.58795738221  1.908175004014982E-18
8577.14095735551  2.188231751260560E-18
8579.69395732881  2.130158266217919E-18
8582.2469573021  2.042839186418579E-18
8584.7999572754  2.046427199820452E-18
8587.3529572487  2.118949523634370E-18
8589.905957222  2.225375526130274E-18
8592.45895719529  2.174398092750652E-18
8595.01195716859  2.222543116352610E-18
8597.56495714189  2.252983413794438E-18
8600.11795711519  2.151540659484594E-18
8602.67095708848  2.106659673639202E-18
8605.22395706178  2.112150110119262E-18
8607.77695703508  2.229891658524352E-18
8610.32995700838  2.211379030819463E-18
8612.88295698167  2.441654066158903E-18
8615.43595695497  2.294934016150288E-18
8617.98895692827  2.558816601484510E-18
8620.54195690156  1.915733926702800E-18
8623.09495687486  2.118555930695591E-18
8625.64795684816  2.297677111942627E-18
8628.20095682145  1.557837104320969E-18
8630.75395679475  1.886535875573589E-18
8633.30695676805  2.518985424897786E-18
8635.85995674135  1.965536693698567E-18
8638.41295671464  2.007719240831829E-18
8640.96595668794  2.572318813357172E-18
8643.51895666124  2.450725554406048E-18
8646.07195663453  2.435697023375025E-18
8648.62495660783  2.254366253465390E-18
8651.17795658113  1.996729198808403E-18
8653.73095655442  2.138968774214448E-18
8656.28395652772  2.275826754027718E-18
8658.83695650102  2.567563604730041E-18
8661.38995647432  2.499978853283520E-18
8663.94295644762  2.040659312767092E-18
8666.49595642091  2.054735783285498E-18
8669.04895639421  2.291994803260052E-18
8671.60195636751  2.468003576896982E-18
8674.1549563408  1.991310247605507E-18
8676.7079563141  2.408812817324368E-18
8679.2609562874  2.244385833755877E-18
8681.81395626069  2.305253354149115E-18
8684.36695623399  2.185534671302753E-18
8686.91995620729  2.465566458211251E-18
8689.47295618059  2.471009181297631E-18
8692.02595615388  2.232858379290252E-18
8694.57895612718  2.190572764443993E-18
8697.13195610048  1.953739769065895E-18
8699.68495607377  2.264077372956261E-18
8702.23795604707  2.159134051494313E-18
8704.79095602037  2.320430119420894E-18
8707.34395599366  2.411259614708180E-18
8709.89695596696  2.378988379396103E-18
8712.44995594026  2.335669030909397E-18
8715.00295591356  2.256984547518923E-18
8717.55595588685  2.119863719537704E-18
8720.10895586015  2.345369962328943E-18
8722.66195583345  2.111898978450891E-18
8725.21495580675  2.027374103751628E-18
8727.76795578004  1.997223822263345E-18
8730.32095575334  2.177299441251703E-18
8732.87395572664  2.378876652030073E-18
8735.42695569993  2.269056376291795E-18
8737.97995567323  2.389850393454404E-18
8740.53295564653  2.451968989651757E-18
8743.08595561982  2.346250877349423E-18
8745.63895559312  2.433186212442517E-18
8748.19195556642  2.276285040679791E-18
8750.74495553972  2.388711045157837E-18
8753.29795551301  2.358413378518701E-18
8755.85095548631  2.141557523426945E-18
8758.40395545961  1.869081263076486E-18
8760.95695543291  2.340226424468472E-18
8763.5099554062  1.682779300665550E-18
8766.0629553795  1.851410157048734E-18
8768.6159553528  2.521768254062707E-18
8771.16895532609  2.029289092070703E-18
8773.72195529939  1.826607002059328E-18
8776.27495527269  1.761709482624751E-18
8778.82795524598  2.168502857162655E-18
8781.38095521928  1.703032024086088E-18
8783.93395519258  1.658701864757416E-18
8786.48695516588  1.573395746868451E-18
8789.03995513917  1.594317136981935E-18
8791.59295511247  1.795189513949346E-18
8794.14595508577  1.633745891066392E-18
8796.69895505906  1.777754597710973E-18
8799.25195503236  1.753898239482028E-18
8801.80495500566  1.982199366616107E-18
8804.35795497896  2.181234692956565E-18
8806.91095495225  2.476638343653439E-18
8809.46395492555  2.346914959765549E-18
8812.01695489885  2.295481617231212E-18
8814.56995487214  2.344036364777848E-18
8817.12295484544  2.284939333986641E-18
8819.67595481874  2.444069281698622E-18
8822.22895479204  2.212865108574844E-18
8824.78195476533  1.985020909376219E-18
8827.33495473863  1.655326439272887E-18
8829.88795471193  1.243203257682023E-18
8832.44095468522  1.892882606795030E-18
8834.99395465852  1.767092097171847E-18
8837.54695463182  2.782553544195947E-18
8840.09995460512  2.412323742791969E-18
8842.65295457841  2.534095290290766E-18
8845.20595455171  2.462353530450971E-18
8847.75895452501  2.174657036442214E-18
8850.3119544983  2.087403159252306E-18
8852.8649544716  1.929310510959134E-18
8855.4179544449  1.994374093409205E-18
8857.9709544182  1.855179175972623E-18
8860.52395439149  1.655637000925155E-18
8863.07695436479  1.878302853434183E-18
8865.62995433809  1.908144441160353E-18
8868.18295431138  1.710968748656909E-18
8870.73595428468  1.773790141108175E-18
8873.28895425798  1.990276854183766E-18
8875.84195423128  2.401668034220742E-18
8878.39495420457  2.158258061309948E-18
8880.94795417787  2.703889097189576E-18
8883.50095415117  2.810281479621353E-18
8886.05395412446  2.202003943828513E-18
8888.60695409776  2.183940772905785E-18
8891.15995407106  2.223817964991718E-18
8893.71295404436  2.404615058112170E-18
8896.26595401765  2.783455684199053E-18
8898.81895399095  2.750975596648164E-18
8901.37195396425  2.498870918609698E-18
8903.92495393754  2.601818427835947E-18
8906.47795391084  2.418405078500823E-18
8909.03095388414  2.888808050490904E-18
8911.58395385743  2.615652086438680E-18
8914.13695383073  2.220046908824409E-18
8916.68995380403  2.920773308849067E-18
8919.24295377733  3.214282686850988E-18
8921.79595375062  2.747560777879960E-18
8924.34895372392  2.523540272446653E-18
8926.90195369722  2.260725040759123E-18
8929.45495367052  2.337107395301996E-18
8932.00795364381  2.227006102911143E-18
8934.56095361711  2.185723318350464E-18
8937.11395359041  2.181321290661564E-18
8939.6669535637  2.193651043387408E-18
8942.219953537  2.214105147867566E-18
8944.7729535103  2.450145693468653E-18
8947.32595348359  2.370945362021100E-18
8949.87895345689  1.899534465761787E-18
8952.43195343019  2.034952893434894E-18
8954.98495340349  1.827231691468609E-18
8957.53795337678  2.009920680172670E-18
8960.09095335008  2.160687369586897E-18
8962.64395332338  1.944519538195228E-18
8965.19695329667  2.110608170572664E-18
8967.74995326997  2.345077909692245E-18
8970.30295324327  2.375472191741057E-18
8972.85595321656  2.122687130839768E-18
8975.40895318986  2.362583122580191E-18
8977.96195316316  2.396811625938389E-18
8980.51495313646  1.982835602357864E-18
8983.06795310976  1.933391449952154E-18
8985.62095308305  2.165374149552174E-18
8988.17395305635  1.924922237334103E-18
8990.72695302965  2.341840021008615E-18
8993.27995300294  2.415789331976208E-18
8995.83295297624  2.398439994202141E-18
8998.38595294954  2.120609815321780E-18
9000.93895292283  2.590821254597195E-18
9003.49195289613  2.390358941106936E-18
9006.04495286943  2.557610354042516E-18
9008.59795284273  2.231378925506209E-18
9011.15095281602  2.462253349907283E-18
9013.70395278932  2.352214882971106E-18
9016.25695276262  2.158429897893252E-18
9018.80995273591  2.385870825591663E-18
9021.36295270921  2.285078739301182E-18
9023.91595268251  2.577784290956917E-18
9026.4689526558  2.509727329672879E-18
9029.0219526291  2.588119589795806E-18
9031.5749526024  2.688831870782297E-18
9034.1279525757  2.528150982980872E-18
9036.68095254899  2.304807294574368E-18
9039.23395252229  2.648498769588930E-18
9041.78695249559  2.587876608102172E-18
9044.33995246889  2.750213371493599E-18
9046.89295244218  2.171580626750884E-18
9049.44595241548  2.387840828603015E-18
9051.99895238878  2.220812191386160E-18
9054.55195236207  2.362784503943673E-18
9057.10495233537  2.349202317045483E-18
9059.65795230867  2.338372395024959E-18
9062.21095228196  2.323553395407109E-18
9064.76395225526  2.315214588077128E-18
9067.31695222856  2.367055616993908E-18
9069.86995220186  2.166400582116643E-18
9072.42295217515  2.385325772393143E-18
9074.97595214845  2.560696103546837E-18
9077.52895212175  2.287074551772236E-18
9080.08195209505  2.479095160035658E-18
9082.63495206834  2.557291133027596E-18
9085.18795204164  2.398195484580867E-18
9087.74095201494  2.342385414312444E-18
9090.29395198823  2.237476222299198E-18
9092.84695196153  2.303672361175378E-18
9095.39995193483  2.501708932465005E-18
9097.95295190812  2.329543888762333E-18
9100.50595188142  2.390267080416059E-18
9103.05895185472  1.923665728297530E-18
9105.61195182802  1.999181261203366E-18
9108.16495180131  2.035388087602425E-18
9110.71795177461  2.180350552832547E-18
9113.27095174791  2.233125813435621E-18
9115.8239517212  2.450666975653523E-18
9118.3769516945  2.158425653241977E-18
9120.9299516678  2.280180900126648E-18
9123.4829516411  2.314765810671142E-18
9126.03595161439  2.162294853078423E-18
9128.58895158769  2.303278258830062E-18
9131.14195156099  2.130454736298379E-18
9133.69495153428  2.331571623296123E-18
9136.24795150758  2.489736945455016E-18
9138.80095148088  2.614618183855059E-18
9141.35395145417  2.546837145221674E-18
9143.90695142747  2.604111048908000E-18
9146.45995140077  2.486388857460948E-18
9149.01295137407  2.363326501264050E-18
9151.56595134736  2.329761400893082E-18
9154.11895132066  2.361304540014196E-18
9156.67195129396  2.191595123088558E-18
9159.22495126726  2.475189793402159E-18
9161.77795124055  2.499842676709981E-18
9164.33095121385  2.327089790372424E-18
9166.88395118715  2.381456912490870E-18
9169.43695116044  2.271138787299564E-18
9171.98995113374  2.172243520713888E-18
9174.54295110704  2.321267058144949E-18
9177.09595108034  2.261664706803615E-18
9179.64895105363  2.323635578291124E-18
9182.20195102693  2.317539470355586E-18
9184.75495100023  2.303251430835623E-18
9187.30795097352  2.351100155990093E-18
9189.86095094682  2.554560772544059E-18
9192.41395092012  2.535254676145996E-18
9194.96695089341  2.517290837373978E-18
9197.51995086671  2.806436562265830E-18
9200.07295084001  2.956574317862738E-18
9202.62595081331  2.831527865470786E-18
9205.1789507866  2.539738207198189E-18
9207.7319507599  2.626905996579686E-18
9210.2849507332  2.747613756156713E-18
9212.8379507065  2.751674318958543E-18
9215.39095067979  2.456271517097994E-18
9217.94395065309  2.610547603230663E-18
9220.49695062639  2.707802445940123E-18
9223.04995059968  2.854729140950549E-18
9225.60295057298  2.591306200101630E-18
9228.15595054628  2.552645614704831E-18
9230.70895051957  2.619434690169990E-18
9233.26195049287  2.562504458782536E-18
9235.81495046617  2.429052977604279E-18
9238.36795043947  2.429529262576759E-18
9240.92095041276  2.241892513540417E-18
9243.47395038606  2.332637958609445E-18
9246.02695035936  2.443246269569604E-18
9248.57995033266  2.302979923134868E-18
9251.13295030595  2.233114267554118E-18
9253.68595027925  2.252814975826506E-18
9256.23895025255  2.265516078010611E-18
9258.79195022585  2.432907914413902E-18
9261.34495019914  2.598095935292477E-18
9263.89795017244  2.379726325867353E-18
9266.45095014574  2.513413827068011E-18
9269.00395011903  2.533245280233840E-18
9271.55695009233  2.524597779117381E-18
9274.10995006563  2.323633201406827E-18
9276.66295003892  2.345570666126833E-18
9279.21595001222  2.273890712917054E-18
9281.76894998552  2.477757317855472E-18
9284.32194995882  2.277977085106438E-18
9286.87494993211  2.243943680296880E-18
9289.42794990541  1.926720744498470E-18
9291.98094987871  2.048142507035965E-18
9294.533949852  2.148313809840263E-18
9297.0869498253  2.151830168251598E-18
9299.6399497986  2.273572001078937E-18
9302.1929497719  1.969635293294406E-18
9304.74594974519  2.705968961379795E-18
9307.29894971849  2.097763419814730E-18
9309.85194969179  1.748076357491725E-18
9312.40494966508  2.180638871384701E-18
9314.95794963838  2.282706144926606E-18
9317.51094961168  1.466811832798691E-18
9320.06394958498  2.109860548545044E-18
9322.61694955827  2.004487806425240E-18
9325.16994953157  1.175189765664314E-18
9327.72294950487  1.521460650753285E-18
9330.27594947816  1.813846811434815E-18
9332.82894945146  1.700517818129582E-18
9335.38194942476  1.282492777852472E-18
9337.93494939806  1.369184876575235E-18
9340.48794937135  1.147557257230428E-18
9343.04094934465  1.253122550932292E-18
9345.59394931795  1.579670823747988E-18
9348.14694929124  1.653652566273316E-18
9350.69994926454  1.787397119802702E-18
9353.25294923784  1.589379396098700E-18
9355.80594921114  1.531651281259120E-18
9358.35894918443  1.436565954762773E-18
9360.91194915773  1.524960878359833E-18
9363.46494913103  1.333562411964589E-18
9366.01794910432  1.553584161432839E-18
9368.57094907762  1.899886968670827E-18
9371.12394905092  6.909319100500265E-19
9373.67694902422  1.653933073550903E-18
9376.22994899751  1.679908008460197E-18
9378.78294897081  2.428143876563099E-18
9381.33594894411  7.624412157322879E-19
9383.8889489174  1.486679283379907E-18
9386.4419488907  1.752794720084549E-18
9388.994948864  2.071902929362602E-18
9391.54794883729  2.383071527718110E-18
9394.10094881059  2.193126367203679E-18
9396.65394878389  1.995345852079927E-18
9399.20694875719  1.795398877112110E-18
9401.75994873048  2.309649441281763E-18
9404.31294870378  2.116999050087015E-18
9406.86594867708  1.743312998672275E-18
9409.41894865038  1.821887962083821E-18
9411.97194862367  2.000047913876540E-18
9414.52494859697  1.930176145531348E-18
9417.07794857027  2.357285918286033E-18
9419.63094854356  1.999547177938861E-18
9422.18394851686  1.715434791727812E-18
9424.73694849016  2.071607819557268E-18
9427.28994846346  1.791793374526695E-18
9429.84294843675  1.651948807682487E-18
9432.39594841005  2.365204983630778E-18
9434.94894838335  2.030757002526394E-18
9437.50194835664  9.921265409879115E-19
9440.05494832994  1.167179348912066E-18
9442.60794830324  1.002352574445826E-18
9445.16094827653  2.423941532175368E-18
9447.71394824983  2.019018318624524E-18
9450.26694822313  1.929140713991833E-18
9452.81994819643  1.729572220003169E-18
9455.37294816972  1.628159180312218E-18
9457.92594814302  2.125398645457829E-18
9460.47894811632  2.248781072008582E-18
9463.03194808961  1.665509090651012E-18
9465.58494806291  1.588033912526069E-18
9468.13794803621  1.747074036938328E-18
9470.69094800951  2.021712682252389E-18
9473.2439479828  9.258218159508968E-19
9475.7969479561  2.191589860248578E-18
9478.3499479294  1.684187441815966E-18
9480.90294790269  1.664906135997057E-18
9483.45594787599  1.846732887735340E-18
9486.00894784929  1.724078557423938E-18
9488.56194782259  1.916227193903508E-18
9491.11494779588  1.842463472728719E-18
9493.66794776918  1.644682787780996E-18
9496.22094774248  1.789813863053826E-18
9498.77394771577  1.472732369370273E-18
9501.32694768907  1.289182247140429E-18
9503.87994766237  2.159648713369875E-18
9506.43294763566  2.105256291256751E-18
9508.98594760896  2.292345440012566E-18
9511.53894758226  2.032822602217600E-18
9514.09194755556  1.779245940237675E-18
9516.64494752886  1.763673544391715E-18
9519.19794750215  1.676170572629606E-18
9521.75094747545  1.386637027716816E-18
9524.30394744875  1.514748004608820E-18
9526.85694742204  1.449551639636411E-18
9529.40994739534  1.709048158671789E-18
9531.96294736864  1.627339393012599E-18
9534.51594734193  1.454874315149848E-18
9537.06894731523  1.520613865729811E-18
9539.62194728853  1.520862963653819E-18
9542.17494726182  1.521111969058983E-18
9544.72794723512  1.521360881993507E-18
9547.28094720842  1.521609702505559E-18
9549.83394718172  1.521858430643281E-18
9552.38694715501  1.522107066454784E-18
9554.93994712831  1.522355609988147E-18
9557.49294710161  1.522604061291422E-18
9560.0459470749  1.522852420412630E-18
9562.5989470482  1.523100687399764E-18
9565.1519470215  1.523348862300785E-18
9567.7049469948  1.523596945163627E-18
9570.25794696809  1.523844936036193E-18
9572.81094694139  1.524092834966355E-18
9575.36394691469  1.524340642001957E-18
9577.91694688799  1.524588357190815E-18
9580.46994686128  1.524835980580714E-18
9583.02294683458  1.525083512219408E-18
9585.57594680788  1.525330952154623E-18
9588.12894678117  1.525578300434057E-18
9590.68194675447  1.525825557105374E-18
9593.23494672777  1.526072722216214E-18
9595.78794670106  1.526319795814184E-18
9598.34094667436  1.526566777946864E-18
9600.89394664766  1.526813668661801E-18
9603.44694662096  1.527060468006518E-18
9605.99994659425  1.527307176028503E-18
9608.55294656755  1.527553792775218E-18
9611.10594654085  1.527800318294096E-18
9613.65894651414  1.528046752632540E-18
9616.21194648744  1.528293095837920E-18
9618.76494646074  1.528539347957583E-18
9621.31794643404  1.528785509038844E-18
9623.87094640733  1.529031579128987E-18
9626.42394638063  1.529277558275270E-18
9628.97694635393  1.529523446524919E-18
9631.52994632722  1.529769243925134E-18
9634.08294630052  1.530014950523081E-18
9636.63594627382  1.530260566365902E-18
9639.18894624712  1.530506091500707E-18
9641.74194622041  1.530751525974578E-18
9644.29494619371  1.530996869834566E-18
9646.84794616701  1.531242123127698E-18
9649.4009461403  1.531487285900963E-18
9651.9539461136  1.531732358201329E-18
9654.5069460869  1.531977340075734E-18
9657.0599460602  1.532222231571084E-18
9659.61294603349  1.532467032734255E-18
9662.16594600679  1.532711743612100E-18
9664.71894598009  1.532956364251436E-18
9667.27194595338  1.533200894699057E-18
9669.82494592668  1.533445335001725E-18
9672.37794589998  1.533689685206172E-18
9674.93094587327  1.533933945359105E-18
9677.48394584657  1.534178115507199E-18
9680.03694581987  1.534422195697100E-18
9682.58994579317  1.534666185975428E-18
9685.14294576646  1.534910086388771E-18
9687.69594573976  1.535153896983690E-18
9690.24894571306  1.535397617806718E-18
9692.80194568636  1.535641248904358E-18
9695.35494565965  1.535884790323081E-18
9697.90794563295  1.536128242109335E-18
9700.46094560625  1.536371604309539E-18
9703.01394557954  1.536614876970078E-18
9705.56694555284  1.536858060137312E-18
9708.11994552614  1.537101153857575E-18
9710.67294549943  1.537344158177164E-18
9713.22594547273  1.537587073142358E-18
9715.77894544603  1.537829898799397E-18
9718.33194541933  1.538072635194501E-18
9720.88494539262  1.538315282373857E-18
9723.43794536592  1.538557840383624E-18
9725.99094533922  1.538800309269933E-18
9728.54394531251  1.539042689078885E-18
9731.09694528581  1.539284979856556E-18
9733.64994525911  1.539527181648989E-18
9736.20294523241  1.539769294502205E-18
9738.7559452057  1.540011318462187E-18
9741.308945179  1.540253253574896E-18
9743.8619451523  1.540495099886268E-18
9746.4149451256  1.540736857442201E-18
9748.96794509889  1.540978526288572E-18
9751.52094507219  1.541220106471228E-18
9754.07394504549  1.541461598035985E-18
9756.62694501878  1.541703001028634E-18
9759.17994499208  1.541944315494937E-18
9761.73294496538  1.542185541480626E-18
9764.28594493867  1.542426679031404E-18
9766.83894491197  1.542667728192952E-18
9769.39194488527  1.542908689010917E-18
9771.94494485857  1.543149561530918E-18
9774.49794483186  1.543390345798545E-18
9777.05094480516  1.543631041859364E-18
9779.60394477846  1.543871649758911E-18
9782.15694475175  1.544112169542693E-18
9784.70994472505  1.544352601256191E-18
9787.26294469835  1.544592944944851E-18
9789.81594467165  1.544833200654099E-18
9792.36894464494  1.545073368429332E-18
9794.92194461824  1.545313448315914E-18
9797.47494459154  1.545553440359185E-18
9800.02794456483  1.545793344604455E-18
9802.58094453813  1.546033161097008E-18
9805.13394451143  1.546272889882098E-18
9807.68694448473  1.546512531004952E-18
9810.23994445802  1.546752084510767E-18
9812.79294443132  1.546991550444715E-18
9815.34594440462  1.547230928851942E-18
9817.89894437791  1.547470219777559E-18
9820.45194435121  1.547709423266655E-18
9823.00494432451  1.547948539364288E-18
9825.5579442978  1.548187568115491E-18
9828.1109442711  1.548426509565266E-18
9830.6639442444  1.548665363758589E-18
9833.2169442177  1.548904130740409E-18
9835.769944191  1.549142810555643E-18
9838.32294416429  1.549381403249188E-18
9840.87594413759  1.549619908865904E-18
9843.42894411089  1.549858327450631E-18
9845.98194408418  1.550096659048178E-18
9848.53494405748  1.550334903703324E-18
9851.08794403078  1.550573061460823E-18
9853.64094400407  1.550811132365403E-18
9856.19394397737  1.551049116461761E-18
9858.74694395067  1.551287013794569E-18
9861.29994392396  1.551524824408467E-18
9863.85294389726  1.551762548348074E-18
9866.40594387056  1.552000185657975E-18
9868.95894384386  1.552237736382733E-18
9871.51194381715  1.552475200566878E-18
9874.06494379045  1.552712578254917E-18
9876.61794376375  1.552949869491327E-18
9879.17094373704  1.553187074320559E-18
9881.72394371034  1.553424192787034E-18
9884.27694368364  1.553661224935149E-18
9886.82994365694  1.553898170809271E-18
9889.38294363023  1.554135030453739E-18
9891.93594360353  1.554371803912868E-18
9894.48894357683  1.554608491230943E-18
9897.04194355013  1.554845092452221E-18
9899.59494352342  1.555081607620934E-18
9902.14794349672  1.555318036781286E-18
9904.70094347002  1.555554379977449E-18
9907.25394344331  1.555790637253575E-18
9909.80694341661  1.556026808653787E-18
9912.35994338991  1.556262894222176E-18
9914.9129433632  1.556498894002810E-18
9917.4659433365  1.556734808039729E-18
9920.0189433098  1.556970636376944E-18
9922.5719432831  1.557206379058443E-18
9925.12494325639  1.557442036128180E-18
9927.67794322969  1.557677607630089E-18
9930.23094320299  1.557913093608072E-18
9932.78394317628  1.558148494106007E-18
9935.33694314958  1.558383809167742E-18
9937.88994312288  1.558619038837098E-18
9940.44294309618  1.558854183157874E-18
9942.99594306947  1.559089242173834E-18
9945.54894304277  1.559324215928721E-18
9948.10194301607  1.559559104466249E-18
9950.65494298936  1.559793907830105E-18
9953.20794296266  1.560028626063947E-18
9955.76094293596  1.560263259211409E-18
9958.31394290926  1.560497807316098E-18
9960.86694288255  1.560732270421592E-18
9963.41994285585  1.560966648571443E-18
9965.97294282915  1.561200941809177E-18
9968.52594280244  1.561435150178291E-18
9971.07894277574  1.561669273722255E-18
9973.63194274904  1.561903312484516E-18
9976.18494272234  1.562137266508491E-18
9978.73794269563  1.562371135837568E-18
9981.29094266893  1.562604920515115E-18
9983.84394264223  1.562838620584466E-18
9986.39694261552  1.563072236088933E-18
9988.94994258882  1.563305767071798E-18
9991.50294256212  1.563539213576318E-18
9994.05594253541  1.563772575645724E-18
9996.60894250871  1.564005853323217E-18
9999.16194248201  1.564239046651977E-18
10001.7149424553  1.564472155675151E-18
10004.2679424286  1.564705180435862E-18
10006.8209424019  1.564938120977208E-18
10009.3739423752  1.565170977342259E-18
10011.9269423485  1.565403749574055E-18
10014.4799423218  1.565636437715617E-18
10017.0329422951  1.565869041809933E-18
10019.5859422684  1.566101561899966E-18
10022.1389422417  1.566333998028653E-18
10024.691942215  1.566566350238904E-18
10027.2449421883  1.566798618573605E-18
10029.7979421616  1.567030803075610E-18
10032.3509421349  1.567262903787753E-18
10034.9039421082  1.567494920752837E-18
10037.4569420815  1.567726854013638E-18
10040.0099420548  1.567958703612910E-18
10042.5629420281  1.568190469593377E-18
10045.1159420014  1.568422151997736E-18
10047.6689419747  1.568653750868662E-18
10050.221941948  1.568885266248800E-18
10052.7749419212  1.569116698180767E-18
10055.3279418945  1.569348046707160E-18
10057.8809418678  1.569579311870543E-18
10060.4339418411  1.569810493713458E-18
10062.9869418144  1.570041592278418E-18
10065.5399417877  1.570272607607910E-18
10068.092941761  1.570503539744399E-18
10070.6459417343  1.570734388730317E-18
10073.1989417076  1.570965154608074E-18
10075.7519416809  1.571195837420055E-18
10078.3049416542  1.571426437208614E-18
10080.8579416275  1.571656954016082E-18
10083.4109416008  1.571887387884766E-18
10085.9639415741  1.572117738856942E-18
10088.5169415474  1.572348006974861E-18
10091.0699415207  1.572578192280753E-18
10093.622941494  1.572808294816814E-18
10096.1759414673  1.573038314625220E-18
10098.7289414406  1.573268251748117E-18
10101.2819414139  1.573498106227629E-18
10103.8349413872  1.573727878105850E-18
10106.3879413605  1.573957567424852E-18
10108.9409413338  1.574187174226675E-18
10111.4939413071  1.574416698553340E-18
10114.0469412804  1.574646140446838E-18
10116.5999412537  1.574875499949133E-18
10119.152941227  1.575104777102168E-18
10121.7059412003  1.575333971947855E-18
10124.2589411736  1.575563084528081E-18
10126.8119411469  1.575792114884712E-18
10129.3649411202  1.576021063059580E-18
10131.9179410935  1.576249929094498E-18
10134.4709410668  1.576478713031250E-18
10137.0239410401  1.576707414911596E-18
10139.5769410133  1.576936034777268E-18
10142.1299409866  1.577164572669973E-18
10144.6829409599  1.577393028631393E-18
10147.2359409332  1.577621402703184E-18
10149.7889409065  1.577849694926975E-18
10152.3419408798  1.578077905344372E-18
10154.8949408531  1.578306033996952E-18
10157.4479408264  1.578534080926269E-18
10160.0009407997  1.578762046173851E-18
10162.553940773  1.578989929781197E-18
10165.1069407463  1.579217731789785E-18
10167.6599407196  1.579445452241066E-18
10170.2129406929  1.579673091176462E-18
10172.7659406662  1.579900648637376E-18
10175.3189406395  1.580128124665178E-18
10177.8719406128  1.580355519301218E-18
10180.4249405861  1.580582832586819E-18
10182.9779405594  1.580810064563277E-18
10185.5309405327  1.581037215271863E-18
10188.083940506  1.581264284753825E-18
10190.6369404793  1.581491273050381E-18
10193.1899404526  1.581718180202730E-18
10195.7429404259  1.581945006252037E-18
10198.2959403992  1.582171751239449E-18
10200.8489403725  1.582398415206085E-18
10203.4019403458  1.582624998193037E-18
10205.9549403191  1.582851500241374E-18
10208.5079402924  1.583077921392140E-18
10211.0609402657  1.583304261686350E-18
10213.613940239  1.583530521164997E-18
10216.1669402123  1.583756699869049E-18
10218.7199401856  1.583982797839445E-18
10221.2729401589  1.584208815117103E-18
10223.8259401322  1.584434751742913E-18
10226.3789401055  1.584660607757743E-18
10228.9319400787  1.584886383202430E-18
10231.484940052  1.585112078117792E-18
10234.0379400253  1.585337692544619E-18
10236.5909399986  1.585563226523675E-18
10239.1439399719  1.585788680095700E-18
10241.6969399452  1.586014053301407E-18
10244.2499399185  1.586239346181487E-18
10246.8029398918  1.586464558776606E-18
10249.3559398651  1.586689691127400E-18
10251.9089398384  1.586914743274486E-18
10254.4619398117  1.587139715258452E-18
10257.014939785  1.587364607119862E-18
10259.5679397583  1.587589418899254E-18
10262.1209397316  1.587814150637143E-18
10264.6739397049  1.588038802374019E-18
10267.2269396782  1.588263374150345E-18
10269.7799396515  1.588487866006561E-18
10272.3329396248  1.588712277983079E-18
10274.8859395981  1.588936610120291E-18
10277.4389395714  1.589160862458559E-18
10279.9919395447  1.589385035038224E-18
10282.544939518  1.589609127899600E-18
10285.0979394913  1.589833141082976E-18
10287.6509394646  1.590057074628617E-18
10290.2039394379  1.590280928576764E-18
10292.7569394112  1.590504702967630E-18
10295.3099393845  1.590728397841408E-18
10297.8629393578  1.590952013238262E-18
